{
    "type": "qti",
    "data": {
        "identifier": "elections-in-the-united-states-2004",
        "serial": "item_554c813e1ab37863975171",
        "qtiClass": "assessmentItem",
        "attributes": {
            "identifier": "elections-in-the-united-states-2004",
            "title": "Elections in the United States, 2004",
            "label": "",
            "xml:lang": "en-US",
            "adaptive": false,
            "timeDependent": false,
            "toolName": "TAO",
            "toolVersion": "3.0.0"
        },
        "body": {
            "serial": "container_containeritembody_554c813e1ab14186065783",
            "body": "<p id=\"stimulus\">\n            The 4th of November 2004, Georges W. Bush (Republican) wins the US elections against John Kerry\n            (Democrat). After a first mandate leading the United States of America, Bush remains president for 4\n            more years. During these elections, 114.3 million votes were counted.\n        <\/p>\n    {{interaction_sliderinteraction_554c813e1c046994169006}}\n    <p id=\"mapContainer\">\n      {{img_554c813e1c79b011184651}}\n    <\/p>",
            "elements": {
                "interaction_sliderinteraction_554c813e1c046994169006": {
                    "serial": "interaction_sliderinteraction_554c813e1c046994169006",
                    "qtiClass": "sliderInteraction",
                    "attributes": {
                        "responseIdentifier": "RESPONSE",
                        "lowerBound": 0,
                        "upperBound": 100,
                        "step": 1,
                        "stepLabel": false,
                        "id": "interaction"
                    },
                    "choices": [],
                    "prompt": {
                        "serial": "container_containerstatic_554c813e1c5d1482337740",
                        "body": "In your opinion, what was the percentage (%) of Republican voters during the 2004 US elections? If needed,\n                help yourself with the map below.",
                        "elements": [],
                        "debug": {
                            "relatedItem": "item_554c813e1ab37863975171"
                        }
                    }
                },
                "img_554c813e1c79b011184651": {
                    "serial": "img_554c813e1c79b011184651",
                    "qtiClass": "img",
                    "attributes": {
                        "src": "img\/map.jpg",
                        "alt": "Presidential popular votes by county.",
                        "id": "map"
                    }
                }
            },
            "debug": {
                "relatedItem": "item_554c813e1ab37863975171"
            }
        },
        "namespaces": {
            "xml": "http:\/\/www.w3.org\/XML\/1998\/namespace",
            "xsi": "http:\/\/www.w3.org\/2001\/XMLSchema-instance",
            "": "http:\/\/www.imsglobal.org\/xsd\/imsqti_v2p1"
        },
        "stylesheets": [],
        "outcomes": {
            "outcomedeclaration_554c813e1b8c5389894640": {
                "identifier": "SCORE",
                "serial": "outcomedeclaration_554c813e1b8c5389894640",
                "qtiClass": "outcomeDeclaration",
                "attributes": {
                    "identifier": "SCORE",
                    "cardinality": "single",
                    "baseType": "float"
                },
                "defaultValue": null
            }
        },
        "responses": {
            "responsedeclaration_554c813e1b4de182096159": {
                "identifier": "RESPONSE",
                "serial": "responsedeclaration_554c813e1b4de182096159",
                "qtiClass": "responseDeclaration",
                "attributes": {
                    "identifier": "RESPONSE",
                    "cardinality": "single",
                    "baseType": "integer"
                },
                "correctResponses": [
                    "51"
                ],
                "mapping": {
                    "42": "0.1",
                    "43": "0.2",
                    "44": "0.3",
                    "45": "0.4",
                    "46": "0.5",
                    "47": "0.6",
                    "48": "0.7",
                    "49": "0.8",
                    "50": "0.9",
                    "51": "1.0",
                    "52": "0.9",
                    "53": "0.8",
                    "54": "0.7",
                    "55": "0.6",
                    "56": "0.5",
                    "57": "0.4",
                    "58": "0.3",
                    "59": "0.2",
                    "60": "0.1"
                },
                "areaMapping": [],
                "howMatch": "http:\/\/www.imsglobal.org\/question\/qti_v2p1\/rptemplates\/map_response",
                "mappingAttributes": {
                    "defaultValue": 0
                },
                "feedbackRules": []
            }
        },
        "feedbacks": [],
        "responseProcessing": {
            "serial": "response_templatesdriven_554c813e1ce1e509999999",
            "qtiClass": "responseProcessing",
            "attributes": [],
            "processingType": "templateDriven",
            "responseRules": [{
                "qtiClass": "responseCondition",
                "responseIf": {
                    "qtiClass": "responseIf",
                    "expression": {
                        "qtiClass": "isNull",
                        "expressions": [{
                            "qtiClass": "variable",
                            "attributes": {
                                "identifier": "RESPONSE"
                            }
                        }]
                    },
                    "responseRules": [{
                        "qtiClass": "setOutcomeValue",
                        "attributes": {
                            "identifier": "SCORE"
                        },
                        "expression": {
                            "qtiClass": "baseValue",
                            "attributes": {
                                "baseType": "float"
                            },
                            "value": "0.0"
                        }
                    }]
                },
                "responseElse": {
                    "qtiClass": "responseElse",
                    "responseRules": [{
                        "qtiClass": "setOutcomeValue",
                        "attributes": {
                            "identifier": "SCORE"
                        },
                        "expression": {
                            "qtiClass": "mapResponse",
                            "attributes": {
                                "identifier": "RESPONSE"
                            }
                        }
                    }]
                }
            }]
        }
    },
    "assets": {
        "img": {
            "img\/map.jpg": "data:image\/jpeg;base64,\/9j\/4QAYRXhpZgAASUkqAAgAAAAAAAAAAAAAAP\/sABFEdWNreQABAAQAAAA8AAD\/4QMraHR0cDovL25zLmFkb2JlLmNvbS94YXAvMS4wLwA8P3hwYWNrZXQgYmVnaW49Iu+7vyIgaWQ9Ilc1TTBNcENlaGlIenJlU3pOVGN6a2M5ZCI\/PiA8eDp4bXBtZXRhIHhtbG5zOng9ImFkb2JlOm5zOm1ldGEvIiB4OnhtcHRrPSJBZG9iZSBYTVAgQ29yZSA1LjAtYzA2MSA2NC4xNDA5NDksIDIwMTAvMTIvMDctMTA6NTc6MDEgICAgICAgICI+IDxyZGY6UkRGIHhtbG5zOnJkZj0iaHR0cDovL3d3dy53My5vcmcvMTk5OS8wMi8yMi1yZGYtc3ludGF4LW5zIyI+IDxyZGY6RGVzY3JpcHRpb24gcmRmOmFib3V0PSIiIHhtbG5zOnhtcD0iaHR0cDovL25zLmFkb2JlLmNvbS94YXAvMS4wLyIgeG1sbnM6eG1wTU09Imh0dHA6Ly9ucy5hZG9iZS5jb20veGFwLzEuMC9tbS8iIHhtbG5zOnN0UmVmPSJodHRwOi8vbnMuYWRvYmUuY29tL3hhcC8xLjAvc1R5cGUvUmVzb3VyY2VSZWYjIiB4bXA6Q3JlYXRvclRvb2w9IkFkb2JlIFBob3Rvc2hvcCBDUzUuMSBXaW5kb3dzIiB4bXBNTTpJbnN0YW5jZUlEPSJ4bXAuaWlkOkFDQjNEQ0EzNDZEMDExRTE5QTE3Qzk5MUNCQ0Y4OEIwIiB4bXBNTTpEb2N1bWVudElEPSJ4bXAuZGlkOkFDQjNEQ0E0NDZEMDExRTE5QTE3Qzk5MUNCQ0Y4OEIwIj4gPHhtcE1NOkRlcml2ZWRGcm9tIHN0UmVmOmluc3RhbmNlSUQ9InhtcC5paWQ6QUNCM0RDQTE0NkQwMTFFMTlBMTdDOTkxQ0JDRjg4QjAiIHN0UmVmOmRvY3VtZW50SUQ9InhtcC5kaWQ6QUNCM0RDQTI0NkQwMTFFMTlBMTdDOTkxQ0JDRjg4QjAiLz4gPC9yZGY6RGVzY3JpcHRpb24+IDwvcmRmOlJERj4gPC94OnhtcG1ldGE+IDw\/eHBhY2tldCBlbmQ9InIiPz7\/7gAOQWRvYmUAZMAAAAAB\/9sAhAAGBAQEBQQGBQUGCQYFBgkLCAYGCAsMCgoLCgoMEAwMDAwMDBAMDg8QDw4MExMUFBMTHBsbGxwfHx8fHx8fHx8fAQcHBw0MDRgQEBgaFREVGh8fHx8fHx8fHx8fHx8fHx8fHx8fHx8fHx8fHx8fHx8fHx8fHx8fHx8fHx8fHx8fHx\/\/wAARCAGDAmcDAREAAhEBAxEB\/8QAuwABAAICAwEAAAAAAAAAAAAAAAIDAQQGBwgFAQEAAwEBAQEAAAAAAAAAAAAAAwQFAgEGBxAAAgECBQEFBAcEBgcIAgMBAQIRAAMhMRIEBUFRYSITBnGBMgeRobHBQhQI0VIj1OFik1SUFfFygqIzVRjwkrLSQ2MkFnM0wlMXsxEAAgIBAwMCAwUHAwQDAAMBAAECAxEhEgQxQQVRE2EiMnGBoUIGkbHhouJDFPDRI8FSchXxYjOSU2Mk\/9oADAMBAAIRAxEAPwD1TQCgFAKAUAoDX3\/IbDjtq+73+5tbTa2o8zcX3W3bWTAlmIAxrqMXJ4SyzqMXJ4WrJ7Xd7Td2Vv7W9b3Fh8Uu2mDofYykivHFrRnjTWjLa8PBQCgFAKAUAoBQCgFAKAUAoBQCgFAKAUAoBQCgFAKAUAoBQCgFAKAUAoBQCgFAKAUAoBQCgFAKAUAoBQCgFAKAUAoBQCgFAKAUAoBQCgFAKAUAoBQCgFAKAUAoBQCgFAKAUAoDoz01+om2vrnleF9ShNvxJ3dyzx28Ag2AjlAl6M1MfF064ZadnA+RSj1wbd3iv+JSh9WNTvCxfs37SXrFxbtm4AyXEIZWByIIwNZrWDFaa0ZwX1xyWyPonmtp65W3x+13d\/cbPZNacsL1sTc2z6gDoZguM4SKuVRxZF1a6Jv\/AKlrjQk7F7erR4+4jnOe4e953D8luNjcmZ2917Ux+8AQD7DX0slCf1LJ9TZQpfUsnYvAfqS+ZPF6E372OWsjEjc2wlwj\/wDJa0fWDVOzxdUumhn2+Lql00Oy+B\/VN6Y3KovM8Zudi5A1XLJW\/bn2eBgKx7eDKLaTyQz8BZjMGn+B2LwXzR+X\/OBRx\/ObVrrZWLr+RcnsCXdBJ9lVZUyXVGbd4++v6ov9\/wC45SGDAFTIORFRlMUAoBQCgFAKAUAoBQCgFAKAUAoBQCgFAKAUAoBQCgFAKAUAoBQCgFAKAUAoBQCgFAKAUAoBQCgFAKAUAoBQCgFAKAUAoBQCgFAKAUAoBQCgFAKAUAoBQCgFAKAUAoBQHhr5q7Pa8b8xfUG02Y1bVN5dKYkwzwzLJz0sxFfbcKmNlMW\/qwfT8Xk2KuOfQ0\/TvzA9Wenla3wnMbnYWmMmyrarcjGdDBkk+yuL\/GKXZSJpyqt\/\/SJ2Pv8A1n6h9Y+nbW551bY3e0F\/b3bl60bdq1t7qWTZ3ToZH8V1e2zgfiEVnz4sKZpR6PH7dcoqUQjCT29O346f9TpwOp+JYxxj7Ma0XWa6my21oKnxE4iUyBqpyZSgk0WaIxm2mSdQrEAQOg7qp7s6ltLGhih6fd4X1p6u4IIvE8vutmi4i0lxvLx\/9tiUP0VBZBN6oinxKrPrimc\/4X9SHzD2JS3vfyvKWwAWN635bwROL29I\/wB2q0qF2M67wHHksrMTnfCfqk4O+AOW4fc7aPjvbdlvL\/3W0GorOO4mZP8ATc8\/JJP7dDnXDfOj5a8qALXNWtvcOdvdhtuR7WuAJ\/vVC4szrvC8qvrBv7NTl+03+x3loXdnuLW5tHK5ZdXU+9SRXJnTrlF4kmi+hwKAUAoBQCgFAKAUAoBQCgFAKAUAoBQCgFAKAUAoBQCgFAKAUAoBQCgFAKAUAoBQCgFAKAUAoBQCgFAKAUAoBQCgFAKAUAoBQCgFAKAUAoBQCgFAKAUAoBQHh\/5s2nt\/Mbn7i27luzut3cvWDcB\/iW3aQ6zmjHFa+t4T\/wCKPwR9dw8OqP2HyOD4HmuXu7h+N4998m0UPuGCDyrS9GuMYVcjAnGpp8jZ1ljJ3a64pKWFk5J6u3XIWfQ22fkntHnuV5K8d\/dFxfzLbba20t2bd6yI0ItwNoGkDCvOBXGVr\/7VH8WUJvFmI\/SkcAW7JgpMkfD2Vpz48cZ6FiN8unU3QIULEYCR3xjXzHKlmx4eUfQ8WOILKwyQVWU6iQR8OGB7qr78FjZlmVsF20oZJnp9Fe+8jx1tIyo1XZMlFiZ\/dHbRs8XQKxDMwIGBwPWelcLqdy6BCqxqEBgfFn7MPdXc45WDiLw8k10+UWzkwM8KpWQcepchYpPQt2e+3uyvC9s9xd214ZXLLtbYf7SkGozqdcZLEkmjlvF\/OP5k8VoWxzl6\/bEE29zp3A95uAt9deqCMu7w\/Fs6wS+zQ5Tsf1TetdmyjkuO2O+RutvXZeB7Cw+qtbjeNquhmLaa6\/afMc3wsa54Twn0OXcT+rH0zd0rynDbvaGBqewyXxPWAfLNeT8HNfTJMzpeMl2ZzTiPn18ruTUFeX\/Kufwbq1ctn\/vaSn+9WXyOLOqW2XU8XiOTJboxyvgct471T6Z5OP8ALuW2e7LZLZv27h+hWJqDBVs4tsPqjJfamfUBBxBmvCuKAUAoBQCgFAKAUAoBQCgFAKAUAoBQCgFAKAUAoBQCgFAKAUAoBQCgFAKAUAoBQCgFAKAUAoBQCgFAKAUAoBQCgFAKA+D659X7L0j6Y3nPby2b1vahQlhWCtcd2CqikyOtTUUuyaiibj0u2aijg\/OfqJ9F7D0ns+X2rDecpv7Qa3xFt1a5ZuR4lvsPgCNh2t0FW6\/G2Obi9Eu5cr8ZY5uL0S7\/AOx8v5afqO2fqHktrwnPbH8lye7cWtvududVh3PwqysdSE++pOV41wTlF5SJOV4xwTlF5SO6qyjJFAKAUAoBQFW83VnabS9urx02dvba7cPYqAsfqFexWXg9Sy8Hh\/5j7tN36036W7u5v2kulbf5m75jIGOsqmAVVGrBelfW0LbVl+h9bw4valpqfM4rm\/UHDNdPEb+7tfPQW762n060U6gHB8Jg5VFHk02Jb1qXeR46TfTcj5+8vbjcbi5f3bvfvXmL3LtwkszNjqJOMmrdVm3WDI5VJra1gjt7KqrvOJEKv241zzeVvio9zvicdxk5di1WDQGMQI1VlThnVGnGeC7Shgs8yBECfdVGbw8Mtw1WUZBGkxAgQAcZnrUTeSVLBguSDOJObHE\/XXqk0HBFdxwmpFnWDDZEQK0qqtMszrLG3oSa2GbSBpuTED4Zyw99V3br8CdVvGSVvQVAQEszQZPuFccqDTR3xp5TMiVaSJ0nEH21USLTZCuzkhetm7aKgSy4r99aHj+V7U8N\/Kyhz+P7kcpfMjWG1uaireGBM\/EJ7JGFblnOqjHKeTHhw7JPGMG1aUraUQPCIYjt76+e51vuWOS6G7w6vbr2vqXQdKLp8RyPbJwqi1l4LieE2bOy9X+qdhc17Dl97tRMhLW4uqvcNIaDW66Yvqj52fHrl9UU\/uOT8d88vmnsUBXm33FsEALuEt3cu8rq+uonw632Kk\/GUS\/Kck479UHr+yVXd7TY73GP+G9on\/uN91RS8dD4lafhKn0bRyvZfqmdcN\/wAZhgx2+4ge7WhrClPDaRcf6Qyk42ftX8T7m0\/U\/6IeBu9jvtux6Klu6B7TrWp663NZRm3\/pm+DwpRf7T7uy\/UB8rd18XKPtj\/wC9t7wz70VxXsqZIpS8Fyl0jn70fb2fzV+XG7IFn1FsQTl5t0Wf\/wDpoqPayCfiuTHrXL9mf3H2dt6k9O7oxtuU2l89lu\/bfrHRjXrhJdipKia6xf7DfFy2cmB9hFckeCVDwUAoBQCgFAKAUAoCF67bs2XvXDFu2pdznAUSaHqWXg+V6Y9X+nfVGyub3gt4u829p\/KusFdCrgTpKuFb6q6nBx6k3I41lLxNYZ9iuSAUAoBQCgFAKAUAoBQCgFAKAUAoBQCgFAKAUAoBQCgFAKAUAoBQCgFAefv1W+pdG04f05ac6rzNvd0g\/dTwWp\/2ix91bPiatXL7jb8PVq5\/ceca3DeLtlvL+y3u33m3bRuNtcS9ZcdHtsGU\/SK8lFNYZzKKawz3z6e5jb81wXH8vt\/+Dv8Ab29wozjzFDFT3qTBr46yDhJxfY+Ltg4ScX2PoVwcCgFAKAUBx35h8xx3D+ieY3\/IIt3bW9s6my6lldnGhEZQVkMxAONT8WDlZFL1JuPBysSR4q5DkuD3Y17PjBxrpBhLj3kZiTODfDgcMelfTzpljDeUz6\/juUXq8nzvPjB1xEYg\/XUE\/Hxf0svw50l1WS4MCdCsDJ+E5e3sqk6Jxen4FpXwktTFxjqWIBUDER7elI57nrS7ESFbEmGJxkYe3CpFI4cS5bbE6eowJnDDvrOtfzNl6rSKJ\/AmkGdRlhGHdnVaUvQsRh6mGdFBcpkQcMvZU3Gg7JYZDyZbI5RrW1Vrixj4p0nKBjnWzPSL+wyo6tF4VNLMZOlSYH0DGsup7pJGlctsWV7YAhwWAyIBn7qt8z6SrxvqLJdQR0YfSKzy+VvccEgeFSZAHTpnnWhXWmlhZKE5NZyywgBhMqABqPZhjVWVb37SxGz5N3UNcBfVpBwiD\/RFcvR4OorKFsTcAWBIiGmCezCvc+oawHuKT4NSgDwyZIriMMSydN5i16lRS0VgLBn4pnDsq4uVIqvjRK7kqAnSSfpwq9XJSWUU5wcXhmdupN0EGCvi+iouZbsqbJeLXvsSNyvlj6QpvlfM8OIAAkda2OPDbBIyrp7pNmLUatJnHKO32VI4btERb9upH8xt9YAJKH8REftqw\/FWLo0QLyUGtUytlAyIYHJhlU84OLwyGE1JZR9C3ud7acnb7x7CrGkJcde\/DTVB3QzqWf8AGbWqTPo7T1h6z26P5HOcgijNV3N6MZMxqqG1KX0o8jwqU\/nhH9iPp2Pmj8x7ChrPqPeAxqhrmvBcPxBqjjX6kdnjeK\/yRN6187fmmulU527dOfitWSe2Pgr11Ih\/9Nxe8F+1m2v6gvmrt1b\/AOdauPmFu7e2fsAqbjcaM7Yxl0bKnK8JxlXKUVql6lmz\/Uz8zmNxrj7FwqyF\/LxiSB0atnmeIprims9fUxON42qcsPJv2v1OfMBbY17fYuxk6jacdYwh6xrOLFPCNSH6foazmRfZ\/VD64Vibmw2FxYgLpuLj24PUT46On+nKX3kTufqn9ZKNQ4rj4mI\/jT\/46scfgxnnLZVv8BXDGHIWv1T+snmeK2GH\/wCb\/wA9ccrhxrxh9Tvjfp+qzOZS0+wX\/wBTfrDdWLu2PFbGLyMh0i6TDCD+KqyrWSyv01THXdL8Db\/TJ6o2XG8jzvGcju7O0tbhLe4tG\/cW2C9ssrBdRH4Wx9lT8qDaTRU\/UHHcoxlFN40PSNu7auoHtOrowBVlIIIORBFUGj5RrBkOhMBhPZONDwzQCgFAKAUAoBQCgFAKAUAoBQCgFAKAUAoBQCgFAKAUAoBQCgFAKA8j\/qP3mx3PzQvpYfzn2+zs2NwCcEugM+kexGU+019D49SVP3n1PiIYqWe7Or1uMGxPhPxAZdmWWVT5NpxWCDqQsEQUJB7ffVqLKzR6s\/TH6jbkvQdzirhJu8NuGtKf\/avTdT\/e1V8\/5SrbZn\/uPmfK1bbN3\/cdv1mmWKAUAoBQHSf6pPUtvZ+lthwC43+Uv+exwIW1tSpxB\/ed1j2GtPxleZuXobPhqd03Lsv+p5haAq6kgNOIwkzn2V9BB7u59BJY6E1upciFBCgS0S3hHtpfXOuWGc0SjZHK6mLYli7A6VxaDBqrLoW0SlCJ1YxJBqq62WVYZCEn+rIBYYgT7K4aaO1JMuBLM0EZHDIe6qWdS01hDU6\/8QtBERhMe\/KutifU5346Gb4FxtMhUHRRmfbONdV3QrWi1OZUzs6vQ1mtlC0Q2GB649RWlRYprKKF0HB4ZO35j23Dz0hssTjVfkuupqSWpPx1OzKb0MiyUbUjg6cRIie6Maj\/AMuElhokfFmuhY4KjoNQDAk4Dun6qrVKLnjqieyUlDPRo1bl5XUxhhEGtfj8WVb66GZdyFNdNS+1\/wDqjQIBBDCfiIP+iqHKbXJy9F\/0LvGSdGFqyoMymD0wINTzrjJEMLHFkzcK3ZQ4KZU+yo40RRI7ZMkha60KviP4V+6obq1HVdCSqzOjJLabUQ3hiZntAmKrSmkiwlky9u07SxaAAFiMh21LXztiwkRT4W55ySWyiklFwJwJxPsqlyeXZYsS6F3j8aENV1wTTWG1KPEoLY\/1RNVq8blksWfSzXSzcc4KYyJjAVrW3wrWZMzK6pTeIosvbcWn0hyGiVaM5yNR8Xmp4njQ95HElrDJR+RUrqViAIDTGZ7PorT\/APc46x\/Eof8Aqv8A7fgY\/KXCNCXPDOCmYx9ld1+Xrk\/njj8Tizxc4rMXn8DYFsg6JEjAyQMvbWNPWTfxNaDxFfYVX1U2SRi4bv8Ahgyau8CajJp9ypzYuSTXYhtf\/UMwQv2kD76u836PvKnF+svSWDCSAFYj6JrLi9TQn0IWrjoSFMA5jA\/bUk3hZRwop6MzcvWlPksvxhZZQqxMHsrUoqnOKlKbfwMu6yMJNRilgjciVRAYXwicScSfvqnPV6l2vRGHI1mBpE5ZxUewkUviWBzcthVsq5WMQpJ9+NSVZi9NCG1J9WFF9ctuBP8AVNd2Lf8AVqcQaj0eCN7cXbahTbCM0hpWJGFSU8aD7anFl0s9dCq1dUPiIEH6wakjxmmnk8nflYwfW9N+ufVnpu897huSvbV7lrySJ1qEkHBH1KIjDCprKIT+pGfbxoWfUsmn\/wDZPUNm\/wD5jZ5PdW9953m\/mFvXA+sgksTPWr\/Epg04tLBV5dcdFjQ7s9N\/qnvbbieJsc1s\/wA5vvPa3yu5tymnbjSEuouIdzLSJGXfWZf+n05ScHhY0+0xp8LV4O7OJ+ZHorlPTp9Q7flbKcWgY3rl5hba2VmVdG8QOGAjHpWBZw7YT2OPzFOVE1LbjU+Nwvzy+W3J7a9fflrXH+Tee0LW9ZbVxwgB8xUk+Fpwruzx9sXjGfsJ58C2PbP2HI+H9b+keY2q7rjeX224svdNhGFwKTdGOgK2lp91QT484vDTIZ0Ti8NMt9ReqeE9P7Zb3JX9L3Tp221tqbu4vv0S1aSWdj3D21xCty6CmidjxFf7I3uO3N7dbGxub23baXLyB221wgvb1YhXjDUBmOhrmSwyOcUm0nk2K8ORQCgFAKAUAoBQCgFAKAUAoBQCgFAKAUAoBQCgFAeOP1A2Npt\/mtyrba4tw3BYu30CkaLptLKGfiJADe+vpfHtulZPrPGNuhZOvXADGMpw9ldmwuhgkSZGBAwB7OtTwZBJH1OD9U+o+AL3OE5G\/wAcbvhvCw5XVhA1DI54dlR21xn9SyRTohPSSyex\/QPzD9Peo+K4q1a5Gxc5rcbJNxuNitwNdUqAt3UMMQ+f0185fx5Qb0+XJ8lyuLOuT0+XPU5fVcqCgFACQBJyoDxR82PW9z1d643+\/II2O1b8nsrROIs2mI1RiJdpY+2vpq+Mqaor8zPsPF07IbfvOInSfE5nX0M9OuFI5TyakllYKGhiSwEkQSMD9VX4cmyPfT46lKXGg+2PsJhih1Ixhh8JMwThjPsry23eteorp2v4IttqjqBoIaccTlFZd89r0NOmG5ZZNVtodayYwEnGe3CqsuRJrBYVCRl2t+EqkH8WJqDBNlkYtntWTj1wqTccbS9EUEBmEMvTCMAcZwqtPDkTRb2kFF9tMyJPhfIxBJg1alNKOV2KyhmWH3LGtLBE6dIwDROeWFZ0r9zyzQhVhAJYAhtRPUgiPsrh2kiqYZLD2zb8QBzaRIAxMYCpuNynCaaWSDkcbdFpvBqDZqQzByFBhQRM++tp+VSWsdTKXjm3oy5EtooAmAcQTnWRde7ZbmalNCrjtRRctMkE5HI1q02qayjNtrcXgtW2r2g5J1HDAAYjt7agv5OyWMEtHH3rOSVu0VVmElTAnvxzqpfcrIp90Wqa3CbXZkwy6dLDL4SM6qItNEa9BcoCEaWIuZFgcI7oqtZPOhNCHc2LhYOwJxHhJGExWPZJyk8mrVBKKwRZ2b4iTGUma4JEkuhr7tSt7OQQCp7iK3+Hj2lgw+Tn3Hkg9woFXBhp+jVj9NX4wTjqUXJqWhlUfSjgTqOEdoOVQThhk8J7kVsWklszialIzN1UV9GLAfFjE\/RUtcnF5RFNb4tMk4YA6bSKGUTpGMYGpZchyWJMhhx1F5SKgSreISOoywNcpLqiWWehsWvy6wWtZgzietVLOQ9+3sTw4\/ybs6mu9ldzuBAKaoCqMchAzrYo5koJRwsGXdxE8yy8i3tr1oEPauBgIGrwqs9TIqa2+El2IK65J6N4I+SwBBKZZl1+rGooLd0JpyUepnyLgDKQsxlKk4Y5TXu5ZPHqUkyBJywA7s6kTOWiSBGZF0iTgSe09fdXqm0eSjoU4BobEA4xnFXEVWTa5tB8COT2Owj6gKkVZDvZRuHVlGlNMHHEn7aucRYbK\/Jy0iirxTLnTSQsyIU\/SoNVH1LMehz35a\/J\/wBTeurpvbf\/AODxFsxe5O8pKFhmttcPMbtxgdTWPzObCl4esvQ85HNhUl3l6HpL0B8jvRno66m9t225Ll0xXf7oAlD\/AO0g8Ke3Pvr5\/kc+y3TojD5HPnbp0RzH\/wCt8L\/9gPqE7ZW5jyBtV3TEkrZBLaVBOlZJxgVU3vbt7Ff3pbNmflzk1\/UnrT0r6aS2\/O8nZ2HnT5SXGl3jMqigsR7q6hVKfRHVPGst+hZNzhea47muNs8nx1xruz3AJs3Ht3LRIBidF1Uce8VzKLi8M4tqlCW2XU3q5IxQCgFAKAUAoBQCgFAKAUAoBQCgFAKAUAoBQGhznN8dwvG3d\/v76WLVtWK62VS7hSwtoGKhnbTgJxruutzeEd11uTwjwfznK7vl+X3nKbu8243G7vPcuXnEMSxkYS2nDpOGVfXqtQSS6H2VCUYqK7GqoLgRiRgfdlUE46luEtCLkfCDIHWuoxweSeRJJZeyIz6YTU9kflRBW\/mOefKD0l665X1LtOW9MW\/KXj9wq7jk30G1YDghiUcr5h0E+ETWdy7a4xal37Ffn31Rg4z7roez+nfXzh8eKAUBwb50esP\/AKt8v+Q3dq4Le+3Y\/JbE9fNvAjUP9RAze6rvj+P7tqXZastcOrfYl2PFdsPI0mSSCzDGJwr7GSWNT6VN9jYYqcNIiAJ64VgStbeVobkKsLDAS2xEwO2c\/bhnUkbyOVJB7epvC09BOBiPo+upFciN1NGxYBdXa7IIWVbtxiqfMUUtyLXFcm9pkofKkYweg\/e6H6KoqSZdcWiJJFsA9pMdR\/prtHPcyoRDLzqE+GOtMngBJWOgqGzqT19CdpiGwEnuzFRS6M7S1RmqhbFD0w\/wEzHd21Px1rkr3vRIisaGM5YnuHbVmUJSaUVlkEZxjlt4RT+dBRlFuQrSXBGWVbEfB\/Llyw38DJl5n5tI5X2lpdTGkYdCcf6KzlF1txL+VYlJ+hcBbkoshD8Pdj1rOlNyll6l6MFGKRG2TrAwAJAOrL316GZFweKUB1dmEV6eYJFE0ONOm4hE49Mj9dcbjrAa4jMpAIyDEx0wwiKideSWMsLBX+fhzrTVicQYP1zVpeDrks7pa\/YVn5iyLxtjp9pJd9aM6lZf3QIP05VDPwEvyzX3omj5td4\/iZe\/5mkDqBpwk+yuq+JOqO1nE+VC2W5ZK3V7rzIk9sL+wVYqtSWGQ2VPOUTtK1i6pf4gQQAQY+iub5prQ9piy0\/xNGOq5jqJ7Zwz7qz23nCLySSeehr3V1O7qQVnPAE+6tOt4ik+pnT1k8Bz8Pi1eEe7DKuZLLO4PCLFsG4NTowQAE3ACYUd1dwm1oRTSfR6mBc1O5KhhicSRgPZUftJvJJvajgiL9pXDpZAjIamNWepX2v1IWwHuBTgDmRRVrJ7Kx4K3tbdxPmsCMvAP\/NWhx7dmfiUb63PBNriBzdRyLmJA0iJ+mvI\/V94cXtx8CNrfbouNbDTjPhXs9laD2Ioe3J9Bbu3LrJ5plw66YAGHXIVDdOH5SaquSzkgLaFbjESVIj3muVdI7daIMiurEKFZQWwwEdlWKbnnDIbqkllFJ\/\/AF7v+z9tafHfzmdyFoa1Xymdj\/KP5Vch685pLl1HsentoU\/zDd5atIH8G0f32\/3RWJ5LnKhP\/vfQ4v5Krh\/9j2Pxuz43j9pa43j7dvb7baItu1trUAW0AwECvjZylJ7n1Zhybbyzarg5OEfMj5rcB6L2T27l1dxzdy09zZceJOorkbhX4F9ufSrFPHlN\/Av8LgTvfpHuzpb0Hy3p71F6l3Hr75i8hZ8uxcXb7PZXgSn5kDWnl211E20QTBEajV6yEox2Vo2+ZXOqtU0r4t\/A9E+m\/V\/pr1NtX3PBcjZ39q0Qt3yj4kJyDo0Ms9JFZ1tM63iSwfNW0zreJLB9eoiI1d9y3F7BQ2+3lnagmAb1xbeP+0RXqi30O4Vyl9KbON\/\/AOq+i39TbT03s97+e5PeObaDbAXLSMFLnXdkLgomASakVMtrl2RafjrlW7GsRXqcuqIpCgFAKAUAoBQCgFAKAUAoBQCgFARuXLdtS9xgijNmIA+k0SCRxHnfm78ueELpvOc2730BJ2+3J3FyR002g8H2xVmHEtksqOhbq4Ntj0j\/ANDyx82PXI9X+sN3vtnd3P8Ak9wWxsttuGPhKWwpYWgxVSX1R7a3+DV7cFnqfScXiezWovG44RDiWXLMx94rSTJGjIjAtkcaicdSVT0PqcFwu65zmbXGbJNd+8txlAOJFq21xtIObQuC9ThUU5KCyyO27ZHLOd+iPkhzXNbnYLyVndbRd424F12tG2NqdqySu4FwKzG6rwgQiM8YIqDk8+MU8YePxz6GddzlDLXb8T1fwnBcTwfHWuP4va29rtbQACW1C6iABqaANTGMSa+ZnNyeWYFlspvMnlm\/XBGKAUB5Z\/Uh6zs876os8FtX8zYcHqF7ScG3TkC5P+oAF9s1q8K2dEXJL6j67wvjYuvfJ\/NL9x0xesFDqXFO3s9tb\/F5kbVh\/V6Fvk8WVbz+X1MDcXBE+IDoaknxK5LGMEcOTOLznJdZvggyuPXsOOVUeRxI1rKZcp5MpvDRbbW0wkzhmo6zWfdPYi9VFyZaip4tHhZiAF6Rnmap2WuSwWoVqLyTthlUnFTMd2GJ+6s\/kPoi\/Qu5KS0BgGgyAccTUMbJR6MllVF9UQupZXCPERjpMgVfrsk1qUZ1rOhFfKCwdRJ69B7q7k8nKTRMaU8J\/ERLZELUM1nQli+5EvbBjUJ7MfvFef4k2so6\/wAqGcMkOpzAMEjKoZVSj1RJG2MujDqhMEmFOC\/bj\/RXcLdqwcTr3PJhvDHhGlh8JGBBwNSV2yTUk9UcTqi04voUXdslxQBCERj0jLIVq8Ty06873uX45M3leMjPDgtr\/DBbbtWlULqaRENEAe7GqV3JUpuSWjLdXHlGCT7FV+5c80kSsZHrj3ir3HrjGPy65Kd05Sfzdidl9N0BSWU4nt1aZ69hqPkRWxvB3Q3uSybFpkLlrgkZkwDGPZWMmzVlHQre5b1T4gG+ImCfuqaqnc+pHZbtXQre4NUW5I7SINWocVLqV5ciT+BZqOkBlAD\/ABCBiO3trm1yrlo2hUoWRfc07gUXGC4qCQvsmteLyjMawXAxBXwxlWfY8yZfrWIo2LLh2ZnUeEajGE4gffVK6Kis4LNbcnjJbbdXY+aAw0nxZHAYQaoqTLkoJaowWtsCFtYdskmi0eRjTDZQVtq8HURGIyM1djJtZKso6knFhkARCD1ZjJ+qBXjucX8D2NOVnJWVa04JEjPuIIqxXLeskE1teMkglpoCuSzYCVESe+a8ej1GcrJBrTAkYYYV4uRE7dLZYlpbV0a7iyuYGrs9lTKxFeUW0UMiLgbq\/Q3\/AJauVRc1lFaye14ZkWwDbbUrqxnCcgYxkCvZPa8M8j8y0IWkVbja8FIIBAnHpUs74tYREqZJ5JqLKsGDtKmR4R0\/2qh3Eu1lZcgMP38\/cZqaOpxJErcKt5Svi0HHHDEV3B6oisWhrOT5ToASWjLuM1qcPSefgZ\/LWYfeZ48bS1uEv72y1\/bWXRru2BKeaurxJrGKyOorTlJtYWjMya00OyeX\/UB6i\/yxeE9J7Lb+l+GtKUtWtr474UnrdYfF2sFk1kLxEE99jdkn6leriRbzL5mbHye+cXHejtxyF3ldlueU3\/LXFbdb\/wA0G4tu0pKiHkuSSc2FReR8e7Yra1FR7HfI4jsaSeC35lfP71B6p07HivM4TiFbUWtXG8+6Rl5lxNOlR+6vvmqNHjYxWXrIt8Px0KnmXzM6xa7ev7k3Hvm9daS11yzEwOpbGp5VtaGzGUceiIA+ddEMEY6QszmAAMhXsYNdRKSwz7voH19zfonnxy\/Gxc1qbe72lyRbvIfwtHYcQelT8jjxujtZmcnjRtjhnZdz9U3q6\/tN1ZXi9pYvXluDb7pTc\/g6lhWg6gxUye+s1+Kgn1ZUj4eGU8s6e3vJcjye\/u7zfbm5u91elr168xZifiOJJ7KtWQShhG5x4Rg1hYRfsN1yfF7mxynHX7m23VltW33dsMukwQYdgBPSqkYdUyxfssW1rKOXen\/mv67s+o+L5bkuX3m922yvm4+3JZ1uW38N5QgKI0rgJOHSuZ8eG1pIzrvH0uEoxik2v\/g9NbD5sejN9e4WxY3TNf5vDb2guo2rkCLd\/ST5bFjpHfWW+PJZ+B8tPx9sVJtaR\/1ocxqApCgFAKAUAoBQCgFAKA1OW5fjOI4+9yPJ7lNpstuuq7fuGFA+8noBXsYtvCO665TltistnTXP\/qp9NbV3t8NxW55CCQl+8y7e20fiA\/iOR7QDWnT4uUllvBrR8LZ+dpfiddc\/+pb5h8gxTZHb8VYbpt013I\/17mrH2CtCvxdS66lyvxVUeup11zvqv1Jy15\/8z5Xd70kyyX7rsurr4Z059grWo4cVhpJImWytfKlk+baA0hyOvwwcu2ub69rx2LNNmftJOp8MDE5VWrTS1LM5JvQi6uLh0iCwmBhgcx7qsReUQPQss2TfuhCPGJlRABAxMHKvZ6LJwng7c+QHoP1PvPWPH+pxYW3xPH39xb3d24VDC6trT5Ytkhpm5mB0M1leQ5MFW4fmfQzvJXwUHHOrPVlfOHzooBQCgOtvnn8w09KelLm02V4pzvKKbWyCGLltMrl\/DEaRgp\/eq1xad8teiNTxfDd1mWvkj1\/2PIltndrlx2LM2LOTJLEyZJzrU5H0n29C+ZGSAyMhybAx3GarUXOqW5Fm+lWR2s1zs7heEIKyIM9vdE\/VW4vJ1bcvr6GM+BZuwlp6l42zwqpDYZDA4e2sufkIWSy9DShwpVrC1A12pV0ImDJBkVzNRsWjPYt1vVE4yjEESIqjODi8MuwmpLKNnxsqziVWTjPWs255loX6FtQCkEFlMHH2ioiVv0IXFGp9Zl+kYAfSKuKxLoVNjfUwilRr74Wftr2U9NDyMNdSWLKCV1IhLOQMYMZ15Xq8CzRaehpkySe2tkyy63YdWDMYjGOoIyqrbyopNLqT18eTa9C0qYnofprJNXIaCgM4jCMcs6kgRyWpFAC0ExP29K7OTBBBg5iuT0qu+JszpUY4YAmtbiLFf2mXyXmwlthce9K4tBJ9hw++nJeK2e0Jb0XMyR+6DHiJ\/ZWXXU30NGyzHUrc2nXSuBXEsxAB6Vf49DTwtWyjfdpl9DWuXCq6VI8WZGJrW4tLTbkjN5NqlhJlVu46NKmO2rNlUZrElkr12Sg8xeDYZdd8GcLh1AjsY9lZ9z9qLf8A2ou0L3Gl6s2W2\/i8LyDmzCPs1VgLnx7pm5\/hS+Bft0ayjsGBLEAMO6SRiPZVTm8lTS2ljicdqT3IkbVu4GYkqwxaACImMBh21Wrvx1LFlPoVlWQ\/wrhg5\/h+wmpv8qPoR\/4z+BEpDFzcR26g6jP1VfU1gpOD6FF3eJrW2UhgMSNIGJJ6kVpcfxLvrVikl8GmZ93k1RNwcW\/jk097f3VxQAQtpckDqxJ7cDX1PiuDRxV13TfV4\/BHzXkuZdyZdMQXRf7m1tlhLQTAYQTXy3km\/wDIm5dWz6Xx6XsRS7I27trcO5Y2o\/1RA9tZeEaEZYRRuAy3nD\/FOJyq3BZWhXbwVX7lrWCLIy\/eb9tanDXyfeZvKXzdewUtcUaUhVwAEnrP31HyV8xJx3iJm6U1wxCGBMznHcDXNVMn2PbLopepgLbInzV+hv8Ay13KDTwcqxNZKwcCIBnrUnQ56lxNtvNbWdTKcCoAxPtNexeGRyjpgoceWQ1p2+EamGEEjESKtQnlkE4aamF\/iDRfdvLaOuOeeIOVWK7fbllFa2nesGE2+1KO38SVj8S9f9mp7ObJ9kRQ4mH1Ii2QENr4k1FyewwKV8lSTUhZx2nmJeltZDW7qGPwEkQevxACqN700yW6f\/sjKIA0eHDUSVIJgqZyqKMpks4w6owttAUuWywA8UxMEfRXNl+14wdwp3LOQ3\/DYPJDsPEOsTOJrqltPJzck9D7nAehfVXNbHeb3aba4nGbGzcvXt5dFwWD5X\/poVVtdxmwVQK6svhFpPqyjbyK4NJvVnfPoH9OPp\/\/ACTa731ZYvNzV5jev7VLxW2iNOm0wXPA+LGsjkc+TbUfpMTk+WnvarfynaW+470vwHo+\/t72xtDgOK2ty4+0KC4otWkLPCtMkifbVFSlKXXVmbCdllqafzyZ0N6O+fnpf07tbuyt+ljt+N827e4+3Yvea9vzWm4rG8MAf6uHdV6XFlPXOp9FyvD2WPO\/Mu+n+x3h6W+Yfon1HYtNxfI7c7h0V22TOi37ZaTpZJzGOVU7KJw6o+fv4ltb+ZP7Tk9QlUUAoBQCgFAKAUAoBQHkP56fMm\/6r9TXOP2dxhwXFO1nb2wSFu3VMPeYdccF7B7TWxxadscvqz7TxXBVNe5\/XL\/WDrFhKHtGP7a0uPLXBevjpkwAuhZEkyQZ\/wC3ZU05tPBDCCepWxUXNUkPGfSYj7K0ONJ+2kUeTBb2StIQQumWYgapwBnury6WfuFaxqLIPmGDGBnrUNr+Umh1RMtFvsOXWf8AsKhpkS3Rydtfp6+XnB+rN7y93mrF69a2Vu0Ntet3CipcuFpxBnXC4YVT8ny5VpbX1MbyF8q8bT1TsdjtdjtLW02qC3ZtKFUDPARJPUnqTnXzUpNvLMGUm3ll9cnIoBQCgPMP6oeS42\/6z43aWULb3Y7SN42Q03GL207ZAJPvrT4Sai2fW+Brkqm+zeh02qpIVTE9uOfsqS57mfSVLatTErJBIEZ14qJHTviTSAFcTJxx+iq\/I+R4J6PnWSy3mTOQw6HswqhY8IuwWWZBIw6dnsqBNroTtJ9SQMAkQCMewkz91T\/5E2sNld8eCeUiBxxNRkpJSzOJLHoYzih4yLEkkkzPU10eErYJBGoCYEHvozxkmIQMQuB8JgkDHsnGpKuufQjsWVg1hbSVwJ7ROfsq7\/lPHQq\/4y9S5jDkg9ZBGH1VnvqXo9DAYyZxnOvD0zl8JBnD\/TXnQdR5Fzs+sUd8F3Cqk+xPyHOYiBmviHvg4U96GM5PPblnGCo6VuO1xlLEqAh6iIBitJOyyqMqk8LqZ7Vddso24z2MqltSx04nDAkRPsqouZZ3Lb4kH0MMilAJbUMASQRHsiulzH6I8fE+JjyF1AAhgc9a4D6JqWHkFHXVEU+C5LDNe7s3DhU0kfvTA\/3orW43lK5L5n832GZyPH2ReUtPtK\/y1\/WUCFmH7uP2Vdjyqn+ZFSXHsXVMv2q\/\/I06CCoPhIJxiKzPKP8A4ZNNPJoeN\/8A1immblfJH1JMH+GFmRJMdhy+6obGSVruZVbjAhAT0MV5GLfQ9nJLqzAU6whwMwRXu1nO9Yyma7iHYdhIrWRm5yaO7tt+Z0jEsAR7xX2fio\/\/APPE+S8lP\/mkUKEIk3AvcQ33A1pOtmf7qN6wbQsgWzqz1tiMe6a+Z8xVL3Fu000PofE2R2PHrqWveUss5AAEjuEVlf42e5p\/5GOxDdeWbdtkkyWBJEZR3ntq\/wAKvYmUeVZuaKLhAsp\/rN9i1p1RyZ1ksMwlxlYBbrKrfFpJH7KnUcIhk0yXmF1vMxkkLiTJwI61y0z1YKtRAwNcupPVkita0RcGNm6YCvpJHiEg+6q7iibc2iXlhrZueYqn\/wDrhp92EfXXDkkztJsuNr\/40tYKIdJa4CTqAPea9hN5I5xT0yarmz5klTpxLY44jDoKtJ5IWmiCloKrk2Y9ldNHiLAW06Bb0swgsSR39cK4bUXqz3Dl0H5fTbd3IMQAFYHE9sTT3FLRDa0FAW2txW8bagRGERH31zKeGdqOTPl3AAq3JRpiCQMO6vHYmFBo2eF4ffczye04vYW\/M3e7vJZtL\/WcwCe4ZmvJTUU2zi2xQi5Poj2j6K3fC8c3\/wBI42b1z09s7C77cIF8oXbsyrYz5jQXIjrXz9yk\/nf5mfFchSl\/yv8AO3g5ZUBVOovnL8zOQ4\/0vuH9OXRZNvkX4ne7y5bW4Na2dbraBLA56WJXA1apqWfm9Mm34rgRnZ8\/\/buS+88u3Ht3r5e6TqdtRdTCyTJMEdtaSnjofYe3oVOr6fMCabocHWJBJaTh9FWKpZepBZFLoezvkzy55P5d8S9zkByG6sW\/J3NyCro6f+lcDEnUiwJ651icuOLHpg+I8hXtuemDm1VikKAUAoBQCgFAKA69+d\/qT1Vwno3cP6e2jvcuo43nJKVA2lgABnxM621QsZYmrPFhGUvmNHxlNc7Vvf2L1PHYckS41EnM5\/t61syPt4omqqNWEx1IOIPWoLpyjhp4JqoRlozF5QxDlonAgDs7IqXj2txwyO6vD0K2VdAZVDELjqxjHoKv03tfKUbqFncVyddslvAwMgkgagP9Bq\/CWYP1RRnFKRlfAoIE6hice3L6qq2fMsMtQ+V5J43QoDYMYYExGOZJw61zXiGjPbMy1SPXX6ePTNnhvl3tt0bSpvOVd9xuLqsr61DFbWKkiAgr53yV2+34I+W8lY5Wteh2dWeZ4oBQCgFAeR\/1E7XbW\/mhu3tblbty\/Y2737fW04TRoJ\/1VDe+tbi\/\/mfa+Ek\/8dZWMNnWukjxkYEEicQY9ldRjrg25SWNDXq4VjbACgAdBGUVh3z3TbNiiG2CRO234YkMfZj0x99V5xyTxlgyRBiqxYJMh0KQPinEY5V1E5b1IV0eElGDNBwGY6ThXqPGQr08LNM21XDGWBGZ6Qforhy+Y6xpkotsWdgzGM8c8O6tW2KVf2GZXJuenctBjwrhIhp61nuWS8olO6um14wdSMYVD075rZ4HHhyo7ZLa4d13+0yeZdPjS3J7lPs+32ErbrcXUmI7Oo9tUOZw5USxLo+j9S\/xOXG6OV1XU2PMCOAB4Qulge8Yz7zVCWWtC3FLuWMlsQFeZiTEAT9f1VnS6mhF5XQwSVBVSdJznCYrw9wfO5BwbqqBBUYntmvtPAQxx8+smfJebnm\/HpFEtncLKymSQZk451D5unDjNfYS+It+qD+0vrCNomqgozTiCAB7ZriZ7HqYgHMSOyvITcXlHU4blgw1iF1Bh3LjP2RVtciJU9mQS1fEMhxmAA3iPuzrr3oepy6pd0W+Y4cuD4jjPtrMNLGmDLO+uWHiESCKjaWTuL00MXrrugQKImfCIy\/01Y40dWV7+2SlFYuAvxTh0q2V30JG7bP\/AKQ+lv211tONfU+durxO7a4FC6YAXGMBHWvtfGrFEPsPkeev+af2muLTnSFBYt0ANaLtilltIoquTeEsn1NlZvWtuNLKNfiIJUEEjLGvkfL8yM7sJ6R0PpvGcVwqy1rLUnftnwnAtE3CpBxLHOKownoXXFZIM2mynhUyzfEJ6LVuhvDKt8VuNe4BcMkBYwhRAq5DkShoV5cdS1JW3e0pVDge4VzO6UmFRFIqv3CzePHDPrV\/i\/Tkp8iOJYIrtrpYaVLTBBHZViVmjIIx1N1be7sWj4GQlgZIEQAe2sxl1NNkZfB0MKoA7tQWcu8ioYuMprL0J5JqDwtTWtu5uSw0PiS0R0NbMqa9uU9OxlK2zOGvtL7S3G0Dy1KmBqKgmKpa5LMnHHUofcMxBhUI6oNP2VZcPQii8dS9XH5ebpNyWEQwkYdc6rW15JarMPQj54AK21BVokOAxkVxGGCWT3dTNpRNxriYaZAxAmR2Un0EfRFKo3mybrm1GCsAxn3aav8AI8hXZTt2KM89UUuPwLK7d29yjjozs35bni\/SnD7j5g8raF\/fbS+Nn6f4\/wA3yvN3BWL1y4ACSttH+n3Vi25sftrp3Iedm2Spj0esn8D0B8muE3e19LNzXJHXy3qS8\/KbtisFRfxtpOJKqkR7azuXNOW1dI6HznkLE57V9MNDS+fnq3kPT\/od048X7e65K4u2t7zbuLbWYIdjJBPjRSuHbXvDqU569iXxVEbLfmxiPZnl\/deoeX3HA2PTTuDsLO5u79S\/\/Ea7dQai7k4xpP0mr84pNs+xooip+4vqawfHvtc\/hJcYaVyYEHr\/AFZqWjEk8Etvysi7q7uDdY218SnE9YyJHbU0amiJ2L0PTP6Vttet+kOWvOjravb\/APgswIVlW0gJXpngYrJ8h9a+w+W85PNi+w7rqgYgoBQCgFAKAUAoDrb59896Y2foLf8AF8vuvK3fJWiOP26Atce7bIZTpH4QwEk4Vb4dcpTTXRGl4uubtUorRdTyEo1WgzEKASFzxiDH11s2Rw9D7SuTLLWksOgYFQJOJGU\/TUFscxwSwlh5IsV0MMCR0yyrnjwcXqd3zUloR8LABVORBA69RV2tYminZrFmoXua7ZM6fh6YicQPpr6KuEdjMKyT3F1s3If4hpg9wjtrMtrz0NCuxJ6hrqknUwNwfCOhnHPKkOJJ6voeT5UUsI9a\/pz531DyXoTb7fkOPWzx+w1WNhyGsA31VjK+TEjy5jVOP01855amELfler6r0PmvIRirMp6s7WrLKAoBQCgFAePvn7yHH775pcl+TdCNslmxfZYAN1EGvGMSGOk1vcbjzVKl2Z9j4axKlRfU671NJxxOdRm\/gzrxkgEzM5H6RXu5nOxFi3AxAg6j78aoz42FlMuR5HZout2\/HhpYCTE5x9dUpPQtrqYIIzqsWSVsw4Mx7TFDx9CBzqQ5MkRbmDJOB6YZ16jlka9BY4howwwwywwmq8upNHoYFtCfDCsRiT2+2rK5LcFFld8dKe5BFYMTA8IJIPYR\/TQ9ZXudutyy0P3oCIJIjPOM6v8AjeUqLdz+l6Mo+Q47ur2r6ka22s7qzdwVmBWWCQ2HuNb3K5HH5NbgpR3PpnQxaKb6Jqbi8Lrg27RRxqB1II1aSMyMq+X5PFspeJr7PifR8flQuWYP+BfrVjr0AL1VWgz3TNZ8qEy8rpJYF295qHErcbCTljmZ\/orzjUKFqk3mKYvucq3FLVnydzrF3S5kqAB7In76++42PbTXQ+KvzveepfsYVWdj4CdLAZ4CQaz\/AC3zJR+8veMeJORs2zbYMS2mMgcSeyIrAspx0NuFzfYyhUsRl1Unu6VFKvQkU2ibswcF0AwnTEAj3VC4kqlpozDAwGgANMAd2FctHUXkKxVgwzBkVydYyK4JCy4VaX1iTHhEz2dRXjieReNCi87aURJDSTIPbA+6tPgLEX9pnc7WS+wzdF1W1tgT1HsrucXk4rkmsFeAGo5ffSMMs6nPBN9ttlukqgJmdRxxpPyd6XtqWIrQ8r8dTJ+5JZk9TF1l1roJCgDLoYxiuacuOp1ZpJ4DFQ0jxpmeh9+deqiJ570gpBS8QIBAgHH8QqSOFoRzy8Mi1xFsKGthyWaCSRGC9hFXuOtGUuRncYtHblfMcFNDLgo1TmcdRHZU0okKbIOduSfEwn+qP\/NXEK3kklZpjBUbavdCqTBGZEZY9pq\/XJqJTsWXqLYUBpJg\/hjA\/WK4nc8HcaVkttWEX+I0aWBCKwJxw7B31x7m5Y6M8lHa89TDOoDMjKVBBNvxROX4hXn+O11OlyMlV64SVtscAJB\/1gDVyunbHJWnapS6GUa3rFxgPCRABgk9CcD766UziUM9Cu6UUFQgx+G5jJE551ZreWQTTRG2FWPMkBhKkQesZV5bDJ7XPBaPCyXLZJEysiDKnuJqs44eCwpbkZW3eZgTcXQcYL\/Viakvsi4NfmI6INTTxoZuKysqMQBmGGIg94qjBaZLspZehs2tvuNzuNps7Rubvzbgt7Xb2y0m5cYAqisM2bszrqLWGyGbUct6HvXj7Qs7DbWhb8oW7SILWHh0qBpwwwr5uT1PgJvLbOg\/1UepUYcV6aCssE7+\/c0yDgbdtVJjLxTWp42OG5fcb\/hOO3un9x59sPbEkz4cAAYJmZ6Vf5NPf1PpaLX09CVy4fgNrUnxLiZAPbEdle8elRjlPqc32uUtex9P0r6c3XqHndhw+3uW9ve5K8LNq5dUlVwlmwk4CpZzUYOX\/aUuRd7UXJ9j0H8wvXN\/5U+kuE9H+n3t7nll2xW5uroBNlF\/9XysRNxy2nVlHWsWqr3pub6GJwuIuVZKyf05\/afV+QfzP5b1dsN5x3OOLvKbDTct7kKE86w\/hxCwNSMIJjqKi5dKg8roR+W4EaWpR+l\/vO2aqGOKAUAoDhHrv5wei\/RjPtuR3DX+UVQy8bt113fEJXUTCoD\/AFjVqjiTs1XT1LnG4NluqWnqdX8h+qrkNTHY+nUS2nxeffZ2xy+FEj66mq4SlLDZtv8ATyjHLnn7jU5T9VPOX9up4nhdvtSFVbtzc3HvfxCDJQL5Qgd81LPx2zq8nnG8HW298n9x1B6v9Vc96n5L\/Nua3X5rdOCiYBVtop1BEUYAeI4VpcKpRWMGo6IUrbWsI+RaZikMAQOkYx1I+ipeRBJpololksYJbCEkxqJ6TkCKrqGSZzwFkKSrN4gWGAzH9NdQxvUcdzyedjka6u7eIAqqmVJ7c8+2tG2lR0XUo12uWsjXDO9u4ZOoNJAHTtre2RjjGmTD3SbeSQB0yST1lhBnI9s1S5S1yi7xn1RPTrQMfEUIEHrOA+yoq5Y0JLY6ncXyo+fXLcDvuN4bnLlo+lrVr8tKWgHsmSRd1KNT+L4\/prF8l49TcpRXzvUoW+OjKDlH6j0Nznqm5wvL8U+53G1ucLzF+3sbCLK7hL90E23VtbLdRj4SAoK4HHGvnq6d8XhPdHX4GXXVui8Z3LU5PVcrigFAcW+ZHrri\/Rnpfc8pvXm8wNrY7dSA92+wOlV9mbHoKtcPjSumor7yail2Swjw0bl2\/uWv3GLXXc3LjsZJYmSTPfX2tk1XE+orqctEbRZG1OTE4wBOJ9sV897bybqnhEmstgVGBExMkYTjULlFPGSWKbWWZshg+rEaRPYccBUXIliBLTHMidZpohrrqjHVGEY4+wVY4tSnYk1lFflWOEG11I7bcOzNrUFY8REAgHDDpVvmcKqENyWGVOLy7ZSUW8otGgxjpk4zkB7v2Vk7DV3mdGoLoxJmRPX2eymBuMIp1rIHb4sjFeN6HpmqxYFATFwhTiAcssSDhE1LW2Q2RREKhy8Q7sG++um2jlJP7STpcSzcFtWLJLTENMQIqTjKNl0ItpLPcj5EnCqUlq8dim15SoASTHxACJgQKucuUrLHuemWVuLFV1rallpf6ZK3pdmwKquE54\/7tVeVUqknnqWeNbKx4wTKSoxGqcsZ\/ZVP3UW\/bZVd2O3fXcXUAG7RkZ7q1aPM2xio4TwZl3iq5S3Zev7xbsokhFBLSIPaRFV58yyySc30LEeJXXFqKKgYxFWysWeYCuK+L94ffUbqTO4zaJW3TSdU98CYHbmKilRnudq5pkxcttC64VfhLDt9k1BLiyJo8lLsZssCx0sAYI8WGBEdahnTKK1JY3RZlAS4AxIOQ7qg2snclgzdDC40jTqMgdxr08i9CrcqBowhoOoe81ocTSBQ5DzIqd9utss0rAxYsI+yr9FU7ZqEFuk+yKV1saouc2oxRSN3ti3lreU4wMcJq\/Z4flwWZVywinDyvGm8Kccsv\/Nxh5aGMJlv21Rfj6nrr+0trm2rv+BZ563QPCq6RkJ9vWqN\/DlF\/JlouUcqLXzvUp3mv8xKiYVZjEfCOytfhRXspS6\/Ey+TJ+43HoUXW3Tgsl02zIBUYA9+FbPF5dNccSgpemiMnk8OyyWYya+9m1av3Ll1V1eAyNJiMqyZyW5teppRg1BJ9Uis2WFhhqWQQ2DDIA9\/fXqnHuGpFaR4tX7p0+2u4tZPJ7sGdsP4gnPH7DScsSwugUfl16mEA8u4TmAIPvrtxTONzRdbZbltQAmpZB1uVwEREkVw64rqeuyXYxoP5pm1p5epiPEvYYq07I7SqoPIV7\/mQLyahjOpTkJrn2bGeu6pamL9+4wDeYtyABcjSwmTExXfsTitUcxthJ6FBKPduYhUYmJnInump1PaRuDZNkZbbBgNKx5TgfhJn768se5ZQrxF4KzcDW1QfhnH21Ck08sn0fQvs7Zx5ZIBBMkHKB+2uL9Xleh1TNYwydwgOPMtDUFAAxA7ZgRVFWSSwXFVF6o5L8tVuv8AMf0x5NkXiN\/YY2wIAHmAu3+wo1e6kpr2nr2KHko4qnn\/ALWe26xD4E86fqrG+TkeBvHbodiLV1V3JEt5uoFkM5DTBFavjo5Tx1Po\/BSioyy9TodbgBuuh0asVA72GH0Vc3NvDPpdiwsEbYuD+KtwSkE2\/FiAY7IqxGxJYZBOttixvd1stxZ3G0u3LG5ssLlm9bJRkYdVYHOpOPBNPPcj5WJaM2+S5jluV5G5yvI7m5uN3e0l795izPoAUAkdwqCypQ0xhHvGjBRUY9jm\/wAivUC8D8yuON64E2vIq+yusTCkXv8Ah5\/+6q1ncipuD06EfmK1Zx3jrHX\/AF9x7DrKPhRQCgFAeff1UcHwNrZ8dzaXLVnnb13yWtksbt+wi5qMQBbMSY651ueGlJycWsxNjxds9Y\/lPP8AtSG8tlVnaMZ7R1Fe8vMbWj7PjYlUgEYhDcjR+FWnI9cMa5duDr289CjcKqoxBGpYiMZMx9laPAanLa+5R5uYR3IlbZysyQXGnT1n9k11yILc1HscUSe1NmdICIzYiWhfoqs5OOhZUVJmfOAjW2k\/haP2VzXVKbyjqyyMFh\/sIMRcUp5gCKQQxDQTHTCrdUPb1l1ZVsn7nRaIoG2t22cByxxhxlHs7\/bWlLyDsajjCKEeDsTlklbEqCgCnVMnp7zXNjYgkWIi+bbe9cIthwLrLBAU5kRMnPpXkLGo4weWQTeTuT0r8g3HqDl95z4v7b0lxAvtY3N1Ar7lrRZQ4tqS3l+HXh8QgTjWZyPJqcIqOHbLH3GXPnbUtv1M7H+W3o\/016e9G2PUg4bkuU5q0C1pd9t2\/OgzCrt7Ba4tpSMmB9prM5lk5WuvdFR+D0+9lW\/kysljKjE7ctP5lpH0lNahtLCGEiYI7ayWigSrwCgPJ\/6o35o+vrCbsXBxa7RP8t1H+GSf+MUjrqwbrl3V9X4RR9rT6s6m547GzTqdRWVhCepOHbAqxzZ6pG9w49WbFu2R4mHsB\/ZWPfcksJ6mrTVl5fQnVAvFiMYJMnIDqJ764n0PYrUzrU5r2zGH9FRbSXLKtyYtKAT4jj0GGY+ytLxsNWzP8hPoiO2A0MYxJEH2Z175OfSP3nnj4auRdWSagoCy0WxOJCiM8prix6HsFqZ15SoIAjs+yq+CwAbZiZH7xwP0DCmBlgiVCgjEzjgR767g0jiabJWlZUYgGQY1g1HfL0OqYrOpli4Pime\/OqxaQuWyzjzTAVRlmQcfvq1XyFGOO5VnQ5SyuhG1bdLlzPynBKnpqwP0irV\/KhOjX6tCrTx5xvWOhYsagUBDrjBMgxj3dlZi1NKXdMgQPKn8WqO6IqaBFLqV1IckLqn44wOBPfV7j2blj0KV0NrK6sEJJCQr4YMNJPvB+6vDwjQ6LbWjS0\/FI0+zGarcl6In461JVTLRZcUI5VTIEY+6on1JIdCm95wvhgSWIBBEk4itfiOPtoy+Sm5vTQ0+Udvylzzp1EKE1CMdQy91fU\/pmGeYsdoy\/cfNfqGSXFf\/AJI+PtiPzFvH8Qr7vySf+NZ\/4s+O8e178P8AyR9tHtEhSrScJDCPoivzj2T7x2s1bm9C3GUJgCQJOOHurY\/9Cmvr\/D+JlrzT7x\/E29reZ7IYApM9c8a+d8rxPYtUc7tMm74zle\/W5Yxh4JMDBE9Z99QVXdE+hPbTq2upbtDt1\/4gbzgTADBRHvU\/bTl+5HWC3ROaNk9JPazOnagEFLmrodYj6NNVVe3rgsunsmRuW9stxkIfwyAdQx+qrULWkVnXkvs7QALcW3cIIkHUOojsqpZ5BxljC0LEOEpR6kPyii3cHlvBH7w6H2Vc4\/LcmtCpyOOorr0KVsLrANpwDEnUMB9FX8binv2mFt2bms20c6Ygage790V5jB65MoazdW6zJbKqAcCZgEY9nbWnVZmKZn2QWcC3trw25ZFJ8wgDLIf011KzfozlRUHoS12lLK9gBhhEtgZ9tVpIsRzggwtYMUaWyAaBh2SDUtfQ4nlMySBZ0EqdRGnEYds1xGMm8nUpRINesBVRi2pZkhQc++RVtcJyWclZ8va2sGwht3ED+aJIwBBBwwAwBH11h8ulwnJehscW7fCOnU7E+RF7aJ8z+EXcLq8xtwtiYgXfy7EH6AQKzlxnKqU1+XBU\/UN7VLiu\/wDuewKzz4I4T85PSW39TfL\/AJTaus7rZ223uycCWF6wpaB\/rrKe+rPF5LpnuRd8fPbdFdpPD+88aXCBZVASYOZg9K0I8l2ybxg\/QnxVUlrkPaBcIi6ZGBM+IgTGPfUqkyLCSyyDtcN5EOm26ggZLE41ahujHLzgrS2SeFqyoWzt8GOpHMkKQPhJAM41ZtujctOxBVVKp5fU5D6Q9Lc96h5QLwmwfenZPZu7g2jBW2bgWTiOvZ2VSulGuOrPL+TGC+d4ye6K+bPhhQCgPhesvWvA+keHucpy98W0AIsWAR5t54wS2vU\/Z1qWqmU3hE\/H487pbYnjj11655f1tzl7leTAKr4dptx8FizqOlFjPFsT1NbtSdEcRZ9nxOBXXHb\/AKZ8G01wq4UwAAYHYMIEe2q1zb1Zq1JLRFnlXWRCThiBJiAP6TVbcixgiQNKEtk0uM8Bl3fXU9XIUUQ20Nsg6IytMk6pxMAjsj+mpKuQ09DiyhNLJgKgV\/ABiJWDI95xruyyb1fQ4hCKeF1KylzWywYI7OnbV6qaSTKdkctowltQrDX3gRga9su3dEeQqceodlUysggDScIMYGpK4d3oR2SysLVHYvAfIf1zvdkvJ8ktng+Ie35t3dbtwCLbCQfJXU8nCAQKhs8nWnhfNL4GTZza08R+Z\/A7Z9CfIr5a8Zydm3u943qLl7KfmHtsI21sqQsvbTUAZOC3GPsrL5PkrpLRbY\/iZ9\/NtktFtid1wIjp2VkGWKAUAoBQHTv6o+G226+X9nlH\/wD2OL3ds2u9b\/8ADdff4T7q2vBTxdt7SX7i7wLHGeF3PKdq+h0qZWCADmMczX0PJ4Lk3JM+mo5iitrRvvduMw1Nr0nCa+SZ9NFaEQfFlM9P9FeYOskhMaNJBXFjXllemRCzXAqAnTNfcnxgYYAYjvxrb4MMV59TH5c8zfwNi0VW2ikAiASwzxxP21m8yW6x\/DQv8WLjBfEmVXHSwIHuOPtqptZbUjDKVMHAiuT1PJNFOgkCZOY7BnhUVrJazFREooBQFluIY4z0IyqG56ElS+YmLjiTJkiD7Kq5LO1DV8IIBA90+0ivcs82oEqo+E44rjgMffTYpanim46BgmLajJE5RielSRnrg4lF4yVhjp0nFZmKlTI3Era6q3WBWVBIGkxl3ma1P8WODN\/yZGGuo1nQZDBpGGHZ213VTszqcWW7n0KyF0g6gSc1xkVLg4yTa1pQMSCCY8JmvGE8kSE1AKx09Swj7CaHpMNZUBNQLkzqxAiO+o7ONOzWK6HUORGv6jLHSROXaMaqxobznsWneuxY5tqiMpJ1TgQBkY7TUcuM\/U6hyc9UZLvAMkECB0NVnHEsFlNOOSvbnXuLevxeIfFj9taspuKbTaMzYno1kmx1fEAZzwFUVzr0sb5\/\/wAmXP8ABoznZH9iIrbtK0i2pPeAa9XOvX55HsuFS+sUQubXauCDZQTiSAAfpFXY+f5q\/uMpPwXDf5F+JO3srFtFFsadWYJMZxMn2VX5HlL7pbrJZfToiejx9NKahHC+0tCbcfFaWMsC5PZPxVFHlyO5cRfErfa2rwKoFQjENJnrhBP2Vd43kZxkk9UVORwItZXUqt2SDp1AlwVX34CauS5UM5wVVx54Mot229tQFuYuXlQ0QB21b491NkXn6viU+TVdCSazt+BMX0AAuyH6hFAUdcMRWRyuF7k8p4Nbi8t1wxjP3lavYY3AC2KmfCP21oUcXYk89ijfyd7ax3KXtbfQramxJHwjpH9bvq9CeCnKLbLGtW0sXCpck6Z1oFGftNc7tx70Zr3rYItHKU\/\/AJGrFd+xYwRSp3POQBYFkI4YnVJIYDp7DXVfIcn0OLOPjuXPd3Lv5Nhm0BFKpIMAKDnhXa9WRYSKnW6tmH8JBJkwJBzx+6pFr0PHhPUquoBbTINLBu3CKkhLBzJZZPyFuXC3ll1KAhsc1XpHeIqaHJksIryoXUnbabZVrflsgGj4piTOdUOfFP5u76l7gyae3sj6\/pncbrZeoeJ3dlzbvWt1YuWrqorFCLgxk\/sqtXBKtpd1qOe96aks6Hu+vmj4M1OX3Cbbid7uLhUJZsXbjF\/hhUJM91exWXg7qWZJfE8EC9NxfNbWiQWI8Qj3Vtw40ux+kS5EcFb3LbYM7MBkwx+oxVmuhxepDO1SWiILAvG5BuEghQcCZEDtqyrd0VW+j0K7q2veuq1KWu3ntMwQQMdeOUxA6VpUcGqt4b\/ayhdzbJ6r8Eesf02ei7XD+jR6ge81zeeoES49uAqW7VlnFtRGZOoljXzHmr4yt2RSSh+J87zeROcsS7Hb1YxTFAdVfML9QPpb04b3H8Q6cvza6l0I0ba04B\/4t0YGD+FfqrQ4\/j5TW6XyxNLi+MnY8vRfieYvUfqfnvU3LvyvO7s7vckkKjEhEQn4bSr4VUd1bMZVQjtitD6ajhe2sRWD5yI+pkRMJnITHTOq0pZRoxWNSaXHFxX1jVHb0yggVWsrajlliE4t4RIKAYYwGBKx1jL66pxqk9cFudsfUwrIp6sCPEDgJ91dI5lqiLuFRzogEAArjiDniau8epTejKd9jitSlWBc3jOnAMuc9lak4J17DNjJqzcWpLAsPHqwAI7c8Kzr8weEX6cS6lTFQxX4EYwWBnDrge+tHiwbSa6\/9ShyZpZT6HO\/RfMeh\/Sdqxvt3xdz1F6qYC5t9o8Ls9sWBa2Yh2vXfhLYQuQxFc86q2UnHO2K\/a\/4GTtncvle2H4v\/Y7K4HhvnV8yL6bn1DyJ4T0+ji4LSWkUsVMr5drMlc1dyYOONZVk6KdIrdIrWWcfjrEFukd2+mfS3B+muLTjeH2y7fbr4nbO5cc53LrnF3PUmsyy2U3lmPbdKx5kz6tRkQoBQCgFAdAfq15jkrHE8FxNttHH767ev7iM3fbhAi+weaT7Y7K+j\/T1UXKUu6x+JocCKy2ebdskuHidLKNOUzP7K+h5c0oNPumbXHi3JY7H0j5mRGoADvwzGNfEvHY+vRTedhcIHhA6DCtGmuOE8alCyby1nQlpbMSR2jvqCej1J4PK0JWiD4TkMQftqvdDKz3J6p4+w1\/+Jexx1NjAj6q2F8kPsRlP5pfazaYnUZz76+ebzqbqWFgxQ9J24MqRhnPUVxNpLJ1FNvQtQgERIAHiIz7apylksqOEZYsbSkwQTAPUR0+uuTruV16eigLVIFr4xninX21DbXKXRHddkYvUkVaYjGJwxwqu4NdUWVZF9GYIKrqYEDoe32V1XU5PBzZaoowviCkqwU4AgT94q0uOorWSKr5Db0RJ20risoxAwOOA6HGq\/HhubZNfLCSRWjWiTr1Adgxw+qrUatSvO14NStgzBQGaAm6OgCthOMda5Z7EjXJ0V39EJHxQdX04Vo8RfKUOS\/nJ2nmzpxkMTPtAqDmdUTcRdWWEMAA2USvsNZ7L0TYuOrP8QGoDLHpFUJVy35xpkuQsioYzrgrsWNzbuq2ggfiBIGHfWlZOLizOinlEgCcqxexskltXH+FZivFJM9enUPbdDDCCa9PE8ljW7jW7WlScCJjD4jXh4nhsg9i+udth7jXsQ5L1FkHzgDgcZ+ipIvDyRzWYlSKFYMM1II91SPkM5VCZncLZS94WY6W8cgCPYQav8da\/aULm9v2GjddjBGGYw7JkV9BXGEuxizlOPclYdZhoAKlSep61xbFqWnQ6g0469SJeUCnIEn6Y\/ZXm1nWUZYgPclibR1eWSTBIOFXOsfiUlozNmHKFnUKhAILQYmainW\/QlViRLfNeuMltn83qhBkY4YEV5w4Sg22OROE1iKKUe0rB3ZiwGkgKP3dPbV76soqNbQ9lWcW0ktGoGMfh1RAmuavkZ7ZLcskUbXCwAwERjjA768vrx8yOqbOzL7LLBDs0AQAMRiPaKzpT2vJe9vcsC0D5mlnbTcOgNE5nvNduSsWV2OMe2FvXdpuNvvNqfHYYXlZoENbYER8U5Vb4dEJJxlLDbwVOZbPtHKxqe4vl76vs+r\/SHHc\/bQWn3SEX7IM6LqEq6z\/rDDur5vm8V0WuD7HxFkNssHDP1E+shwnopuK2m4FvlOYYWFtKf4n5bE3mjsMaPfXvCq3Tz2Rp+H42+3c18sf39jykLVxbxQprNwYgyJmG6R1rXle4n2EalIl5JQqPKCxg2qCPEcM5qB8pvuTLjpdiTW7q3LmhtBAkEmJWQBj765rs11Z7OC26IptpY1Wkvuy2y4NwWxqby5AJUSBOeZrRpW+LlnT4lC9uLwlrg9hegPmd8stzxWz4jh98NouzS3tbWy3Km1cGGkdNJk5sDE1gX8axSbayfIcnh3qTlJddTkPqj5gekPS+1Xc8zyVqwHg2rSnzLrz+5bTUx+ioqeNZY8RRWq485v5UdC\/N\/wCftv1BaT0\/6RuXrXHvJ5DfMHsXLuB\/gKDpdV\/eJicss9yjw8q4Oyf1dl1NXxnFSsTmv4fE6Qu3EXcIRbwEAp0JGGBxrSopcqtXrqbltqjZoXWlLu6oIIGCnE5wROFZtsEo5NCueWWqJcavjQEksc9PSqMptdC3GCZBtCNrUkXGkiDlj3yamruco64Ip07ZaFd65ggOJA+jE1PTUtpFbY9xdayDNis4MezCSOuHsqnyNsX8SzQ5SXwG70ebcJzBI0kyCOkYCp6E9GiGx6YNcIAASDEfD99aEZZKUljoWWmgAEaiDlP4TH0VX5EHlMmoksNG1wTcP\/mu2HMNcTjkfVuXs20u3dE4qgaBJiJnDsrRptdEG8Z+HTXt+wyudTO\/6Gt3r8O57B+W\/oH5ecVxe15j05tFvje2VezyN9Q19rTgEYkLpn8UASc8a+X5vNuuk97+4+ZunZFuEnjD6HOVUKAqgBQIAGQFUSsKAUAoBQCgFAefP1Y+md9e2fEepLVx32e0LbPc2ZJS2bp1pdA\/rEaWP+rX0v6duWZV93qaHBsSyjzkmkL4G1FcSwEQJwzg1vcqt9X0NvjWLp3N63cDRDCfDqgxia+V5PEnGTaj8vY+ko5UJRSb+YnctgsbpQxiSRJXCuK7pv5UdTqivmZgPqRQqaIyYsAD24RXcqI5+aTOY3S7JB7hCM+MlSFwEgTAM15VQ9y1yhZctr0wymxa1MGLAQRgZxq5beoplaFTbRtF21doBJAMHOvnjdwRlMJXIdDEn3zXuRtJgAKI64mq90svBNVHuSUwrHEHIRl76hJicFrSKuJDGR7YivUm+hxKSTyyuDExgcjRrB0mmYoei7MgGMAIjvx++p4LQrvqQBIywro8JebpU6pIGVexqU2keSscFlB92vkeAEOvUiRjFWavGRdibw4ejK1nkJKDS0l8Ci1eutgQ1zKSJMD2VocnhQklhqGClRy5RbytzZfaYtcZVDJgcXUjCMZiaz5cVQ+bdF4\/aXVynNY2tZ\/YQ8ltJaRh0nH6K8V8fU6dUvQw1q4qhisA5GpFNPucbWBaYAlgVgSJETiB99etniepGuDszh1MDtrqMcvB5J4WSi4ys0rOWM9talUNscGbZPdLJcjKLaQMROrvxqpyVmRZ4+VEuF23cZdYKgAKAuIge01UlUWFNpF9y0nnaUXSQYABJ64ZzWP\/AJM8mqqIbc5KzrS5LDxTJBxqbQjSJW\/i6nPKqdn0luHUk3Sq9erJ7NET0WNBbU0AgfCOs9\/dU+0r72RF\/Q3gLFQZE4T7prn2W9Tr3FjVGDcLyz3ipJPhOo\/ZVuEclWbS7Fqm0NwhLhjpXww2PhqT2H1IfeWMGvcdWI0oEjopb7yaiWCxhkb9xDcZhkTIqxXCT6EEpKKwyrcMtz8I0hQAYjEDOtbjWuGEZd9W\/LKFsfwy85ECPaDV2fI+BVjT2yZuIh1EMBpVMO0wAalhLRMhktcGFNo2gjozEElSrAZx0g9lSK15OJVd8mLj7VgbgRlYtiusdccPDVvD6FVNoxbuK9+zpGkKVAkz+Ke7triSwjtdCD2nKMyAnSQIAJz9lS8RqUmmR8p7UsGbFybgY+EwRnEYEDE0ujtm8Hlb3Q1J27TIdaytxCQSxEScPqpKeVqNupO3cvgzcvFJWVJkyJ7qo3pPGC5Vpkm24TwhnZyjawwGHsxIryuvCE3lldwIyAlItyVIUmZI7yacebUsvse3wTWE+qOT+hfmt629EbDcbHiL9s7HduWW1fQXAlwiNdvHA5SMRWhzqaeV8\/5oowH46LmlP1Pjcxy3Lc5y7chy28u7vfbgAXL10y2oyAqjJVXsGVUY4hDRGxVTGPyxWEUWbP8AC1FyTqhR\/wBjWFzOTukng3+JRtTWSd3VZYr4CrHp4gI9s0rjnoeTkn1MFodidDtcgCQwBB+gVY0Syyv1eEV3Nv8ACNahgSCwxEYEZDtrqjmxSaeRdxZNppEgl0XX0M69L9xWwIb2aasxv7lWVPZlZtm6E8063BAXU2IUDIk5DsqaPLcfvI3xE+mmCN4KbdsM4ZA3iAkGCO8dIqfjX5ymQ30Yw0il7WFs6zpxKeHxAT7fvq7DkqKxgqy47k8lutf4kuXMgtcPYMO3vrO5FUppbUXuPZGD+bTQnqXBlxQKCRPWKq+y08SRa91NZiyAYMiJncLHH+rh\/TU8ao4z2IZWyyWaEkORMkgk45e2qEuRPGEy7GiPdF6uyAKDhMkH4enbVHa5FtuK6lCo3iFyMTq1N2H6607LWknF\/cZ8K0200VXFRW1hieyc\/pqzx7t\/VdCC+naioswb4pLT4siOvirZppVics4wZF1rg1HGck7TIAyKgB78Sfp61Q5jm0n6F3iKKbXqe5fltZtWfl\/6dt2m1W\/8u2xDDAHVaVifrr5a15k\/tPjOc83z\/wDJnI6jKooBQCgFAKAUB8r1VwGx9QeneQ4fe21u7feWXtlWwAaJRp6FWAINTce51WKa6pnUJbXk8CeTe2u8e0G1XLTtb12zgWUlcD2SK\/SrFmBuVTzhmWDMiEsNUHSBMnGqSeC7g203GpVtiQDBhcZMVg38NRk3E2qeU3FKRk3AzFmWZ7zVPBbRhSsYgTMj6+2uoqUU5LocycZNRbLGzUg+44R1qvJ5ZPHREoBPhIImMMceyqk6ZRfQtQujJdQBJg4VBKWETxWSeHQQKrSll5LEVhYJEwgEnEyR07j9tcnpXc+Ed5qzx11ZXvfREQ7KQQSCMqskBJHclVgMScARiSe\/Oo5Vx9DpTku5Y1l2fwKPFJCgzHdUCsiTbWupWVYCSDGU9K7TPCdlNWowCoEEHvqDkWygk4vDJaa4zeJLKLPLGjSgC4yI691V6+XJyzNt5JrOLFR+VGLRK2\/CoWT8SiJ+ipubbKWFJ5IuHVGOWkWIXlmDQVE+3p99US6\/QxrJjV4gOhr1SZ44I130620\/DJ0+zpWmjPGppBkyMq9GCjebi4GT9\/EljjIyiK3\/ABPHjODc1nXQwvJ3OM0ovGmuCy0wuIrugxGK5A9JwiqHOXsXYi\/j9hd4f\/NVmS+Br3AEukMvh7AYw9pmtetqcVJdzLmnFuL6ostNbdjAKIqycdRzju6moL6PzZJqbnpHBljaEaSx7ZAH3mqbg8FuM9dTasugHmhh4CJUg5mY+ysyfElHujQXKjLTDMWtDuAWCDqThUPsSJnfEstkoXKsNQWQyntIFcTqwsnsbdzSJF772mLksgDEScjGdeUxTkhdLEdOpqpuLqKVBBBMmQD9taPsQ9EU3ZL1ZeLV51DlR4xIiB9VULI4k8IuV2Lassqvo6YEQRE5HMTU3FisvJHyJvCwSZ11oGSfAssJ1fCO+KtTSSZUhlstUXTbaQ1xDgmGUYzhNUrJLGMFqEcPOSu9auLccJaJEkDwk4e+rNOmCC2Say2VBriARaBIPWZx99XIqH5upWlu\/K9CrybmMOoBzGqPqq17kGVtsi+\/5yiEvKLRJKAMIGM\/fXtT1+BxPGOnzFVu7dDqWvjSCJ8XSrWxtleUopETe3Fp582ZEhlMiJr2xN6CpReuDC7hPM13WxaQWIk4iJqOPGm5aEk74RjgBLQJUX\/HgQArYgiezsqd0SSyyBchN4wQ8k6vDcXUwLAzBIxnA1Yr3NZ7EFkoJ4Im2LQ03XwJySGMjtxFe53\/AHBfLqkTcWlOkEufCU1YYHGIB76qTUlJ6aIswacVrqWXtsdAcyoUBcYxMk9Cajlykuh3XQ29STKLgd08BBLEMZBLYYYVW\/ytvVFhcbOEmLVlmVbaS7FsfD8JOEg41w+Y5JpaI7\/xVFqUtcEiHtusEi8R4u0TjVZSeMZLG2L1wT8zSG+InMFhk4j7qhnFPqSwb7EzZDuHaWtFgTGM6viyrmNkohxi18SIVZS4SqRgF8WS9+NeuxvRnqrS6CHZWYW1aCAmYEYycx3VJWoMjslNdyu5acal0kHBmxECe0Vaio+pWcpeguGG1XF0+YB4IOYMTiZr1vKx3PIrD+BF1tMht24dxJA044Z5jsrvjQsjLMmc8idco6IqZBBC6pCycDCsMYrSr65Zn2PQr3AGuCpRSAZBmcM++rFdmOmpDKGQJQIA4P7sYHEzjUd0XOWUiSqUYxwzYRUZob4lUwxJmRJwyzrIuvltaXQ1KqI5TZbbVWgMoxPhYyAIxOVZfuNGi60yJBYg6fFms5Ee+rNbfQr2JECplWJChjpJzgx1FWaYOzOOxXtmq8Z7llrYXt1ZvXbNl7tvagXN06glbdvUE1MRkNTAVJRYoMh5GuE3jPT7TXO1uJtrO6YH8vdZla6BgHBI0HDA6RMdlblknvwumDHrcWmn9R9X0N6a3fqX1Xx3D7S010bi4ovlCFZLAM3nBbCVSah5dyUG5PscWWezBz9D3TsdlttjsrGy2qC3tttbWzYtjJUQBVHuAr5FvJ8hObk231ZdXhyKAUAoBQCgFAVbrbWd1tru2vrrsX0a3dWSJVhBEiDlXUZOLyuqB5e9ffLr016G9Vc3u7e22\/JbK9xp3vHcJcF6bAfcJZuuGtklRaUkqx+6vtOJzbeXRFZ2yUsOWmuja\/aXabXp2Oprm54DcPrSzuNlcCQqI631e5PxFm8sosdADVidc4J6o265SbS65KbIts86SGAJkHDAdn9NZFs24s2q4YkixHgMFClOjOoJH21RwXWVss3Te1eFAJEQeytCi2OzYUL65KW4mGDqGPiAGIJjIZVnzpcJ47F+FqlD4lQMEHsqY4LRfvpgrkDpB6VE4J9UdJmPPu4y0yZJOJw76jlx65dUSxunHoyf5okYrlgoBMAe+arS8fB9G0Tx5s11wzLOrmVmOw51w6XWsEkbd+vcjXJ0WWQDcEzAxwzwqK+W2DZJVHMkjY02iT8SiMBg2P1Vk+6aXtsxpMLD4zljh310rEeOtmWLqSX8UzBnAmuniSOIrb00BKqhbFmUSQBh3zNR1075qKeMkll22DbRUu4skKgeBiQD0ntNaV3jrm86MoU8+peqLEe0wYA6mBEEZVQt4tlazJYRdq5MJvEWZQkMGA1acY9mNQRWpNPoys6CwOmF6qpP3zV73GU\/bAW2WxlV6ZE\/dXvuHntmlutsAbl0ONIIhT8Rmvq\/GcxShGCjJLHXsfM+Q4zjJycott9O5al9Ft2laSAgkiCevTCq3O4asscs4ZPwuU660sZKdy1sg3AYAgeLMz7zVzgcWe3ZH5sFbm8mO7dLTJGwwYFlaRkQPpr3mwlBJSWGxxJxm8xecFqqTPYMT9lZkpYRoRWWbFq0jBkS5GTQ8KDGGcntqrfasZZPVW8li7fQGdypUAjAziRhVb3YvoTuEvQjaVgCwwU+E\/bVfkT+Us0RW4uVbZtklW\/dLBgM\/d2CqiucHksSq36ZKLllQ3hkKcpx\/ZV2vmOSzgrT4iTxkmtq2LYZiwmQIAjD399cOeXk9UcaIJbUiWfSJiYJ+yvFPJ7JNEb0i8sHJVg\/7Iq4n8hVS+b7yZuEWVxOLN9i1V9tssb0ma+7vsb9xQWB1HrW3xuO44k2uhj3XKScUiaPZ8q15iu7wcVcD8R6aWrnkfUe0J4K9cXtUCPwggEe+RjXja26dTva869C2473LIdVQhCdcKgjKMIqSltLUgtUd2hqa7h\/Ap\/2F\/ZWh70F3KnsSfY2EusfKQrbCxDkomGJnEjsqKV8M5ydLjyx0Krli4wE+WRMLp0gyfYKlhyE\/pZw6WvqQPlhvMkLChQOurRFKpuctXoLIbY6LUrtWxdKC48MfApUTGORyq5ZyFX8iRVjQ5\/O2Yu27Bs6rbOWUjUGUAY9hBNeVP5mezzhIlaDArdA8XRYkDoM5mah5MlhxJeOnnJO4z4qU0uxnKD7hAqhCqK1L0rGy0N5dubw0K8eECG8OAIB76js4s5v5eh1Dkwh1ephdwsMlrUdUEE4HCeyobOJsWWyaHJ3voBZvs5OYjUT3Cf2V43BQ+J6nJy+BfZVdYYyEOMMwjsPTGoFaiSVb7FBuOqIbYIR9WGZkjTnFXlTFRZU9xuWpYlwLbQm1KzmxM9piIqnbBNluuT1SZXeughV1HEknUAACc6mpocs4IrblHqS3Nyyih2l7jBcFIC49QcezsqxRxN1ji3gr28pqGUQN66yJdDaQPhXVLCOtSTpUZ7ER125juZg+a5b4ciwYACeuEdtSYwcJp9Cp\/LLICz+LCFgzj7RV3jaxyVORpLAZmUELcjRKgDs9oqOGhJPVmbdmyzo7yFEBlGBwAx651HyOY4LCRJRxd+uTYCWyJgAlsMyY7ulYcbHLOTYnDbjBLUxRtJBkwVykmcgMOlSR256EckzXdwARMacSThEdlaEOPJtJdWUZ3pJt9EUtuhfARQFPxSepAjLDOtanx\/+O3J5lHvgzLud76UU9su2Ts7d2tjsPlDx+44C+g3u\/u3U9QXhNvdXNujgJZ0ydVlXddRGBgVh8iyPvSaX\/iR8WE58jbb9Menpn\/c+D8vvUvGcF6kD8xtRvfTm+XyOU2jAMjI+AuFDMtbYah1rqc5Tgnn5kWufwnOLUNJLVHpX0V8vPRe19U\/\/AG70z+VHFtsV2mztbQl180uzXbrMSfEV0rH01nXXzksS6nynJ5Vvt+1PO7dl5OxKrGaKAUAoBQCgFAKAUB5i\/UL6k3nCfMy42yDom\/4P8hyK3PgvWL7uGFuf3fCcPxCvsPCUqfGy\/wAtm5fBr1L\/ABoKUcP1OjNtq16BdY2wICEdIxwyra59ydMtNTV4VOLY5NpBGoqpMfi7Por5aU2z6VRSLHTtIRSNSjOoXoSxeTCJqOknAmCB1Ar2M3F5R5OKawyhWCsV\/AT\/AKDWhOO5FGMtrLbdp3OGAGbHKs266Na+Y0aqpWPQtuWVFvw\/hxk9RVKjmOc8PTPQt3cXZDK+8oq+UxQGVYgzXMoprDPU2nlGwLTFdWAwBg5kGsuc4xk1k0IRcop46ltlGRm1HSdOWcg1U5li2YXdlriw+fPoTrMNIUBIIzAQAZwEmuoyaOJJDU6qzR8ZjUfpNSVvXJHYk9DXNmyY8MRnBMn6ZrSj5G1ejKEuBW\/VGDdsbclAGhsehPd2VcfFny4KTe34f9SpHkx4s3FLd8SVvca1Js43QD4D2ZHHDtqGrw7hNOxrYSXeVU44gnuKBev9Lc6fiIBNXV42l93+1FZ+RtXVL9hG5u2YjQNAHTMn6qlh42pLDWSKXPtbznBW9xtOskMxMaWAbAe2a1eNBRWF0RmciTk9SAujSdSjOSRhA7gMKn9iMs+pD70o4x0M3EtMRbdjpkE6SII7jXXFlKnLxqcclK7CXQzYssihbY1apZjlHSJJArzkpcjE5\/Klp\/pHtE3RmEPmfUs882wU8s+YwAPinqDgAO6s6XCi+5oR5ck84Nq3b0orNIdgCV7K+d8h8s3Bdje4D3w3+pJiwSPwkz7x\/pqpWW7CVrQbThmCmVI78DSw5h1LLd28lghHKhmgQYGA8X2iolhdTuSyzFxGYgteVmjq2WNdrBxnHYxruAi0NL6T4fCD39RXp7juT829csmFtzqEAIi9D3Cu4JEU1j1KGs7h31MonLNRlh0qw5Lbgij9Rm8jLaRWz1MYwPReyuIM7lqzUZTJYgycya1FdlYyZ7pxrgvRkUWm0lmCnIwMWYY4GvJTxocqGWZQ2GbSbbnOFDgY\/wDdNV1oTyTAFttx5gOnVqZbZE9D1iKuQllFSccaEZR7KF2CGWyX2fuiuZxbO4S2lVxLiTqUrGc4Z0rjlns56dSxS5S2Ee0MJOrTIaT1IqzDbEqTzJ+phNvcjU1lbgYSJbLv8LD668jZt6Hc4qXUjdthXGldGAIA7Yxj31HK6WSSuqOCVzSF8STaf+oFMjs0x9tWKb5Z6la2hYMeVat3AbjH4Z9+IX4fdUdspSyl0JKlGKz3I3DpZWbxqwwIP341zTS8PJ3bcs6Edyt19Kn8EiSZ61NRyI1ppkVlEpvMS+zat2r0Bw+pQsYr8cDs768lYp5Xqc7JRw32ZZbu22K6QwMaFGBGOHxYdvZWRZVrk1YWNLBhTc127It6lJm5qkROGGI6VPxqqnBub17EPJttU1s6EcB5bLiQSQgHWcPpriq15xIktqWHgiqXVVQG0gYknAAnv91Tymm\/sIFDC+0iu3bO7dEnxAMC3vy61Zu5sc\/LlEFXEljXUsu3ETzNCgAqArgEYkgxBMYwa4rbm8ns47EkypnAtrcUhmGGIgDTGEdTjViurDyyGdmdEVDWb4CWiEHwsAxWfaZrRt48XXuT1wUKuQ1PbJaZNhQwUg3CVnpMH2VhX8jEceptU8fdLPoLtnxIPCsmfEcwO2nFuks7s47DkVRf09e5gaUDNChlMrJMEY5eyMKmcd+pCm4aFxuM1kk4MckGQJOP0isydThZ324NGFinDtnJUdIBBWGB+Kcj0qxTndoQ3fSVNidYliPhjr1rRql8+2WhQsitmY6mpvNpujYt3iulrjEo2AnSYJjOQa+q8f5KuvKl9P7f9I+Z5vAnY1t6nc\/pbeem7\/yR5W1utxe2+7465ct7uztBbO5v29w6NYZ\/MH\/BDk6gIxEzXxXJi\/f01RamrFyYaaSS69mlr951K0XB+7mR4SSR2mKmUcH0G89L\/pavbo+lOV29xw22tb0NYTqGe2A5H9U6RHfNZ\/L+pHyX6hS92L77Tuqqh8+KAUAoBQCgFAKAUB1x85vlTw\/rXi03+43Z47f8RavXLO8AVkNvTrKXQSPCGWZnDGtfxPk58aTilujLGhLVNp4R44tKVcFGB1YEQY7499fV8qcJRaaeD6bjQmmnlZL1DuYUe4V890RvFnlBVEsCZMwZwqCc12JYRfoZBgGDAGZ651GsyZK8RKrqF5ujCcCDmTWjVaksMz7K23lGxtzc0m24M28uuB78qx\/KcdZ9yPR9TV8bfp7b69i1c5wEduVZVabksepp2tKLyaVfRGETt29bESBgTj3VFdaq47mSVVucsIm22YatLBgMuhPsBqGPNrfwJZcSxdi8xMKSVGAnOBlWROW6TZqwjiKRYnmLb1KARMnCYjDH6aikkztPUj5mEEDOZ6+yo3UiRWMmpRtRgiB4RnXEqsdDuNj7ktLO0AgmJz6e+otjJPcikRuKdAMkiTPYD7alrjginJNldSHJ8+6ZuMcczE5xX2dKSgkvRHyVjbk8+pOwqkMSYYRA7ZzqDmP5Uibir5i1QxMA+2s4vmWIFpwXhQCQvSQJH11PxW5WRXxIOSsVt47Hzrhu6FCsGHZADD2mMa+zhGl9sHyUpWp9WzZWzFr+JbA8I8WMk+wN91ZvIvjFvYX6KpSS3k7WLEZAqwAy6GB9NZjnrls0tmmEi61YuGClssoBILLqGAxzEVRnyJNtpltUxSw0VuqsZKgEdgC\/ZFFyJrue\/wCPD0NyNMWlQFsIbxTjj1NZHIe6bb6mpx\/lgsdDAcaQriVBJEGDJj29lRR0JZLJh9MBlUgGRiZxHuFetZPE8GUa3HjLA9IAP2muJVnamyd4KUt6ZjSc8\/iNc526CKbyy0i2N1OvxTisHDCu9nci36YwVBbAVwbokjA6T0M0ieyz6FXh0AR4pMnuwiupHUQDZA8RaesAR9tdxryiOdjTIsARpkDVgJ76640G56djzkzUYa9yVq1oS4GdJYCMewzVu6xSWEU64tPLRWrlLsqpuRPwY5iKlq4zemcHF3ISMFnBRnOmAxhjiZEZVfqoUVh6soW3uT00RC1cBTS2iAZGskZ9kEdleun0Hu+pbcINy+GlgSSADjIOAGdQQliWCacfkTRShsNgQyx3hv8Ay1LasHFWWWW2s6vLVWJcaNRIESc4g\/bUKj3JJNla3dK6DGORgGPfU3sZWUR+7hktUWsSSNUFemWdce1JddDr3Yt6aldxrK4ANqGOIEGce2rUKNM5K7ueehZZdmDCQeoUqCScsMMKgsTiiWO1ss8g6BcUtauFiFWDjh0qGNiXXUklFvp0I3Eui7Jby7gUEMZHQda7rkt2TmcfkwXl7rbfVdi6dUiWJ6YnOcagsWZv0Ja3iKx6FNi95jXJssQCQIJJEdDga65Hj1XjXORTz3PtgmpFso\/4sTp9mVU5V\/sLUbM6C8C1tVUqgIVmOJk4+2paFCGsllEVrlLRPUiglQGbUVVsfYCRXdqi5rC0Oa3JQeeuSBdfENWomIOmR7YNWKNJIhvWYkUdnUrIAnEgaQy5dAKuWxfVFOtrOpJ7hF2VUhixgYiAMutRRWU2yV6YSMa3Xy+09RngcvqryNaznB7KbxjJWbrW7peB5YJIBxB7KtLjRksdyu75ReQBrZWiEbATVd1+38pOrPc1NlF\/iO+sGZAOHXDEeys3lWrbj1L\/ABq\/mz6BgdMXIVskUgGS3fTjZ\/LlpdxyGu+jfYgBp8RQwoxBEAHIVZktcsrqXZG\/x\/MbGy+3t73YWt5a25i7qlbr2i+s21uAkJBJ8WnV0mMBbjXNLR4Rn3xUm8aS\/A7G+V\/qD0XxvqUbqzvm4nbX2azveP5Zbd+xe2l8yyWryKSjIVU+NQG7az7q3jTUo8+u6deJR3NdHH1+w5X+oP5bcTteD2fqHhbO34\/b8dbFi9t7em2lxHf+Gtq2q+J9TkkzlXPFvesX3KHh+dJzcJttvU7N+VHpnccB6P2O23VtbW5axa1Iv4Ro1kNGZ825cM99VLpZloZfkeQrbW10z\/r8MHMqiKAoBQCgFAKAUAoBQHT36odnzF\/0Bt72xDna7TeLd5DyzEWmtvbBaMSupwD7a2PCSirmn1a0L\/j2lPX0PJ9vEEDMYj3Z19RbHTJ9BXLDNlLrEKeq9Iwmsbk14f2mpx55WPQt8y3GCHV26sPoiqftIt+5Ir8bEYEycAB17qk0RxkkCQrWyDnJ7QR\/prxhGFYqQR0rlpNYZ2njU2GcGwzCMREHvzj2Vl1cdxux26mjbyN1Xx6GtWoZ5sbYQrnDGBHXtrO8hLRIu8GPzNllZZpigLirBB4SAAJPQziPqNV7OpNXjBjW0gnHSIGoAiPfXOWdOKMhVCZANPfMEfRXkrGIwWTJ8sgrBVZkZEzEd1I247Hkqm+5Dy\/AfHj0XGpVejh0skRe1KdQdiMJIMdxmuvcizj22uxpXlC3bisgLTicoPuMV9NRa9i+w+fuqW9\/aLYteVAUh5xaelR8m1vGSTj14yWl7aqABqAMtqw6dxqrq+hYxjVlO5Kiy5ZdOoDy4mJkdvdV7x0H7yz2yU+fNey8M0lt3GEqjEdoBIr6bJ8\/k2LRDaM+xjmfrrJ5WkmaXG1ii9LVtWBLhhBwgiDGH11mWXKUWjQhU08lrPKpByWCOyKzpLUvw6GBb1W2aYggR7Z\/ZXis26nrhu0JozK6tmw+6qk5dWWox0wZULIkSOoGFRb2SuBbqslFAQ+EkkMZBmOzT2VHO1rodQpTzkXhbEBbaiVUyNU4jvNeqxtHirRDUIUMJVcIGBzmvG8nqjjoWs9n85hbaQcTqzMeyr8IZwZ85NJmutwOLmhNKQMCZIxHWBXVnHUFnJ7C9yaTLrWFkEWRdJYySGwwH7pFQNErevXBBrhFzRoRGOSFRhPe0n667UJ9locuUO7KrvllZXVK4zgIPTKrPFjtk\/sK\/Jk5RQm1pMyzH8QwHtiK6nBKWghKTiULcA29yWgqwOHXMVsQ42\/6TJs5G1\/MRvkEsyjVbJJUzGEnKp6owi9s8qXYhnKckpQw13Kbbq7RpwA7ascqv24prqQ8ebsk8mzeN+ZIClpJKn+ms2GxPL6l9qTWF0MqtzQCGDdSnUt7Otee7CUsPoPblGOnUwptPaVrhIeSPCoAjD2VJfiMsJEdKk1kk1u2vmgR4SVQtjImuITZ3OPQip0LDMtrQSXZhP1Y5Vaqg7GopbpditdJVpzekSm9ctvdDiWDATPsgGatSpccxejRXhapLK6Exogso0Be0yT7MBWbYnJmhW9q1Nu5ctMpfxF7g1KDEAk49azXU4S1L0bN0dCLeW62tRMldPSMD1NTQ9SKT7EQVhWgMAICns74ioLLXvwWK6lsyYe60NB0gtq0DLHrXfzS6s4xGPRBGKssSGwLFSQYyIJ6VZjCMY5K05SlLBnNy5xb8QiSDhEzhnXNkk1hHVcWmZZwCRIBwxBhQMiPfXEK22dTsSRHzAkAQP6xUCewgnGpfZm38vUj92GPm6FIbWXnFVGAGAzAwrRlU4JZKKsUnoSVlEYFkYwOpkQT9NR+zu0O\/d2lCMGuEyMiT7IxirkqWtCsrU9SQdWOHwRGmoZpw1JYYnoXhk1+YpA7FOAXDDPCqclKXxZai1HroiSmSLRxJ8Xhjr7Kp2cWTeejXqW6+TFLHVP0Ne8mu9pJK6SAdXhwrV4cPZr7N\/gZnKn7s86pGxZVXbVMaTiVIAj2Vn3z29e5dphu6djGmwt1l1AMD4icMI7O+pIxvUIv6ov0OJSplJr6WfU4jcFRatX7Av2rN1HtvOhrY16oZwrQhY5MInHCobbe+MM4dHXEv+p6X+Ye3u+sU9D8Omvbcfyu8O531i8hS5o2lo3GRg49ojrnVTj4ipS9EfG8WX+PKyXVxWF952oqhVCqIAEAdwqoZBmgFAKAUAoBQCgFAKA+f6h4axzXBchxF+PJ3+3ubdycY8xSs+6pKbHCakuzOoS2yT9DwPynE7zjOR3XH3wGv7S8+3ulDILoSpj6K+6r5EJpNM+qjGTinjRkbLm4oT8SzIiAO+s\/nw2vd+U0uDNNbe5sKFlQYwOLESDWPK150NWNempk3HLapM\/dUGSZRQDvpKg4GcDljXUHhnM4popq4VjKn8JyP1GvMAwQQYOdD02LT2wqoSodiT39mJ91UOXxbZvdGOYlvjcqqCak8MsGIkYiYkZTWbOuUfqTRowtjLo0xUZ2WMQGOknSD4Z7BlVdk6WhIMhBLCGgkdhPsoonjbRgPbwkED8RGP7K8dSPVYwGSCZgjIRnXLpZ37pILJUKQxYTA++ufbke+7E1ru6zW2AO1+s91bfE8dFJSmvmMflc6TbUH8prVqmcYu2r7oot3DbEHUMRqx7qvcXydVMXCcN+vw\/6lHkeOsulvhPb+0ruW9\/bCqlwXlHYMffONXqeT4+56xUH+z9xTt4\/OqWknNft\/eWAa7QUzp1SVnxZZGq18nTPTD+JPQlbHXKK9zbdDChhbGEEzB6g5VZ4vIVi1+ogvo2P4FKOyGVMVYnBSWH0IoycXldT6CaG0sZCsJwzr5K6Drm4+h9NTPfBSXc1719tRW27i3+6T19grb49EVWk0mY91rc21oXbS5uNDBTqVzEEBjIHeD21Q8hTBYxFF3hWyeW5P9ptWTCks6q2KlWzxHZWJbxZN\/KtDWr5Uca9SK3AGlSCRhiJH11XlRJdUWldGS6mzcbcIiNqChsITSuR\/q1E446nsJRfQiivd1sZdlUEdeoFRNE2UsE7nmWUtygUkEnUgOMn94dlexWhy2m3qUo5e8rNE9sAfZVuEnlFayC2sr25CrdJUN4RgZj4h2RVm2WUV4xwy0lGsqSRa8TYAEzgveaiSJH1Kdyk3RBnwrB7fCKsQswiHZnUsK7XQyhnDGMWUQIOORNcQnqdTjLBRfDIiaX1JiBhERE5+2rlMYzzlFaycovQwLYNi6GGHh+2uquRtlmL1ObqNyxJaDydSWwgEKhJkxA1HtruVspSy3qRxhGCwloR0WlnWwPZox+2KlSZw5eg\/gwSrGR0YZ\/RUdkDuuZZYVXwJ0xiznKKq2rBZhIktgkFghJDECASpPU9leW8iTWEK6Yp6kbrRallBIfTBERh3RVrjttala+KUtDU3tgbhrbBihuMZXMZj2V9B4zmqhP5U36mH5DiO1pbsJLoSOpbwvK2Ex\/WAiMvZUHvKcH6k6pcZJdibW9QYqIVPiBIkdKzIuSNGW16ZNi2902AheAqmLckEjOYqnyKZSnlFmi2EVhmb15rqrN3WYzeYGOQmaVVtPUTmsaLQiLo8U3I1gazj0OQjoZqScd2hxF7dSvXcuu8fATpmBiRAGPSp7ao1xXqyGqxzb+ANu4XUyEnNjjP24V6rq9uGss8dc92U8ItuMZ0lyYMriMCMu6PZVamxw6rqT2Vqa0KsQAGyB8Ik9c6nU4tfKROEs6lVxNODSATm2U4xh31p0z3rTqZ1sNrI21RGfUdBJ8WJw7PorrkyutSitcHPHjTVmT0yZuvDwhjq2HUZGvOJGWHvWJHXJcW1teYkrc25aILDxlR4e7CIrjlSk3j0OuNGKX2mRbZmaFGGLFQPdlVb3Ht1ZY2JS0RNbS6AWGRmZ8Iyj31XlZPpHqTqEc5fQloBYKVLOcBB7B76qRtlHTsWpVxepC5btFQcTAzyM1aoublhfSVrqko5f1GQ4ABRWmR4WGIAAifpwqa\/j7n1yQ0XuKx0K7jqNQYRGYbHGpePW09M7vwRxfYmtcbf3n0eF3+3sOTuEa1auIyi\/tyVvIzYqcWCQIyjEV3zIxyvzSKlUZtPa8Lrjsd\/ejfnhwF7dcFwHO6uW5G1fCJ6gNtbNpLlzUiNoJ1ggPoJgTnWVfxHBZi9GunVmDd42ySnOK2L\/tO9qzTCFAKAUAoBQCgFAKAUAoDzJ+qH0rxvH85x\/P7a4lrc8qrW9xtFWC7WIm\/IwydVPWtjx1jcXF9j6bwl8pRcH0j\/rB0nZbxgNjgQvXP21dvTcGkfQU4U0y\/UAThpJww7OudZOTTwNKHJoxgA9naa8Bjy3PwjVJIEYzXq6hspIIMHOrxUFAS+IT1H1ivAUXv+IRhhhhiMMK1qo4ikZk3ltkVdlIKkqRiCMK6aT6nKLrG4v61XzNOM6jBM551Tv4lO1txRaq5NuUlJlwu3BA1GAZA6fRWRKuL6o1Yya6Mmu5uQynT4yJJER9FQvh1t6Ik\/wAma1z0KhyC68UOjuMmtGX6fi1pJplFecmnrFP8Cab6wQS0qRkImaqT8BavplFlmPnK31i0G3KtpW2wlhj+zGvavEzqe6ep5Z5SFixHQr0tBMHSMCRl9NWsMr7l6mK5Oi4veTwaiPCBAPQ4j7ailqzuPQqubhrSFB8TCQYEjvmJq7w+GpPdJfKVOXycfKnqQ2\/lsgBIRtXibHKJxq1zU9EirxHjLZeAfJe4WHi8JEjEHPvrOipxeUtS\/KUJaPoUXrdrywwt6CT4SJgjrmTV\/j8m1t7v3FK7j1r6SPmoulLTMrDHTM4+3Crc+NKS9xpFWF6i9iZhQCxZ8Rmx659KjTZM0WWm8Atg\/iJE4YkAfdVXkwlJppE\/Hkop5Za1plC4hiwmFIJEeyqU4NataFyuyMtEXKlx7SaUY6ZBIB7ZrOuknIvVLC1LltXmRQV06ZGJAOc5Gs+5\/MXauhhcLd0DsH\/iFcw0Z3ZrgiLZ1AXCUnElgcB210564PFHTJJHRL3hl1EjDCRSNbyeSsTiYQoAz22ZCBiJ7TAxFTsgXxIXrrm3bZjrhmwaT0FT0wTWpFbLD0J27nmKbhFtGQqFLFgIg957KnVSK0rJLuYuNoII0k3EMlSYxJGE+yoZwSehPXNyjqRcqqqhQPA1AmfxAHoRXsLHHoeSrUtWYUqdvdz1eGOyJpXHDye2yzhEF\/LlP4jPqGAAAI+s1YTIJJkV8pJKAs0QAwEe3rUzsIlW2TUoQBct67hbSoQhPpgGvU0+5xJSXRE9LQQGUr+7InuEwJiqljXQtV56hrY8QAJKNpwMapMClL7HtvqYB3KuhY6bYKggMI94Bq1VJZKtsdGadsKbblhOkrHvma1WzOwSRGcEv4ccCOtQcm6EGsdyfj1Smn8AGLbh1ZGm4MAIZpOM4VPNQ9vdF5IIOW\/bLQu0PZS2xQ6iHkEEThFUd6k9S5twngwjCPEgDHEzIUD6TRwipaBTk46ki5hSYZhjqyGH1R0riXXQ6jrozIAGiGhJPTH6OtVrrcvUs01aaGdDOApIJOCjKABM1HGeNSSUU9CSW0LEMNIXDUpDezwkCuuTdXFZWrZxx6rZPD00BtatOvwiYjM\/6Kqy5G36e5ajRu+rsZu2hoC2zpcgjAzXvB5c42KUumdTnmcWMoNR+40Lti4ii2WGljjOUfvCO+vruLzq5pyPmORw7IvaGRg05s3wzjlXKsUnk6dbisGU24bxGS8zhGn3npXNvPcVhftPa+GpPL\/YbRtgalEaj0EmY6E1gq97tehtOlbdCsqDrwBBAkHIVO7tFghVOupZ41tS2YKhTIMAg9nsqGyGuWS1zXRdChndiEJwJHQZ5Z1YqglHJFbJ5JMVDkusiIUkhQQojrnVuiM3JbUU7nFReXg1VYLbQvBUk6j8RAwIwralXlNLRmSrMNPsW2rgugoktcYyRIEgTgJ61Snw3HV6luPLT06H1eBt325Tbptdub+6Dh7dgN4mKAkoP63YIk1k8iDw3F6F33IqOJ6ZXU9negvUaczwy27nmJyOxC2d7YviLymPCbgw8RiDhEgxhWJOOD4jncf256fTLVY6HJa4KQoBQCgFAKAUAoBQCgOp\/wBS282e2+XMX9vavXdzu7Vjb3LigvaYhnZ7XY2m2RnlWj4ytytxnsafim1bleh5L1JqgN7G76+g9h4PqPf+BtagwDRB\/EO\/+msTk1bJGxxrN0RVcsCgI3XdWUZaRMHEEnGYPdV+iPylC15kyAcYalkCZjAmakcEcbmSVklcSp\/EYw+qvHA93mvcWDhkcq0q57kUJxwyVhFZjqBKgYgYfXjXHItcI5R1TXvlgtS0qHVOqRAB6GqV3LUoY7st1cZxnnsiQE9QO8mKpRi5PCWWXJzUVllb3rQUgHU2IiMPbWjRwZqScuxQu5sXFqJq1rmYKAttfC3hmYAbsqvyXoiahfMLjMtp4EgwCeyTP3U4Mc2fcOa8Q+8o867AXW2kZCTArVlVCXVJmbGyUejaM3N5uPOPjDhTAwABA9kV0\/GceS1gjiPkL49JP95E7pmua3UEfujD9tdrgVpYWhy+ZY3l6sut37IXxKQc\/Djh3zVG\/gKT0Zcp5sorVEl3Fo23DEichE5dcKrrgTT0aJ3zYvsxZ3Krj5mkdVkiR7qkjwbG+hHZzK0inZhze8EEgGZIAgiOpFXub8tbz3KfF+aax2Ngi4zaYluxQPurEyjYMMjqYZSp7CIr3KBZtGK3wR2MPpBFUfJPFEvu\/eXOBHNyNyT218sfSF6i2jKWLGQrYRmcetQT6kkM4JO1oC4UJl+jAds9K53b9DpRcMNlYcSGiYznGaL5T2S3IggQCSW1DKMqsSsysEChhk1e1pZbk6WESsTgZ615SmmL9VoTGnyR5FwooY6tZ0mSBGU9lWG2VUtdUau4NwsA1zWM8yR9dW+PPESG2GXpoYcwlof1T\/4jXU1ueTmD25RZdElT\/UX\/AMIqrOWHgs1xyskvLTybnjTpjJ7fZU1EJZIL7FhFHl7nUFTSyNkfBj0641pxjBQ1+rDM+U2599uUZ0LjAxGdZCnPuazhDsAEAlmK9mBP11PXFyWSCye14J+VbkhWJhNZJEZgHD6a5tPapZ+8rNx1ODdh+jKvaugtWpPVYJITUC2ChgpGOUzU1UdsskFsm44Kl13JLOtvT4WAXSSD3KBPvrQnNJFKMNdC9RctoiWXYlgWOmRhPZ7qzbpZkX6V8upBnPm27hl7ikHUMQYMwTVyivNb1Kl88T0WhFpnUhkaScewjsriFai8Ek7HJBdNxwFiXPwx8JP1UnCUdewjNS+4iTcOnSw66tWXbjXVFkEmpHN9U204l1x1RdCmUPQYgd+PWqca223ItOawkgNJZQtpmugeIfbhFetprHY8SaeS0HTLGDhLIScPb31QnDLwXYzwskFdT4zJ1AiOuVdSp2vGTxW5XQj5mgq6iB06mZqxVQpEFtzRBhcMHTNuZWRIx6kxV6qKrWjKVknY9Qba6IIgNjr1SSR2ifurxclpnv8AjpkvKtqPG0JhGkTI7ZwqH3HKRLs2x0QWCxjG1GJEL9vsr2UUur1EZN9EZUK1tiFJVIAjPGfEc+yodexJoupWulIkBLbMGLSCx7Cfp7K0o75YbT0KEnBNpPqV+Ybb6Wuw7gszLiunL9tX6uJK1boY2lG3lxq+WSeSvyw6AONUeBAMMZmZ99SR5Dr6HEqFZrkrezatrOs4HSZA+z3VZ4\/IdremCG+lVpdzKJetbhXskKwKsoOE5EYd9dvkReVIjfHeMo5v6Z+Zd\/0lc3F307xVi3vtyFA5DfTfuqojUtsDy1VWYT1rFv4cZdWd2cd3pKxvauy0O7Pll8w\/UXqnnuW3e82VsWdhaN3ab3aWiiXktkC7YuXNTB2ZWV1WfCayL6VDQy+bw66q4pPr1T7fE7nRg6K4yYAie+qZgtGaAUAoBQCgFAKAUAoDg\/za+WVn19wVjZDdHZb3Z3fO2l8y1uWGlw6AiZGRzH01c4XL9mWcZTLXE5XsyzjKZ5v9Y\/IH5genbgaxtTzWzKljudirOVjMNaPjHuBrfo8lVZ1e1\/E26fIVz6vD+J1\/qu2f4TLpZcHVswZ7Oh6V7yK42PU2ePNxWUH3SoxBXsKwZwInGuV4dTinGX7Tv\/2rjJqUSS7iwxweMQBIjOqtniro9En9hZr8nVLrlEXMsTljlXUVhYPG8sxXR4KAQCNJyOR7DXdc9rOLIbkNuWUuvaBPuNe85\/IvtOeGvnLayzTIX1byCQsrIBPZ1q945L3NfQo89vZg1K2zJFAKAuQEWh4pDE+HsIqnyXqizx11I35FoQ2BaCvsGdWfHrVsr859Ea6aA6l\/gkavZ1rUwZ76FNXimZGYo2EjZaxda4\/l2mKgmAATAnDKsuPJrf5o\/tRoOicesX+wqqYjFxh5KrOIYmPcKtcddSrf1L9siiwrAeJyZY9xjCsjytsnNR7I1PGVra5dyyso1DdsFTYXtEyffXz\/AJSX\/Kl8Da8bH\/jb9WbW3uPJQudGlvDJjAGKyrZPa9TRhBbk8BTpyAx7QD9tUt8vUuuuL7B7hZw0AEADDLDuqRSbONiWhKw1sE+YisIJGqcwMBgRXmduqEo7hcZXytqn+rP3k1G7WSRqSK9AV4cHA4iYNTqbIXBdg5sj\/wBMkdur+irMGuqK0k+jJ2vIcG3oI1Yg6siAe6jsecHLr0zk1nAIGEaRHtxmrFdr6HE6+5HB9IY6QoIn3k\/fVyDbeCnNYTZE7osV8IwAXPsEV1ZwE8vIr5jSSwSZSBctyMVDT9DRXdCxqRXSyYtyW256BtI9zT\/\/ACqw11IM4Lbed3\/VP21lo0ZdCIUXEtoI1AsTPQQP2VIpOPQ4kk3llugeXqFxZA0uZPw4BRl3Vy8yCaj2IXLVpLZPmJccxp0EmO2ZArqCaDmpMqRtuD49RMEZCJIircINorWSaZaRbCtbdtRXJYgyMM+vvqOU2kdQim\/tIqX0hFYgDGCYGHXpUSUp9iZuEOpW1wG5KgW0BPhmQf21rQq2x06mXKzc9SzQ2lGtoXEMpgA5iB8PtqBpp6kkZJlJcW9K3JUz4sMY6TXSolZ36HrujX2yTV7Qu+JSVkEKCDgcYJqGXHaer6EqvytEEYKPEphT8MlSf9FeTjhY9RF5Zm9f8u3IAUjJSZJnswyrurxSsa3fT9pxPybgnj6vsIJuG1IHgBl1Bozzwxn2VYt8ZXCLx1iQ1eRsm9ekiaXbgcBAO9YH3gxVWFUXq0WJza6MWtRRgzEAt4oMAD2TBqSxJdERwbb1CjwRJIw6\/VVOTy8lxLGhJM9TNoC4R75+2vYwlLojyU4x6szctkhSXMGSWAxPdjXHGtcJPMf4HvIrUorEjACyHWdAPUYCO2K5nrLJ3DSOCdxUu21LA6ml2g9hIgCvKZOqTa1FqViw3jBQ23GpLhJjAgGMlMfdVn\/2corGEQf+ui3nJS9sXLz6UIbFTqMQD0itzjch0wwmtdTG5FCtllrpoTWy6El8OgUEEfVhVDlcv01bL3G43qsJGXtxKtGnBlU\/1sj7a9p5LXTRnlvHT66luyG2TcAbvW+2YifKYB\/as4SO+ub5NrTqIJ64Oz\/l58t\/R3rvZXuL2e73u05XbXH3N3eXNujoLEKlu0zC5pBLamwFU\/flXq+hleS5dtElJqLi9MZ7\/sO\/PTPpkejfTO39K8Bb\/ObxUe7d3e5UrYL3D4rl7TOeSosmB76p2We5Lcz5m673rPcnovh1+45bsbFzb7OxYuMHuWrao7qNIJUQSBjFQsqTeW2XV4cigFAKAUAoBQCgFAavKJyT8buV4y5btcgbbDaXL6l7S3Y8JdQVJWc4NdQxlZ6HUcZ16HH9hd+Zdi7sxv8Ab8ZvbL2bY3rWLl2w9u8DFxkDhw6FcQMDNTyVLTw5ImaqaeMo6h+fXyY5bd8u\/qj0zs\/zNvcKDyWx26k3vNBM3kQfFqESFxnHrWh4\/lLGyTx8Wa\/jvJRjDZPt0\/2PPnKbDebDdnb7zbXtrfUAta3FtrT49dDgEV9XxsbFhp\/YWZ2qb3Io24bzQQYK4zXnKltrbJKI7ppGzWAbgoBQCgLFA06vxZN7BlUHIm8JdiWiKy33M1WLJloCrgQ2JJORHSu4EctTXu2ljUgg9ROHumtXjcxt7ZGbfxVFbolFaJRFAXjTpWBBjxe2aoXv5i5SvlK76p5eomHBgDtFXfHyeWipzo9GU2zDE6dQAM+8RP11pMzwzuyhWYlRkCZAong9wjOsllYhZXEeEAYdsDGjk2ms9TxQSeT6Fm6XtrcwDEmQO6vkvJceFVijBY0PpvHXTsg3N51IXdrYu3GeTb1GW\/FiTjFXOL5aeVBpehV5HjIpOSbNNLdu4xthiUUamaOsxgPfX0zn7S3Nnzu12PCWpJrm4sqLcAKogYKe8441A\/bue7Rk0VOtY1RLb3Ndw6x4QJgYfXjWdzuPGuG6PqaPDvlOW2Xob6XbAQKoKHsOI9s18ry+NKyW5H0nF5CrjtfQ2bChvMCkE6ZUzH4hlMVkXRccpmnXPdhroTJ3DuLbOWJOWqRNV3gnWFqTS1fU+G0Se9J+0VV1LLcH3REuXzAw7AB9gricmSQgiRuIqKotqx\/ExmZnuPZXUNUcTTz1K9ySdw\/twq4loVE9Cabe6FfzLL4gaZVhjPTDso5NdDnMZdydmzpcAWnkTDHtjsim5uWcCSW3GUUEboKSbcKBifLED6qtx+BWePUquEvbDFVYCdUBQQO0AQa0ONJoo8mKzoapXSVMyD2Vf3ZTKqTTNm\/cbEIAVCLmqkxpHWKqVrVInljGSFq89u1bKsQA5JAMTGmp7ERQ1yWC7bUkeUQXlcWj7RVJVt9EWpTXdlTMbV4m2QyyQDngZFWXTHBCrpMmlwW7RYqHDMFIaYiJ6EVHVBM6uk9Cs3D0W2oGGo6oP11dqpjJ6oqW2yitGRuklSCqCBq1pOIy6nt7qswqjlJIrStljLZFb15Q7FxrbEN4Wmc\/ZUzorj+Ui92cujMG9d0TchwRgCIAxxwEVy1XlKKwdJT1beSSGUCzGvMQcMaiusX0ompqedzIyCoxiBlEde7OuNuDvcRd3S0IAOqTJAJwIHWr3EinllHlPXBi3JKBiV1QCSZMVFzUllpdifiN4S+JcLRV2uawAcCgGYywqjLm12Q2JPPYtx4dkJb8oXQFVHViWWSsyIGWc9tScVNJrsyPkNOS9SWss7A+JmUMGJ6z8Rk+6llbUco8rnFtJkvLdoc4sMz2ZYntqop4RacU+hkoishzXMDLrULtbJo1JGGeNSHM+Ir1JE11Rxpy1eiObuRCOMasouF7jM6qWnM4wBWrWopambPc2bGmQqOSqQNHWs6yXztl6uPyJEiqxqVpVDDAnEn66ht0ZLVqsELbrdbylWbitCkGJEzlFS3cdwipLo0R1X7m0+qMXL5DSD8Eh1OMCe\/211x+LuWXE8v5G14UjHmrHjeRj5ZxOJqaHGm8rpghnyILDRBb3xaRh2HH313LjRS9TlciTfoNamC41A\/FEyOmFcqCT0OnJtGxZs3fzSW0Gu4WC27YAYlslAwxxqu+Qu6JnS1HOdDtj0T6Z+aO2tzwfE3fTdi66HkuTuTau3VDAC2q3gXVdRJAVeuJOFU7bFIxuTdxf7klY+y6pfsPUNhbq2La3W13QoDvlLAYmqp8RJrOhOh4KAUAoBQCgFAKAUAoBQCgBIUFmMAYknICgOlfnd8oOX9d7\/bc\/wAJutqU2mwKJaxNzcMtxnCrcWUgq3h7\/bW347yS48HCSecmhw+RGD2y0y\/2HmV9v+XuXLT2TbvW2K3LbyCCMCCO0EVas5c7Fhs+0q40I6x7kf4RmQR2AQaj3Eu0xoUxDDKTMjHsr3ceYYFtzAAktkBifoFe5BhlZTDAg54iKAlZgkrGJ+E1HbHKO65YZIggwc6qFsOcQJkACO7qR9NSR6EbI10m1qjxpPRmHtC4SRCtBOAjITkIq5xuTJSw8vJS5HHjtytMGpWuZpsvqDEN8S+Ex\/VwrNm8tl6tYiijcMNCrGMzq7uytHx8dGyhznqkQtJdYP5YLYAMAJMEz91X5NLqUkiVu2NDM6yJ0jGCDUF1rjjBNXXu6jy005nV7orj\/JfoSf4\/xNnb6BbVQfEZmcBPtrE8jXOyzclpg1+BZGuva3rkleE27qgiQrEwZyE9Kh4FEvfhlP6kS82+PsSw+xo7QPLsPhgK3vM\/dX1Pk5fIl8T5zx6+d\/YbCsymVJB7RhWIbDSYRijalABykgH7a9lJyWG8o8UUnlaFurWNX4vxRh9QqpbDBZqlnQ37TrdDNp0aQBqmZMZR7q+a8hBR17tm9wJSb29kiyzC3VZiFC4knurNi8tI0bE9rCqui4dasQBETh4h2ip51tLUghYm9CVq1qtahE6iDJAyA7ap3Rbxgt1zSbyZutuUPiuEDCIecIwyNd1pqJxJxb0Khd13gxHiLDL21cUSq3hEWdTdYMSBJxzrr2H6niuWOguY33uDFNUavblUly+TBHQ\/mK7lzSysDiMfor3hVy10HLnHQxNnNkJJxJDdvuq65tFNVp9GVsb1pCShCN2rh9Yq1VW5PBVsmlr1MruQFSDAC6WBE5knI1JLiyzoyNXxa1RWLd17pdULKcmCwPqqxfj28EVD+fUtNlxfV7txQZDMGmQDj2VDC2KWDudbeWuhWnlktqYKfwkzGfdNHVJrQ6VqTJ6VXxeaojEETPuwqGMG5YRLKxJZY0G8pJvL5cz4ywM\/QcatJOsqOSn2Kr+lZQqAoyYTJBxGdWKG5TWCK1JQZWotrZUNcjX4tIWe7OrdsG5FWuaS6GWFxtCLcZrT4RiAI7iaRxCLbPJZnLCRktctqzEBlwWBkP8At21FTKu5tdya6E6kmbCCI12wVYazeYGZKz2xn3VUv+XKJ6fmwyu6LlxASoYAELpAABkHGIrni27U3JnfIqTaUVqE2wLeIrqbBW1Zt7In6akfIUlocKlw6kxcYKV1ByQTq+LKBB1CoZ1pLONSWE23jsRuDwRInqnX3YYV3Qnlehxc1r6ldrSbY1DxDE5zHSZqxyVrp0IeO3rnqbBI0KxMDBowmCfrrIes9q7GmtI7mZUFT4WjVJCkSI6TNJZi\/ierElr0IX7Ukso8JgC4ohcO4AVZr5WMZK0uOnnBlbbZMRiMQDme2oORyI7sInooltyZ8xVxCCW+KehBwivN7a1PVXhmPNCKxBUtqlmIBz7JqT2Zy7EfuwXfBFSk6p+P4rgkz1jGvb4WNKMnoKJQTcorU13VPOcgsCcAD35zWxRZtrjB9kZV0HKbmu7IoRDQJb4dOOB\/eFWJxxgghLLJL5pVSDB+GZAkVXnjJPEtVS1sMulYJLYiR39sVStjhluuWVqejfkP8n7Fva7b1f6hs+bu7sXeK2jjBE\/DfcHN2zXsGOeWNyZLdhHz\/l\/MSa9mt6d3\/wBDveqp8yKAUAoBQCgFAKAUAoBQCgFAKA1uR5Dacdsru93b+XtrIDXbnRQTEnuxrqEHJ4XU9jFt4Rq8H6f47hl3g2BuCzvtw+8e0zl0S5djX5QPwKSJ0jCa7tulPG7ssHU5uXU6E\/Ur8vbWxvJ6y420FtbxxY5e2BAF1h4Lwj9+NLd8dpq\/wLFL5X9x9F4bnSa9pvp0\/wBjoXVbMwSMoB+utB1M+hVnqZIAnxAgdZ7fbXnty9Dr3ECCDBEHsNcNHSafQBmX4SROBjsoeljkr4BgAACIjHMg++oJvLJYRWMhGckIGiTh3Vxg6Ych3dtQknLKZ7Kl2MjU0RII6V5g6yjOghWkYjBgcDFdQeHk5nqsdikWLZIxIE+L2d1aNfM7SM+3iY1iYqMlKdyW1KCZAEgdk1s8GOKzI5bzYy3Z7cXLbt5mgggaYmcJqp5PmxpcU1nJa8fxJW5a7EjtLoXVKn+rONUI+Spfdr7i7Lx9q7ZI3LF22oZxAbLEH7DVqq+Fn0vJWsqlB4ksFr2tNq2pUjUNROPX6qina1J+hJXBNfELZC6XIlWkQeoyOVRS5jj00ZKuKp6PoFt2lJ0ppViCygmMPbPbUdvkLZpKTzg7r4FUHmJRfm1uGC4QRAz6T1rW46Uq02uxmXNqbSZm3ca7eQXCNJIBgAYT3V1ZXFRbwcwnLKWTZWBOkRqEEDsz+6vmZWyktWfRRqjHojZti7ZVldY1kGJE4T+2svmxVmFnoaHDk4tvBcDZuBlXUG0kgmIwE1Q9hR+bPQuu9vTHUhatLJLNpUDMCceyurLdyweRrcWWMbQthQ8wSQNMYnDt7qh25JFLD6GLxBuIvUqo+qpY1PBH7qWTC6pWVRQGxaQDge81djX8CnKz4lF2BcbEZ9CD9ld7Jeh5Gax1JndNduG2zk2i0qWPwgA5A1aspUoLPYqVzcJaFbqHUaZ1AYjt9lRU4hp6k9rctfQWtyttADZt3I6tqk\/QRU+xSepA20tGQNqy2gM5QuJIiYkn7qvwytSjN9UUi0XJJZVjIdsVZdsehCoSJqFiSDoGGoduJyqvZgmrb6FoUBU0YMykszZZkfdVfb82Sbc9rRWiWSQWEBSNRLRPdFWVKXYgkkZuFns3GALFiDIBIzxrzjV7ZPJ7yLE0kiVvyyjWvLKsADn+IQMq4vnnU9qjjHxIX2vLac6RII8JUGIHYccqn8Z\/+qz9LIvI49rTqUXb4K2w6aGVfhCxEknrjWpfxpOfyvT7TO498VH5upJDfVDcWYbxIBiJJP4Yio5yhH5ZtfedwjOesE\/uLra3rdhAW0uZZhrEkZjCapX17pbq18uOxaptUVts+rPcrtSbt3QVW2xOljIjHCI7q65VkcKL+oceuWXLsbCKmsRBVUIcgdSCJxjtFZ8vmeEXU3FZZWyyQ1slgM2iIpXFxR7OakZa3t7eqC5Iw6RR3e48YwFU4LJUGtz411dkGKsQbSIbFll23t20XWyhg+BUzIEzNVOVypZwmWOPxotZZeF0soC61aNIicO6Qaz3ZLOc6l5Vxax2JwyeKGtKSBpPZ7DmKilZnr1JI1+hhktQNIJ0huvfAOP01zXY28Hs4YWSlpt+HAsMQe41c9vOrK6s7IgxnFBOPiXPv9tW4V4WpVlPL0IOFAIRAzx8JJIn3RjV3jXJTSl0KfJqk4Nx6oo2zv4lY\/1kHfV7yFMNqa6oqcG2W7D6Mmzub+gGCRGvHE9R\/orivj4p3d\/Q9nyM24xoRuRphRjMAnvwn25V1x55eGeXw26ombatA+FspFUVynueehdfG+VY6nZfpf5A\/MHmLu2vbnZJx3HXCjPc3NwK5tMQWK201PJXtiqVvLXrlmbf5fj1JpPc\/geuLFlLFi3YtiLdpVRB2BRArLbPim8vJOvDwUAoBQCgFAKAUAoBQCgFAKAUBXuttt91tru23Ntbu3vI1u7aYSrKwggjvFexk08rqep4G329nbbe3t7K6LNlQltZJhVEASZOVJNt5YbydbfqL88\/K7fJasG8GvWDcbIW0W4GLnHtWPfVvgf\/AKo0fE499HkCt8+vDEi2Rj4jHdhjU1K7kNr7EA7AEAkA5wc6naTIi6y9xmkgMFHYPd7aqcqEYwylqWePJuWG9C+VBUXBAaWLDExl9tZijlGhKWHoYULDN8QWfDiCR20jB5Ep6FNWCEzJiJwzjpQE7bkeFifLMys4TGH1140DGKNiBPYcRBFcHfVAC1EMCCT8QOQ9lSKxnDrRo3iDdYqIHZ7BBr6emO2CXwPnbZZk38Te2QQbYEDxFjq+6vlfOzzel6RPpPCwxS36yLqxTYKN2sFDOYOHZjW74tf8bfxMXyMs2JeiKASDIwrSM8vS6jKqs2kiZJyz7qpX8Zt5iW6b1Fali2yXCggjtmB9cVmuaNDa8ZMJt1F65culboMhASZzwJy6Vfv8klUlW2pLHYoUePk7G7F8upbb02wVUaVJ8QGEjsmsm7l2WNOT6GpVxK609q6kwbYXw2gJnxEk\/RVey2XQmrqXcuslBZxRWYsZmZAgdhrPvscWsF+mtSzki91fNGhQgyaO\/A5zU0Fugs9yGeYyeOxmzdUtctldSYsCDHwgxXc+NFLJwuRNtEbjroLqsQQImcwf2VzVx1Lud2XuJK15f8N3LamM4RAgx19ldyhs0IlNyTZXcVg4LAiGMMMiJwipnZgjhXuK3VQ2sjUuZWYMmrNUnJakFkcPCFtbdwkKmkgE6ixgR7qksl8pHBPKJwlsSdNyeikiPqqqkmWXJoxdKaViyqyP3iSfdNTwTWpA2noUXAfNUEgEhcewRhPuq\/BPZllSTW7CMBDqEMFg4PiBI7MK8i0ey6Ft1r7Wxrum6obPUWgx315NnlcUjAmLZDQww7Ix7ffVeU0mWIwyjD22e\/puMSVkMc\/hk4TViqWEV7F3RECy+KhvD8QJHb0qSblHVao4glLR9SFwOHQswNstgcAR7YFWVOFlclFfNggUJV2R3PTJa7\/Bcx1AMurpgIWqvEynqT8pZTwaLKs\/xGKtllOWHbX0tTzHQwLMpmxtrl1PMFyPKQgKpwk5YRVHy\/GjZCOEslvxfIcJy1fQzcIu3EvRisDTHhIBqpxrVTDYy1fU7ZbkbwsWbIAKuCikFioKmZAaKw7uU7LMmtVx9lfUrYOwujAwmBUAYagcgK6ruxIWVZiitbTPaOkHzMixOBGZGPuqwuVFP5mkQPjy7JsuKNbVLbAeJV1kmes5iqNvIW9uLLlVDcFlC7Zti5oUDRMoScPpMVzDkzk8pnUqIxj8xgayWtgmWGIU4GOmGdSRTWrOJYfToTtO+DBVlIzw06foqtcsv7SxXhIzb3KI5UgREjMjrIHt768\/9dY69+UtcY7h86CnsSb0zkakCaxiswYBLGe6uKuO5WKOUn8dDu29KG5p\/cUXXE6pjIERGEYRWpx4y+l9jOuceq7laqVZgZ0SWDDPAT7qvSUZLKeqKalKL6dSy2ZLMTAaQgP\/AGyxNUeR0wupco65Zr7hLGoQwW6DiBB9mXsrU8Y7vbbkm49jO8j7XuYi0njUgZV4Qkl+pEYHuq2lpllVvsVrdvm\/DGO0xGHdVuddKhvSX8SvCdrlsbZ3f+m30Ps+c5vdeoORspe23E6U29lwGVtxckhypn\/hqPpIr5XyEsPTqzjzHNlXWqo9\/wBx6frKPkxQCgFAKAUAoBQCgFAKAUAoBQCgFAKAUBr8jx2w5LZ3NlyG3t7raXhF2xeUOjDPEGvYyaeUdQm4vKeGcP3vyR+Vu8k3OAsW2P4rLXLRHuRgPqqwuZau5cj5K9fmOPb79Mvy13EmyN7tSchbv6lHudWqxDydsfQk\/wDa3d8M4\/vf0m8G0nZc9urR6LdtW7g+lShqxHzMu8USx8vLvE6S9f8Aoy36O9UXuDTkPz93bKjXry2zZCtcUOFEs0+FhiPZV6HO3wzt6m\/wU7oKb0Rx6qxrmRAVvFByA7e2vUcyIV2ckyV0AafEcdXdXgMvc8AtrIQYkHqTQJBvFpMAGIOWfb3VyzqJaES2zAjWRInp2VRlyJdi5GhNalYsJat6kUCSRr6+yrcufbdpJ6ehWjwqqvpWpaWYqoYQVUD76zbn8zL9KxEyqszaRn3kDLHrUaWSSUkllmtfs3Gu+AF8BOkTH0V9BwGo1JN6mHzcysb7FEHsq9kqFtiyXYFsEGJOHTsqtfyowyvzehNVx5Tw+xsO2p2aIkkx7awTbSwiVtkCtqXUZEdMMa5aye65MBgJJGP4fprnYdOTJXAdRMg6sZGWNGIvQ2bK7opbKl2RjiBJGBiKq3dSatpJkEH\/AMh46ayMjkD20eiPV2yZLXDbZsAJCmFAOMnMDuqJTb7kuyKfQwEARSYZW8Wk9xIriVsovRkkaoy6ojdvlZQ2kASREGROPbV2qO9rPco2fJnBWtwCNLAz0jER2yKltocVk5quUngwQS+uQDMx07a9hasYPJ1MmBcTXcYjxq2A6j\/TUinGT256kTi0spdCqy11mhCFPUlgv1kipvYUdURu7d1Lbl25aBYEJdeBqtuDgM8VJruOe5E0n0KjqZmd7o8w4MWkk9Ow1K28Y7HKSXYgVUgA3lgZDxYfVXarZw7EWJcuWk027hE\/EUYgH7KqXfUWqkmskWOs\/GTdxJBE5DtmpKqE1l9CO25xeEYuXPG9xQTqBKzhnVmmC3pPoV7ZPY8ENubRh2YgWypdYBnHpV6yvC07lKNjbG6JeywDF9RBQtmQCfbUfAkqbG5PsScyLtgtq7lIBtqLRZToZpIy+n3Ve5O215Wc4KnGzX16MxeZNMky4EKsDr1nrU\/Cg4x1IOXJSnoYAs+WjK58yPGsdZ7ZpyHltM9oytTcQK6NCEWkU6Cf3iRmaweQ8GzQui9S1HJdbNpS+tQLhzgSJy9lVKeAn8+WWbuc18uFoY\/MJceTbjATDHICKguqUVlE1M5N4JalVYRtSg6irCOwVVlWpdS1GxxBvWh\/EZSoyAzk17HhSn9P4nkuYofUWMLb21UmQZbVlgeyfZUFSsqs2dyWxwshv7EEUgBmthQsaVIOIznvq1fNor0xTJu9tS2hRqUlhpB0xh0OPfXFUN0luZ7ZNxi8I0Cl65eRpNu2gJAMHCRn3ma+phyOPVx5R0seVn7XnX\/4PnZ0X2XqWsPT7F2Ns3DBJA6aZyIGcV806I7srufQRultw+xp7q+ttwCQQ7TA7PZX0viuF7sZSxov3nz\/AJLl+3KMc6l5d7dqWSCQdKkjLsIzwrN\/x1ZbmMvli9f9i+r3XViUfma0\/wByGsaNbQIgESDjHSDlXVnDbsxHVM8r5eK9dJL\/AFk1dxbV7ohYdhLRgATlnX0XHscKvm0wYN0FKx7XnJs7ewLallaZUhzqwM4YrnWPy+dZNOLSUDU43DhFp5bmb\/EcRv8Ak+V2nFbZQdzvrqWLIedGpzhJUMQO2BVOLaTy9FqT8m2EYOb7HsT5Teht16L9H2eI3m5G53j3H3G40Em0j3I\/h2pAOkAdczJrJ5NysnldD4bn8pXWbksI5lVcpCgFAKAUAoBQCgFAKAUAoBQCgFAKAUAoBQCgFAKA4160+XfpT1htPJ5nZq95RFne2\/Bft\/6rjp3GRUldsodC3xebZQ8wf3djzX8wvkJ6q9L+bvePVuY4ZJY37K\/xra\/+7aEmB+8sjtitGrkxlo9GfVcLzFd2kvlkdYs5RQCAVJOHWQI++tKipSTbL11jT0IeYmkYHVOJ6RUr43ozhXv0JF0Yxr8KjwlhHfGE1G+PI7V6EYAyPFkAQT9FcOuS7Hati+5NVZbgV1MSCy5Eio5aLJ3HEuhZWOawYShExpxxOfSpqZYeCG5dzXu3twjMjN1j6MMD7q+gjx6pRWUmYbvmno2gu5uNpQwBMFuvvNcPgVdUsHf+Zb3eSwggkHMZ1lmkmZV3WdLETnBih40u5a4IS2pjBZyg49Kr253ak1ONugRPMcquBglRnJAmKjJHoHtlFGoFXJyIjCgTIUOi+2E0jWuodBMfZVKy5qTSLMKU45JujeEBdKxKgmcDUErk3qTQqaWhNbd1JZSoIEfGs44YY1zBans5JrBWb9822TUxDETiek4fXVmMkQSr9ETNncG2kWnAUEE6TEyTXM0mxCeO5sO4N5kYKQcCCqzl7KqQlYrO+MlmUK3V2zg+YqjouPbWzOyTWGZsYJPKLrRiZQN\/rA1Tuk44wWq4qXUtIuMUdbRCp+6DGBJrmMsrUSiloVQfEunwMZ0xUjumtc6nKpg9ME3CLtjCAEuskjrByqSq+Unq+iIbKIo1W06tUSes5Gr0bW0VnUkyrdC5bfUEi2wBBI8JJXHH21tcRwlBJ4cjG5G6MnjOC21LnT1MmfYJrJsjnU1YSwVHWHLLBGY6d1WqLIbEn1K11c3JtdCBS6oLCdBzZZj31ejJOOhTknu1M29QbToXxgYMDjFJTygoLJZcdPLEKAQ3SRhFVIre9Sw\/k6GHNpnuKLShIfSYIOAMdauUzluWpUtgtrZp3BGkTKZ4de2JrYjJIzHFsntvNV1ZYhpxPQDM91QctZrl9hNxn\/yRXxN8XCulgqnozESZPXHtr5d\/NBr8x9FjbNf9pK88+LQxCHU7fDBHXAV1wdyys5yccxReOiKBubZusQRcUSFEgGO3CrfI4knHMouKK\/H5MU8RknL9pYL90HzFATV8MAdPbVB0xiy6rHJagbd73jYwo6dc+gry3mRqhhLU9r4srJ6vQtvMAiWz4UmJjIdcaocTdOUrJasu8pRhFQjoCHQeBiihZUT4ozM6fpqXDlLXqRZSiZLFmADai4AnoSPoNdPj64Zyr8LKXQhauo9uXERMQc2Awn6a7sq9qaUfp7nMLPci238wusikjAkHwsTgepFd11SlnC6HE7VHGXjJqXbNprxaJf8ACDW7TybK6tmcRwY1tFc7N+MyLWS78TMNQUpEgiCIGXtqrG+uKwvwLMqZyeX+JjygiE6ZYEQTJBBH0V577fR4PfZXc1zaay0\/CjY4jAz0rY\/yo3xSbTeNTK\/xpUyeE0ux9\/076R9Q83v32PE7Y7jehCwsgqrZahAcrIPb0rFsvgsqRduujXFTb0PTfyY+UG59Hba7u+cuWN5yd5g+2tqocbQssXPLuMJ1XBAYjsFZHL5SseI9P3ny\/kOerniOkf3nadUjLFAKAUAoBQCgFAKAUAoBQCgFAKAUAoBQCgFAKAUAoBQCgOsfmH8g\/SPqvzN5s1HD8y0n81YUeVcaP\/VtCAfasGr3G586tOsTR4\/krK9H80TzR63+Wfq70ZuTb5jZn8qxizyFmX29z2PHhP8AVaDW\/RyoWr5Xr6G\/x+XC1fK9fQ4rVgsigLNvrFzUn4QZ9hw++oeQ\/kZJSvnRsecTpGkYZxmfbWO6ImqrZLuSV7b3AGGhGwwOXfjXKoSeUeyueDXYarbeEEr4i\/WJj761qJtPHYzLoLGSCW1Ilie4CpZ34eMEcacrJfcvW5ZlUycQGM4zNU66U5alqdjUcIqe+75Qo7Fwq3CqMeiK0pyfVmySTEiCABHZAisG6WZt\/E26I4gl8DKEANgZIhY7ZH3VESMHSLQ\/f1GfZArqKOW3kIyQFKSxw1Sa92nLbL3EORAEYYZYYVkTeWzVrXyoutupdDc+FQBAEzFVJfUWEvl0IOlpbZbUzE4L4YEiJ69lWK3uIJ5j1MW7asslgp7GnL3A15Y8PB1DL1K7qBfFqDDrE\/eBU9Mk8R7shtT1l2RTtgX3AYkYGSWIGHvr6CU1GOphbW3obO2sX0W4wIWRpUh1zkE9eysvk2x24yaFEG5dCbveRAGdg8mYacIEZGqEmmXoR+BCHfxFgSepYT2dTNe7H1PfcjnBYbu8tkTemMh5oI\/8VT1RcnoVrNqX8DWuX7zoTdvalUxpZ5M9wmrqom1omVfdri+qMoQLJYRJIAMA4EHtqFtp49CbCeH2Jr+YuibdskIAGKgnCIx+iuEknnudN6YfQiXthleQGCkMAIMz7IyNX+Im1qUeXo2l8CpBL6dGDGJMmAalUdTiUtCnyrmDASokgz0mKte9GOYt\/MV\/blL5sfKStWS1zTrFt8NOqcdWUQD21y28HWUWDbaiFLoxyA8WfTpUEOUkySfHbXQpNu5rIRgzEGSJjHA5gVc\/yIw+Z9EVvZc1tXcpezbS2JcaxMACQTPbWzG7ck0uqMiVTi2vRlT2WdGTBfFKg4geyp6vIwhLuyKzgTmjZtI1uyqu2ppkmSfZn3Vh+T5Mb7m4fSjZ8dxpU1Yl1ZsbuzaCltZYBVGkLpkEDrJ7ao8XkL3lBLXP8S1fTL2nJ9MfwPm208m290QzCFAOXinH6q+u9yPIahJadf2HzLhKj5ovXoS225vgMrRcOrAET9Fe+S4lTccR0wc8DkWJSe55ybm15BLl8gA2sDoMj2RXy\/kPCOquU4y3fDB9HwfLqycYSjj4l91BcAljK4L1EHE1h8fkuvKxnJtX8dTeehC69iwoJcqGBUTGZw+ytHgcW7lSlKuOdpnc3k1cZKNkvqMWbloJobD8erAk+wGK7s4tk5YfytHMOTCC3L5kyNxAt4XEMKVGlCM2GDSOlXd0Y0KuWsvUppSnc5x0XoYtuLr6VGvSdTiMJyw7q5u406Ybk9WdVciFssS6In5VtFIQyxPh9nUVTs5M5vD0RbrojFZ6smiK66ScQrEjrIxx91RTltWTuK3PQldVTpIuCRgsLAFcQnu6HcobepDc6HtqHIGsgFsQqkdTE9O6pfGQatck8fDuR+Rn\/wASi1n4np75HfLLZbXiON9T8tbtbjk2sq3FXVV0a1YZTBeY1sQ0AkYLFVeXa9zX7T4nyfPbbrhpDudw1TMQUAoBQCgFAKAUAoBQCgFAKAUAoBQCgFAKAUAoBQCgFAKAUAoCnebPab3bXNrvLKbjbXRpu2bqh0YHoVMg17GTTyj2MmnlHRfzD\/THsd35m\/8ARt1dnuDLNxd9j5Df\/iuYsh7mkeytfjeUa0nr8TY43lWtLNfieeuc4Ll+A377Dmdld2e9tnxWLylZWM1b8Q7xhX0FO2yOU8o1lyFJZi9DTsMjFz8Jw0gYiOtV+dBRgvtLvDk3L7iyss0zK6Z8WUHLtjD669XU5l0IYkFQwUNgScoz6TVuqSi8sq2xbWEfQ3fBc3YRL97j9zbsOiNbutZuKjIVGl1YqJVsxUbsi29TmuyOMZWT59yURkZSGJEE4RE1NT1Fr0IWrb3GhACR2kD7a7uvhX9Txk5qplP6VnBusrm4QRLsfw4490V89u3G7jah\/FtN+JGPtBih5ozF0gqh\/HjrJntruPQ4fUhXQNliGMgRPSsaeNzwatedqybL3bLNItzgMZI6VUfUsRi0upTcIZQoEAEke+P2VJXZtOZ15ZYbu31osMYCjMfsqf2d\/wAxX9xwyipwHa6sRg5Humpaa9s0\/Q4tszBr1KrW3taS5uHCARp6n391XuRyE10KVNLUi0FVQIp1KCTMRnHeeysrkPc0afHW3OTL3Ea4pIOkBQR7AAaRg8By6kfJUksHXqQo1T7MqsysTWCvGDTyU3FLARUvGmottnPIg5JYNO8QtzScxX0vCg5V7l0Z89y5KM8Psb223F4W0CEEQI8Kn7qw+ZXtsl65NbiyU4RJyCPEuntcD7qpdS506EVt6oaYBbTPecqmg8YIrHnJJNxuBeRGa58QDAu+MnsmtNWGW6I4ZRYaELZ6Syx7RhXnMg1YpepJxZJ1uPoQLqbitqhlUQf6wwH1Va2PZqVty3YLEbwmVJYZEZe+s2UIt5RoRlJLDMCE1tpk9cYA6xUs8TSi\/UjjmDcl6FFsWmxZSxBLOTEH2Zda3bLnFadjFhTl4b6mDft+bgniJzmRjUc+LKVec4ZLDkRjPGMo3TYZkm2nmMpliZJM91fOUcnMmn0N2+jEV6mfMDOLV0Kj6SsHwnFYAM13GE9++KePU4cobNjf3GtubDfkynhA1qZBU9vZWz4zmbbHKTb0MnyPFUoJRWNSjStmAragADqOYIrQnyZ2SyvuRShx4wjhr7StFZiFsyUUgyBiO8xjV+ab0fcowajqupZa3O5uO9oggmdOEHDoT7KpX+M41EN8Vhot0+Qvultk8ple62zny7ly2XGnESRhMAmrvjOdGuHtxaT64KnkOHKct7T9Ml6pZRFIYrcQExgwkZAGs6y1WXN9my\/XXKupL0RNXeAW0hgSBpgqJxGIJzxqLk0Vy0S0JOPdOL6ljbRz4y1stqkhTEz1xgVnLyUZfLHt6l58CUdZaZ9C022MEFW1t4dMkAnORE1VSWdSy5aaGbAKu0kM0HUcAMiOsdtQcm7Oi6E1FOFnuRGAII0k4SRhUVc9ryT2Q3LB9L0fxu35H1XxPF33Pk7zc2rTqZMBm6EBz\/u+2tiUlKHuNfMvQ+f5c5UwmovTB7o29i1t7FuxZUJatKERFAACqIAAECvn28nwTeXknXh4KAUAoBQCgFAKAUAoBQCgFAKAUAoBQCgFAKAUAoBQCgFAKAUAoBQGlyXCcNyiKnJ7Hb75FnQu4tJdAnONYMV3CyUfpbR1Gbj0eDiu\/wDkp8r97qL8Bt7Ttm9jXaP+4QKmlzLZaOWS3T5C6t5jI41yH6ZPl7uJ\/K3N7sif3LouAe64rUXKkXoeevXXDOOb\/wDSlt4f\/LvUDLIhRubAfvzRk+ypYc3HVFmP6hbXzQ\/YzjO+\/S366stO032w3SA\/ie5aYj2FGH11YXPh3TLEPO1PqpI9Ocbs12PHbXZL8O1s27KxlFtQv3VlSeXk+VnLdJv1KN56d9P72fznGbTczn51i2\/d+JTXUbJLo2dRtmujZxj1B8m\/l\/y3H7mwnD7bZ7q6jCzutunlPbcjwsNEAwehr2dsprEnkvcPyt9E1JSbXdep5G5\/heU4Te3eM5PbPtt5YuMHS4pWRkCs5qcwak4\/c\/R\/fhbFTg8xZ8zLKrJ4Q3Vwm8QHLKIiST0xrVpiti0Mube5krO4uIqliDaJ0nAEiMcPpqLlcbfBqOkuxJx79k05arub1tgwLKFuMSIGZMya+Udc4yaktT6b3ISinF6Gb1y6LYRgVMk\/CBhhFdRiu5xnXKZlY1JChgQAZE4nOoppJksZNx1LHtozMoVVKSQwGPhqrHkzTxnQsPjwxlopUKpLFS2qQTJGedWa+RMhs48ehhmthCiJpkgkyTlPb7am95yWpCqVFmSgD20H4gsn\/Wxrl6nSeERvKiljbB8Jg6sfsFS0yT0ZHamlkwpViGkCcx30nXhiFmmBKnV4fGMVn65qSHUjmng1nsJcbWRiBkOtbHG5064bF9xl8jhxsnuf3l1lroGgMUToBIg9wFVrZ7nlvLJoQUVhLQybjaYLs5OBVpgfXUDJ0tSVq1duWGFtC5DCYE9DXDR05JPUyLbWrii64t4qxQhhl3RUsURSlnODWG23uksltzaxOsAlcMzPurZ9yEurRlbXF\/Egq2wApVS4x1hp\/o+il9jUWKYZmjY26vpcA6FMAuZjtjAGsW2xRWprQr3PQjdjEK0soJJAOJz6irHH+aUWQ36Rkj5+4u7nywlsg6pJyGmfqxr7Dg18Z62\/d1x958ry53rSrp66FlhQGtuEl4GoZySMTjWbzOS5Occra219xocTjqKjJ53LDN78wyr5TaIIBMQWjGDXz8\/GT9r3FH5c4z8Tbh5CDt2OXzYzj4EL1hW3VsgysLq0jEnPDKrHH5Krp9uS+bX8SC6iU7PcXT\/Yg7IbLqJkspE9QJrvjpReWeX5ljBEuxGggFGEQQJgiM6swtcZbk+hWlTFrDIHa7ZQVZYZMC4JxIPQVaXkrpPCx+wrPgVxWdWbFvzmV4bVaIgajnBBwBNZPJsSWG9TT49eWmkTFpxdBVocDU3dAmO\/Kqq5O3sWZcfctSJsWvBbtCTczLQSMfZVvj86W9S9H0Kt\/DWxr4dTVdQqqQRDfFgZ7Zg4fXW3C+E30MiVM4I2LTl2Ia4JEFZEAduA1d1ZXNrqhFe3HbqaXDnbN\/O9ywWHQI\/FGXTwjD7azW29TQSxoYYFXI0iSAcy09Zr2cdBCRaviQHDTiPHAAPdjVP25J6Fp2Rxqdm\/p44nZb716m8uby3Yu7JS232j2wz3yyNItsx8JQLqwEx2VanKSht7Hyv6hninSOc9\/Q9V1VPhBQCgFAKAUAoBQCgFAKAUAoBQCgFAKAUAoBQCgFAKAUAoBQCgFAKAUAoBQCgFAKAUAoBQHBPmz8sNn654ZFR123MbKW2O6KzII8Vp4x0t9RqSue1mp4vyT40\/WD6r\/qePt7sN5sN9e2O9svt93t3Nu\/ZuCGRgYIIq4nk\/QYWRlFSi8pmjcQrdZMyGI+g1tQ+lfYZknlkrlsoqkggmdXtmvI2KXRhxa6lm3dyNMDQube2qHOorfzP6i7w7rE9q6G5bZWHlgxjKg9pHb7qwLqG9UbdVyXUud7tp9KuwCxAk+2qJbSTRG3eKXfMZQ8zqUzBn2Uwg08YyLt1LltoUW4AgKTBx7CasU+hBZF9c5KlA8pm6hlHuIP7KmlFHCk8kpVWS4ZAPiCjGADGZ9lc7Ru7E3Ol2j456j7MxUSWGSZyvgUuy5k45lRGeVW4VtrLK0ppPCIG4xBIUah1zwqxXXHJBObx1IamWQWIfMds95q4odyq5IkCz+J2OofiOJNV7ljX1J6ddEZZrYgwcZAg4z31xCO46m2tDDaGQtionBc8aljHDI5SyQdigUYMskgjrU0IKXUinJroTJBYBMYMKM5qtNa5LEemoa1dS+bqaQpxKgq0TmIFW\/fhOG2T1KftSjLKWhYt0M5GosWjuwHbMZCqL4jlpkvLlKCzgrv8AlAnQdSsRqC5HAffWhxKJLEWtTP5V8XmSehp2Wsuj6iPMBkDuPZ761+dVZBJxeEZvDthJtNZZstftPpDSpCwSADJ+kVkf40m92TUV6isYIrtLL7pLpdsFPUAEAEgd01c\/9tOnjulRjJavX4lT\/wBZG69WuUovRaF+tEeETSVhlMk1hue6G\/vk2VW4ycG9MESiqjoygNAKk5zgc\/ZU1NspSSZFbXFRyiFlFYAk4A5D+nCpeRc60viRU1Kxv4Fl3blbjakZ7cnE4T3yKLlOK7Hi46l3JptyLWtQEUk+EsJw6iTNUuTf7jTZc41ezKJjyiAUIVgIaZxJzyBqtJyRYST6mL95QUdhouRI0qNJ7OtWaKJTWcla21Re3GSl9wVRAiAKozJLAgjEEExWnCv5t3czpS0cX0MEjzG8tVZhAgCZnE1JOEpLDTOITjHVPAc3bZIB7kmMQc499dezhdDlXbnnJNUt3D4GCsOoYe3IkVnS9xNtx0L6deElLUkEQsJA1ZZyCSDjPdFROfVIlUXhN9Gdifp85Hjtr8zdpb3anzNzau2towJCpfZMDA7U1L767lVPZufQwf1DiXHaj2az9h62qofACgFAKAUAoBQCgFAKAUAoBQCgFAKAUAoBQCgFAKAUAoBQCgFAKAUAoBQCgFAKAUAoBQCgFAdd\/NX5RcJ6u4\/cb3b2k2nqG2uuzvVGnzSimLd6AZU9sSKmqnhpPoa3jvK2cd4+qHp\/sePhetlmE6Xk6g2DTMY1u8jhX\/8AlH4f7H2PG5dH2P4\/7k+hBEg5is6LlGWnUvyUZR+BlSmnShkCuOUp7syO+M4YxEzVYslrPcLaLs6+k\/FlgPZR157HKml0Zhb11BpDRHSB99R7F6EmX6lnk7lwHKMQ2IMZ1C0kyRS0At7lJAtEzmCs1JDa+pHY32F43CEFy35ZUQMIBxJ++vLEl0Oqs65LLnklxcZ2UP4oCgxjHaOyoNpIpaYwa7qovHTJWZHSQauxm2VnBIrOokaW9gE4Z1bSKrfqQBUsQuBPwnvq3BY6lafTQnt08LFo1EgjU0ZYdar8zEmkuxNxm4pvsyxwjFRpCt0QEmZymoYRwSylnUrMqccSRA7I7qkbOUjLG3LqokH4c+lex0PGs9TADeYo1ALcXU3YIJHST0qSaj7TeCKMpO1IsZbSiWurHWA0\/WKoV1uUsIvWWbY5aKkgMo63AdPvlRWpCvDM2yzKZWFsquLK+rBo1DSD7Qv1VoxTTyuqKE5btH0ZDyEDr5aBS2AOqQfeTFe3cmc1iQpohB5iXWrd+1Pmosa4RnXs6juqtypQSWx\/aT8dSk3vT+BaLToWZgkHorKYPsBNY\/Iui4YTNXj1NTLXdV0OxQuQQxMNhmJCzUFUJOOF0JbJRUs9zF97YLT4iVxgQMV8MV1VU4zTz3PJ2qVbWDf2npveP6SvepAy\/lLO+XYOhnVre0bgYdCPCQal58uiKfC5EVc6\/wAzjn8TW43jt3v95Z2W0tl7+7fRaGQLgTE5DA41Wbc4fYXZ2RpblJ\/Lg+jx3pX1Fye8t7LZ7J7zeYbS3QIs6pxm6f4YHfNVsM7s5lNcXKUsfv8A2dSrm\/T\/ACXCbxrG9RLdzFiFYPoMwAWSRPsqdLJDTyY2xzE+Xdsm3K3LbNcXOQwgdsGDnVuiWGc2\/Msmtura3xpg2yAJC4DDEyK3fG+QdL2vWLMXn8BWLcvqKE2pGrSQ5ACqFDHP2jsmtGfPhP1KMeHKBaLAZgobKAsCZrGs53V4Navh9Fk2fJxmFEAsGEdBMYVlrkSb69TSdEUunQmlwEoTiQAIH1Cq8q3uyTqa2bSzYbq\/xvJbbkdmfK3WyupftGSfHbYEfXU0eVOaafQrX8Ktx2vue3\/SPqGx6i9NcdzVkBV3thLrICG0OR40JHVWkVVaPy\/l8d02yg\/ys+vXhXFAKAUAoBQCgFAKAUAoBQCgFAKAUAoBQCgFAKAUAoBQCgFAKAUAoBQCgFAKAUAoBQCgFAKA8N\/OHYbLYfMz1Btdlt\/y23Tc6ltDKXRXYr2AsxIr7vx03KiLby8H0PFk3WsnFLFxgWWcCsezEHCveYltzjU0eLndjsWqxUyM6y5wUlhmlGTi8o3LVy3p83MqR4PbNZFnGcJfA0ocjesdypdII1fCM4r1LOh63hE3u2cSpYnsKgD7TXD4j9T1cpehdZ8u4GIYIqwPFOM\/6oPZWfyOLKGrxqXqeVGWiTLQloqqi4usk9G6xHSqrgyx7hFdIYqyayDlj91FlHrwyxQjMA1qAOsth1ruEm2kRzjhN5NHdOfLLWxpYnED90Vv+LohKb3dMfiYvkrpRilF6lNm+HbEFQIOrOKu38CMI5T1KlPNlOWMaGwoBJCYMcQ0\/f0rMnNrRmhGCaytTOguMcX7AczUMZpy0JpRajqTWQyM48SR3GBlUNt0oSaJa6YzhlESEDDzCWU4gLmAT31NGzcsohlBp4LP4JugeVMEDxHHDDGMPqrn3ZZPfaWM5KWe2AJOOmBAnHU2GYirrr3xSyVYz2SbwRJsPMloEQuAJ+3KldPt69RZa54XQnrtaAvlKxZIBlpUycsak91pkXs57muUREKnUS3UfDhl0q\/VepalO2lxM2LgJAA\/iJJMCREQcZpzKU4N50Y4trU18D6\/BcX\/AJ3zOw4ddxb2x3t8WzfvHSlsfjZmMDAfSax6eFZUnKWkcfeXed5OtQyk5SXodh\/MT5ScD6a3O0t8V6jtbi\/vFI2\/HXle5ubrhgCLf5ZLgg6hGoD21DxvH3XJuCzFdW8JfiZfF\/VCel0HH4r+Jy30L+m7ir+2e\/6p3fn7q1eKNs9jeBtqoA8F1wJ1TmFiKiVrj0KXkf1DJyxUsLHVr9xz+58iflg99L3+UBWQWwFW7cCnyyCJXVB1RDdtce4zIXnOUljd+CPqbz5Z+lbvp\/dcBstpb4\/jN65u7qzZRGDOQBrXzA2hhGBXKvJycupDT5K2Fisb3Sj0\/wBInwvyy9D8Rs9vtdrxNh\/y4Om9eUXLrFviLucW1dfoyrlaLCHI8pyLZOUpPX9hyWzYs2La2rFtbVpcFtoAqj2AYUKDk28sp5Hi+O5LbNtuQ21rdbdwQ1u8gcY+2h3XbKDzFtM6W+dPyf45eIuc9wK\/lt1t0jc2TqbzVUTqNxmLa\/CFEzOAqWuWp9N4fzEnL27NU+nw+46i9I\/KT116n3do7Tj32uyZgLu\/3am3aUdWhvE\/sUVe92MVr1Nfm+Upqyt2fgj096A+WPDekODPGAryLO5u3Nxfs2g2plCsBCzpwwDExVK25zeeh8ZzOfK6e76fvZw35rfInjOW2\/8Am\/paxZ47ldvrubjboClrcLGqAqghbmGECD1r2FvZ9DT8X5qVcttrcovv6fwPMzFrbXLbjyiDBVwQwI\/CcMDXUK89D7x2aZepp3bF0XGa28oWweYxOU5RlX0tXJrcEpenofPWUTUm0XajrD6w7rnOX9NZ6rX0paF9zeMvqd1\/ps+YR4\/lrvpTkryps+SbzuM1YAbiIKL3XVX\/ALw76h53ESjuiunU+Z8zS7F7vWS6\/Yel6xz5oUAoBQCgFAKAUAoBQCgFAKAUAoBQCgFAKAUAoBQCgFAKAUAoBQCgFAKAUAoBQCgFAKAUAoDo39Qnyd5L1FdHqrg9Nze7Xb6N9sjCtct2gWD2z1cDDSc+lbviPIxr\/wCOfRvRmjwuSo\/KzzHY0hLgODgrgc+s1vc1\/Kj6HifVn4E6zjRO+fln+nTbcxwnHc9z29u2l3em+ONtKAGsEggPcnUNa9mVZXK5urikYPL8zKubjBdO\/wAT7\/K\/pX4S6b7cZzW422ok2Ld62t5UBiFJBRjGNUochpnsP1LPGJRTOoPmb8q+Y9Bbvapur673ZbxZs722pRfMX4rbKSxBGY7fprQpvUzX4HkI8hPCw12OI7S3cfWVUkCJiqvPTaWDc4c1FvLNpbFwIWggyAB3Z1mSrl6Mvq6GeqF7w3pnSSATBiCRjXLjJdUdxlGS0Zm7uIS3quGIIIJzxJy613XxrLH8q6HE7q6\/q7mtdtK4DL4YyPQitCjkSrbjJFK6iNiUospFh5KBdIGM9DNadnJi0pN5M+FDTwkbCrpAGmEGZPX2mseyxzeWalcFBYF3S9t4AgicogivePJwsXozy+KlW\/VGsz3FMqfDnC5CelbLqhLOUtTKVkljV6H1PT\/B8xz+6Gz4\/bXd1uCYRbSggEgnxElQohcyapcqEa4raiSPLUW5WSwviaG5N4IltWOsPoCLmT0yzqfxlkZZWNfU88jW44lnQ5pw\/wAqvVfP8Rs7nDcNuLu7Bunkbt829vbVtQFq2gusmSDUT1nuqvy57LMReEUq\/KUwz70l8Orf4F3L\/JD5l8Rt\/wAzd4dr9sg6\/wAo6bhlHWVtlm98VW\/yJPuT0+W4djwpJfbp+84LuU3G3drF5GtOMGtuCpEdxxqzVLKyy9PbnK6HN9v8pOc3fFbLd8fv9nveQ3G1fenirV5TuEsKJtwk+ZcdyCNKpAIxNdK5J69DIn5KEZNNNJPGcaZ\/2ODHxnM2nQSYXTjP7KvwvVa1J50ub0MABFIA8B6DpjNQT5ErdGTw48a3lH0eOucnxe72nIbJrmw3DMtyxvUJtxjAYOPwg51BbNtbW\/lXY99qqW7KTz1PW\/yf9NtxHpu7u7m+bf7jmLx326vi5avWXvXPjuWXtgeF+s9azbHqfD+W5HuWYS2qCwuqePjk53UZligFAKAUAIBzoBQCgFAdb\/Mf5H+nvWW8TkUvNxfJZbncWUDC8AIXzFJA1D97Opa7XE1+B5iyiO36o9vgeWPU\/pzkfTvNbrhOTQ2N3trkSwGlkPwXARPhZcRWrU8rKPsKuTG6KnHoz5WgKmokjEhYGBjPr310pZ6EzWDCC5bvW723u+XeRg6MhIZWGIYEZR7auQswsSKdlSl06Hrj5M\/M9PUvDbXjeVvhuftWiTchovpbJUtqIA8wR4199YXLpUZNx+k+S8jwHVJyX0\/uOzaqGWKAUAoBQCgFAKAUAoBQCgFAKAUAoBQCgFAKAUAoBQCgFAKAUAoBQCgFAKAUAoBQCgFAKAUB138wPkf6P9W22v27C8Xyw1Mu92qqnmMRgLyxDicZz76uU86yGjeYl\/h+QnS\/VHTnpP8ATb6tv+qPyvqJV2fD7YeZc3th0ui9B8KWge3rqXAVet58duY9Tav8xWq8w1k+x6ks2bVmylm0gt2rahLaKIVVUQAAOgFYreT5dvLyToeGjzfB8VzfHXuO5PbJudrfVkdHAMahEqT8LDoRXUZOLyiSq2VclKLwzx381Pl7e9CeoP8ALzca9x25U3uP3dwBWdMAyNBjVbOB+nrWlVvuWYpvB9543yVdte6TUZd0cOe24IkRIke+rVXFta0jL9hbs5dOfqj+0yltwrMR4ViT2TVflUzjjKZPxr65ZxJGLqM6qwM5gCeyP217xHtznTI5PzYwW2RpGi6GLZAA4juyNQcuSnLTsS8aLjHPqSYQwLfBOAB6d1VtuCypZJgswGqTb6asgMqrYaZNlNFJMMECn+sOprQrWNSlN5ILb8tiZk4RGWPbViy\/KwiGujXLO1\/kZxfq7\/Ndxf4\/Z+ZxXJbW5tL63VYWLgMprYgpK2zOrxdwxqGycZQSfYwvNSqj1fzRefijv70v8rfR3p69+b22wt3uSMFt7dRSwIj\/AIaxptgRgFAqm7H0WiPmOV5K6\/SUnt9DltRlAUBqbrh+I3dzzN3sdvuLn7920jth3sDXqbRJG2cdE2iu5wHB3OR2\/JvsLDchtFKbbdm2vmW1YQQrRIEV7ueMHqumouOXtfY6\/wDmt8pLvqy5tL3G2dha\/Ko0o6tYuO5ym7aVpSPwkZ9a7hZjqavi\/KKjKlu1+\/8ABnAvS\/6Zt3e5bkB6hvXNrxdsEcc1h7Ru3S04uB5gUL2dakd+Ohq8r9RJQXtrMu+cnNvlt8nTw\/Ac\/wAF6jVN5x3Ibhl2qayzHbpIS5h\/wnbBvCa8tu3NNGXzvKb7ITr0lFa\/b\/1Ph898qvWfpfl9o3y55bdJttwzO\/F3rx8m2tpvMjUfD5ZmIPiJNeKaf1FujyVN8H\/kRWV3xr\/8ndmz\/Nfk7H5zR+b8tPzHlklPM0jXpJAMassKgZ83PGXjoXUORQCgFAKAUAoBQCgPKf6mBtrfzGR7QRbrbGy9+RJZ5dROf4AK2eAv+PX1PrfCuXs\/ezqldDrqdggmdOOM5kR7KlcNr0N5TbRS6hCdLEGfCBlHtBq8pplPY+jOzfkT6g43a+uOL2fKMzbW41z8iWaFs7u95Y1YR\/xPIRazedBtNoo+Spk6G49e\/wAV\/pnrusU+OFAKAUAoBQCgFAKAUAoBQCgOrf1Bev8AnvQnp3hOc4Xy3v8A+ajb3tvfDGzdt3NluTpuBGRiAyq4hswK0\/D+O\/zeTGndt3Z1xnos9NDiye1ZOl\/+r35j\/wDK+H\/st1\/MV9i\/0A1\/e\/k\/qIFyc9iX\/V38x\/8AlfD\/ANluv5iuH+g2v738n9RIrvgZ\/wCrr5j\/APK+H\/st1\/MVG\/0O1\/e\/k\/qO1Iz\/ANXHzI\/5Zw\/9luv5io3+imv7v8n9R2kZH6tvmR\/yzh\/7LdfzFRv9HNf3f5f6iRV5JD9WnzI\/5bw\/9juv5io3+kmv7n8v9R2qM9zI\/Vn8yP8AlvD\/ANjuv5io3+lWv7n8v9RIuLnuZ\/6sfmR\/y7h\/7HdfzFRv9Mtf3P5f4na4XxMj9V\/zI\/5dw\/8AY7r+ZqN\/pxr8\/wDL\/E7Xj2\/zfgSH6rvmR\/y7h\/7HdfzNcPwDX5\/w\/iSLxjf5vwM\/9VnzI\/5fw39juv5mo34Nr8\/4fxO14l\/934fxMj9VXzI\/5fw39juv5mo34dr834fxO14Vv834fxKOP\/U78y9rYa09ji90WvXrwu3rO5LAXrzXRbEbgeC0H0J\/VAzqN+La\/N+H8SReCb\/P+H8TZH6p\/mR\/cOG\/sN1\/M1G\/HNfm\/A7X6fb\/AD\/h\/EkP1S\/Mj+4cN\/Ybr+ZqN8LHc7X6cb\/P\/L\/EyP1R\/Mj+48N\/Ybr+ZqN8XHckX6Zb\/ufy\/wATI\/VD8yP7jw39huv5mo3Tjudr9LN\/3P5f4kh+qD5kf3Hhv7DdfzNcOGCRfpNv+5\/L\/UZH6nvmR\/cuG\/sN1\/M1G3g7X6Qb\/u\/y\/wBRkfqc+ZH9y4b\/AA+6\/majduOx2v0a3\/d\/l\/qM\/wDU18yP7nw3+H3X8zUb5GOxIv0U\/wD+3+T+okP1M\/Mj+58N\/h91\/NVG+Zjsdr9DN\/3v5P6jI\/Uv8yP7nw3+H3X81Ub5+Py\/j\/AkX6Db\/vfyf1GR+pX5kf3Thv8AD7r+aqN+Tx+X8f4Ha\/QDf97+T+o5V8p\/m16x9ZfMOzx\/L\/lbGyscZvb\/AJGyt3ba3LgvbVVa55t29OgM2mIzNWeLy\/ezpjB8\/wDqD9Ovxyg9+\/fn8uMYx8X6nedXD5sUAoBQCgOpP1I+iW570T\/mu0tB+Q4NjuC2THbEEXlH+63urW8Ryfbt2vpL95e4F22eH0Z5F3KkrZgfhP8A4jX3nEsUYvPqaHJg5S0LuP2ty4jlCsgiQSFzyzrK83zK4OO54zk0vEcWclLas9D6KbG+NuJ0fG3417B318xyefVJrEj6Hj8SyOcxMMpRDqIDAxIxw9oqCDVkvlJ5JwXzGNaCJGrDph9FHVrqFZpoXWw9y6tkFR5jBF1EKoJMDE5VA4N9CX3FFZZ9Pc+kvVFqylxuM3MG41nULTHxqNWkEDHAE13V8q1Kk+bTJ6SXQ5\/6I\/Tz6q5q5Y3HMleL4lod3mdw6nHSiRGI\/E2Htyryyxdupj8v9QVVJqHzS\/A9McBwPGcDxG24rjbXlbPaILdpSZaASZZjmSSSarN5Pi775Wzc5PVn0K8IRQCgFAKAUAoBQCgFAKAUAoBQCgFAKAUAoDy382fSXJ+oPmt6jG3uGzf2O02+8DXwFs\/lEtql24bjEQEYiAAZx7K2+NYo1R+Lx959PwOQq6I56N4+86dXzHtFjiqnPvb\/AEVYtwjfq6kvJeVRwQGynD7ajjakSTrySsfw50kLettqW7q0kERBUgxIIruz5noRpJL5uh7D+S3zAPrH0ilzdXFfmOOYbbkQM2IH8O7H\/uL9YNY3K47rlr0Z8T5LjKq35fofQ5\/VYzxQCgFAKAUAoBQCgFAKAUB1Z+oT0Dz\/AK69O8JwfCC2Nz\/mov3b+4LrYtW7ey3Utca2lxgCzKg8PxEVp+H8j\/hcmN23dtzpnHVNdcM4shuWDpUfpD+Zv\/MeF\/t93\/K19o\/1+n\/Z\/n\/oIFxsdyX\/AEi\/M3\/mPC\/4jd\/ytRv9eZ\/s\/wA\/9JIqviZH6R\/mb\/zDhf8AEbv+VqN\/rjP9n+f+k7UTP\/ST8zf+YcL\/AIjd\/wArUb\/Wuf7X8\/8ASSJkh+kr5m\/8w4X\/ABG7\/lajf6xz\/a\/m\/pO1ZgyP0mfMz+\/8L\/iN3\/K1G\/1bn+3\/ADf0kivx2Mj9J3zM\/v8Awv8AiN3\/ACtRv9VZ\/t\/zf0na5XwJf9KHzM\/v3C\/4jd\/ylRv9TZ\/t\/wA39JIub8DI\/Sj8zP79wv8Aid3\/AClRv9R5\/J\/N\/A7XkMfl\/EyP0p\/Mz+\/cL\/id3\/KVG\/P5\/J\/N\/AkXk8fl\/H+BkfpV+Zn994X\/ABO7\/lKjfnM\/k\/H+B2vLf\/X8f4Eh+lf5mf33hf8AE7v+UqN+Yz+X8f4Ei81j8n4\/wNfj\/wBMnzO3dhrrXeK2xW9es+Xf3G6VyLN57QuADat4LgTWh6qQcMqjflM\/l\/H+B2vO4\/J+P8DaH6WvmZ\/fOF\/xO7\/lKjfkc\/l\/E7X6gx+T+b+BIfpc+Zn984X\/ABO7\/lKjfNz2JF+o8fk\/m\/gZH6XfmZ\/e+F\/xW7\/lKjfKz2O1+psf2\/5v4GR+l\/5mf3vhf8Vu\/wCUqN3Z7Ei\/VOP7f839Jkfph+Zn974X\/Fbv+UqNzydr9WY\/t\/zf0kh+mP5mf3rhf8Vu\/wCUqNrJIv1fj+1\/N\/SZH6ZPmZ\/euF\/xW7\/lKjdeTtfrLH9r+b+kyP0zfMz+88L\/AIrdfydRvj57ki\/Wv\/8Al\/P\/AEkh+mj5mf3nhf8AFbr+TqN8PPc7X65x\/Z\/n\/pMj9NXzM\/vPC\/4rdfydRvgZ\/N+H8SRfrzH9n+f+kyP01\/Mz+8cL\/i91\/J1G\/GZ\/N+H8Ttfr\/H9n+f8AoOV\/Kb5T+s\/R3zEsb\/mF2l7ZX+L3tgX9jcvXlS4b21ZVum7ZsaS4VtMTMGrPE4ns51zk+f8A1D+ov\/YqC2bNmfzZznHwXod6VcPmRQCgFAKAp3uz2+92d\/Z7lBc2+5ttavIcijjSw+g11GTi8rsep4eUeKvmz8r+S9C84m1dzuOK3AZ+O3mkgFdR\/hv08xev019t4\/ySth0+ZdTf481cs9GcU2X5a1aJ8zxsfEGwiMoxPbWV5+u29w2Rbxnp9x9P4OyFO\/fJLOP+psne7YIENxRBJz7QP2V89\/6nlS1Vc39xuryXGi9bIr7zKp5yF0hrbT4gcKs08S+qSzCSa+BWv5dFieJxf3lNpXJ0g6jMIO05YTV62SZTgmupzv0Z8uN9y\/JvsN3tLm8N\/bXG2\/5W9bPl3TCq9xwWVFR5V9XXCC2FU3droU+bzY11qSeNe6\/19x6k9D+kv\/rvpnZcPub35x9pLKzFnVC2OlC8mAcvqAyFWcsvJ8PzOV7tjmljJyOuCoKAUAoBQCgFAKAUAoBQCgFAKAUAoBQCgFAKAUBwL50+nOX5n0NyFviLgtblbevcotrzLu4sWpc7dCviEtiO3LrVjjTSmsmh4y6Ndqcun7n6njlCqhxrIgYIcDM5EVrX1bkfd027XnBknUiaUKwfjJzJ9w7KgVW0mdm56mQNT6lIDoPF0kzH041Zrzn1ZWt2416HKvlR6\/u+ifVFveghthuGWxyVotBNlmjUMYlD4qm5PFtujjBkc+mqytrPzdj2rbuW7ttbltg1twGRhiCCJBFfNNYPjiVeAUAoBQCgFAKAUAoBQCgPm+oOf2XBceN9vEvXLJuW7IG3tNdbVdbSpbSIRZzZyF75IoD52\/8AXXF7Lnf8pubfcuEvbbbbnfotv8tZv73\/APXtXCbguanw+FCBqEkTQHz7HzT4W\/Y81NhvpvrYucZbKWAd7b3W4G1tPtyb2lQbrL\/xihAIOVAfc9O+qON9QWBuOPW6bPk2LzXHUKFbcJ5gsmCf4iIVZhlDCCaA+vQCgFAKAUAoBQCgFAKAUAoBQCgFAKAUAoD5m99QbHac3x\/D3UvHd8l5hsOtpjZAtI1xtd0wgMLgoJbujGgOPr81OANm9eba7y3aFo39gzJa\/wDm2\/zK7QHbAXScb9xFHm6PiByxoCbfM\/hUubezd2W9tbi5ffb7uwy2dW0a3uLO2LX4ulWXzN1ajyS8hpyoDkvFclY5PY299t1Ybe8WNhnAGtAxVbiwT4LgGpf6pGVAbdAKAUAoBQCgOJ\/Mz5e8d669NvxO6uGxuLTefsN0JPlXgpUFlBGpSGII++rXE5TpnuX3ljjch1Syjxb6o9O73056g33B71kfc7C6bT3Lc6GjEMsgGCDONfYU2qyCkujPparFOKku58W98XurW4f0feU+V9X3G7tght2dRjwNB7DqaKyvJSxJ\/wCuxoePWYo5L6L2+w3PqHbbbk9l\/me0vzbuWLV7ybo1CFdHX8SmIBwOVYF1emVoaHIulGDcZbX9mT2P6M9K7D07w9nbbfbpYvMiC9o6BR4U1HEhJ95lsyaxZPLPieXyp3TzJ5Pv1yVBQCgFAKAUAoBQCgFAKAUAoBQCgFAKAUAoBQCgFAKA8+\/Nr5M8XxVnm\/VHHu3lblTct7FLZJtbm5cBZlI8JRl1AKwEE4Ga0aOU3iLPo\/HeRlNxrfbv8Dz\/AG0Lq6KSwWGUTHWMse2rrmfUbcFVwr5LoRp8OJEySMRnVjhzxYiDlwzWzTFtyQoUychW+YraPeHy23f5v5f+ndyc7nH7Ynrj5YBFfB8yO26S\/wDsz5q9fO\/tOR1WIhQCgFAKAUAoBQCgFAKA+N6u4Tf83wtzjdnvLWye7cttcvXrDbgabbi5pCLd28Esox1ZTh1AHxt76A3e85n89e5K2NtudxsN9ym0TbEG7uuOA8trVw3m8q25RNSMrmB8WdAR9PfLTbcfps8rfscxx+22I4rY7O7tVCLtBeF6L+t7y3nlEGrSo8PwzQGvx\/yrsbLn+M5e3vbYfZBWvqu2CM1wG+T5Di5G3tP+ZCtb0t4LdtZGmgOeUAoBQCgFAKAUBxr12\/qL8htE4DkLOx3vntcvpdvWbD39vbsXC9u09\/b71AwfQxJtfCDiKA4ZsPXfP7y9s+Q2+\/vjZrf4LbLxu4tbbXubfLIhvXrzLaRvMXzDp8rQngOBGQG\/y3JeqrvDNzvFcoNta3N7ecgdo24sWrr8dtrYt2TtTudtvrYDKi3m8CiXxYTQFPGesuf3XN2Nyu\/ufkn5fbcSvD3rW3Vn297jU3f5m4wRLoul31eEhIEaaA7PoBQCgFAKAUAoDjvN8Vvd\/wCpuH3G05Ta7Z+KL7h9hdsNevXEvK1l2DLfs6F0sQp0GG7cqA4zt\/lba3Oz8q3zdu\/t9hbfZcK9mwD+WNnkE3RF8i8wvvbv7RLbAaMFIPik0B9j\/wDzra3+I3W35G7t91yu93lze3OT\/KqDZe+UW7+VVnuPZbybYRHFwsphsYoC30j6CtenOX5PfWdyj2d+T5di3Z8kqpv3bw859b+c1sXvLtnSum2oWKA5XQCgFAKAUAoBQHjz9RfAvxfzJ3l9Nodvs+SS3urN7NbrssXmB6HzJlf2ivrPFWbqUs6o+i8fZuqWuqOsb8C69qdNsHLOvoKdEsHtmvUxt7sQmgECZOM\/bUHOpi4uT6k\/DtkpbV0O9P078NtOX5qzv91xlm0nG3Au33qLcD3dwLeqGYs1vwokkBR8U18r5B7FhPqReUulGOE+vb4Hp6sQ+aFAKAUAoBQCgFAKAUAoBQCgFAKAUAoBQCgFAKAUAoBQEblq3dXRcRXWQdLAESMRgaHqeDyx+oP0CeC9ULynGbPy+J5ZdR8pRoXdLPmIFX4ZUa\/p7Ku1W5WH2PtvA8xWV7ZP54\/uOpgzMYAVmYaBI7oFW6LXGcX6M2b6lKDXwNC5ZIaGuBoMGJkR7Yr6z\/Kj2R8yuOz2\/wDJy3et\/K\/00t4AN+StlQAR4Wkrn\/VIr4fyElK+T+J87yliyS+JzKqZXFAKAUAoBQCgFAKAUAoDg3zI2Gz3PL+lbvJcZc5Th9tvNy\/IWU2d3kEVW2V1LZuWLVu8xHmsseHA0BxM7n5kcPsNlt+HsbnYcVcfd3uPtX7N\/cvatncztdtuksbPk7yotn8E2yAY8wERQH177fMy5av7i3ynIWWe3zl61tl2W1IRtjuvL460urbs5F+0dXiJZx8JGdAQ3HP\/ADKO93R2treNvo3Rt8Zc2IXYLZXYG5tbqbo2wWvPutCFDeObDQsTQH0+P3nqTcbjYDa8lzO52S7Xe7nkLm946zs9w+4sNszY2yi7tNuiC4HugHSdXihpUMoHHOM5b5gb69tL3I7jm9nx225Cyz3bWzL7nyL+y3Idblv\/AC3a+YqbhbSmNuyrq1ajCsoHcNAKAUAoBQGnynC8Ny9hdvyuw2\/IbdW1rZ3VpLyBhhIW4GE0BTufTfp\/c7i3ur\/G7Z93ZtmxY3flIL9q2QV02roAuWxDH4SKAbr0z6c3m02uz3vF7Xd7XYhV2dnc2bd5bQVQq6BcDaYAigLTwfCHlF5Y8ftjyqL5a8h5Nv8AMBI06RdjXEGImgN2gFAKAUBwP5n+nuS5zd+n9vstntt2bd7du45DbNu9mp\/J3Rb89AU0hngKxODQYORA47xXJ+v9juuE43aW95s+I2ljZbYpvdtfuG5oJt7zzntbLcgMun+Gx3NlPhbxIaAn6a9V+udzxPH8r+Y5Hkdi9jidzyd25xotuHv3P\/mJtEt7e09+0LRDFrav2q2MUBRu+S9cXdyOXsLym25a9td3a462vGlkvMnKX\/yljd6rDrYt\/l9BZiUbT4tXaBvlfVXG29zd2Oz3G3Lbrf8Anbyzslvbq3t7\/P33d7Ia27XD+XfzESGBB1BWoC+\/6g9YJ6m4bbcY3L7vi2ubZd5uN9svKS9Zu3GW7cdE4215TWxnqv2ogHQwxIH2vQV71ify\/wDn+53O6\/NcTsd5d\/M7a1tzY3t3zPzFhfKt2fhAWUeWB9sUBzKgFAKAUAoBQCgOtfn\/AOid36p9CuOO2x3XLcbdXc7Oygl3B8F1FjtQzHdWp4i+Ndy3vEJdSzxeQ65Z9Txxu+P5Hab5tryFi7tdypm5avIyOB7GAPSv0GVlar3Rw0aFTc5JJllkDxgL8QAgZ5g4DrWNKUp6NmvtUNUjub9N\/MG1yPJ7Pz2Fjbizv0tNGLK\/k3dCScWtXcT2DGsjyvH2pP10M7yMt6Tx8D1PXzRgCgFAKAUAoBQCgFAKAUAoBQCgFAKAUAoBQCgFAKAUAoBQEblm1dAFxFcDLUAY6daHqbXQ6D\/Ud8td3uhx\/O+n9irFNVjfbXa21W4xPit3IWGc5rGJrV8dfFZjI3fFc3GYTf2ZZ50TaXru9G1sW2uXmfQloghiZiCOlfQbljLNeTSR719LblNz6b4u+m3\/ACqXNraK7YiPLGgeGO6vjrVib76nx1yxNrrqfUqMjFAKAUAoBQCgFAKAUAoBQCgFAKAUAoBQCgFAKAUAoBQCgFAKAUAoBQCgBAIIIkHAg0BXtttt9rt7W221pLG2sItuzZtqEREQaVVVWAqqBAAoCygFAKAUAoBQCgFAKAUAoBQHH\/VPoH0h6qSOd4yzu7oTy7e5I03kWdUJdWHXHvqxTyrK1iLaXp2JarpVvMWdM7v9J5Xf3LvH+oAm0ljYtX7Gq4oOSs6sAfbp91ai8xmOHHU1YeX9YnG\/TPyx+Yfov5nbbbbfjjyVprV1TvLXhsPtrtvRdIuXNCq6h\/hY591dW8mu2rLeC5dy6bqW87f9z1PYTRYtpj4VAxzwEVhM+afUnXh4KAUAoBQCgFAKAUAoBQCgFAKAUAoBQCgFAKAUAoBQCgFAfK9Sel+G9Sceuw5ay13bpdS\/bKXHtOly2ZVkuWyrqfYakrslB5RJVdKt5iaO2+XvpLZbVtvx3G2NmbqCzfv27YN65anxo10+M6\/xEma7fIm3q8kj5M28t5OQ27du1bW3bUJbQBURRAAGAAFQFdvJKgFAKAUAoBQCgFAKAUAoBQCgFAKAUAoBQCgFAKAUAoBQCgFAKAUAoBQCgFAKAUAoBQCgFAKAUAoBQCgFAKAUAoBQCgFAKAUAoBQCgFAKAUAoBQCgFAKAUAoBQCgFAKAUAoBQCgFAKAUAoBQCgFAKAUAoBQCgFAKAUB\/\/2Q=="
        }
    }
}
