{
    "type": "qti",
    "data": {
        "identifier": "extendedText",
        "serial": "item_5555fe9cd71f7748157417",
        "qtiClass": "assessmentItem",
        "attributes": {
            "identifier": "extendedText",
            "title": "Writing a Postcard",
            "label": "",
            "xml:lang": "en-US",
            "adaptive": false,
            "timeDependent": false,
            "toolName": "TAO",
            "toolVersion": "3.0.1"
        },
        "body": {
            "serial": "container_containeritembody_5555fe9cd71d3329372324",
            "body": "<div class=\"grid-row\">\n      <div class=\"col-12\">\n        <p>Read this postcard from your English pen-friend, Sam.<\/p>\n      <\/div>\n    <\/div>\n    <div class=\"grid-row\">\n      <div class=\"col-12\">\n        <div>\n          {{object_5555fe9cd92f7381932399}}\n        <\/div>\n      <\/div>\n    <\/div>\n    <div class=\"grid-row\">\n      <div class=\"col-12\">\n        {{interaction_extendedtextinteraction_5555fe9cd896d617921000}}\n      <\/div>\n    <\/div>",
            "elements": {
                "interaction_extendedtextinteraction_5555fe9cd896d617921000": {
                    "serial": "interaction_extendedtextinteraction_5555fe9cd896d617921000",
                    "qtiClass": "extendedTextInteraction",
                    "attributes": {
                        "responseIdentifier": "RESPONSE",
                        "base": 10,
                        "expectedLength": 200,
                        "minStrings": 0,
                        "expectedLines": 15,
                        "format": "plain"
                    },
                    "debug": {
                        "relatedItem": "item_5555fe9cd71f7748157417"
                    },
                    "choices": {},
                    "prompt": {
                        "serial": "container_containerstatic_5555fe9cd90b0515920064",
                        "body": "Write Sam a long letter. Answer the questions. Write 250-350 words.",
                        "elements": {},
                        "debug": {
                            "relatedItem": "item_5555fe9cd71f7748157417"
                        }
                    }
                },
                "object_5555fe9cd92f7381932399": {
                    "serial": "object_5555fe9cd92f7381932399",
                    "qtiClass": "object",
                    "attributes": {
                        "data": "images\/postcard.png",
                        "type": "image\/png"
                    },
                    "debug": {
                        "relatedItem": "item_5555fe9cd71f7748157417"
                    }
                }
            },
            "debug": {
                "relatedItem": "item_5555fe9cd71f7748157417"
            }
        },
        "debug": {
            "relatedItem": "item_5555fe9cd71f7748157417"
        },
        "namespaces": {
            "xml": "http:\/\/www.w3.org\/XML\/1998\/namespace",
            "xsi": "http:\/\/www.w3.org\/2001\/XMLSchema-instance",
            "": "http:\/\/www.imsglobal.org\/xsd\/imsqti_v2p1"
        },
        "stylesheets": {
            "stylesheet_5555fe9cd796c079607746": {
                "serial": "stylesheet_5555fe9cd796c079607746",
                "qtiClass": "stylesheet",
                "attributes": {
                    "href": "style\/custom\/tao-user-styles.css",
                    "type": "text\/css",
                    "media": "all",
                    "title": ""
                },
                "debug": {
                    "relatedItem": "item_5555fe9cd71f7748157417"
                }
            }
        },
        "outcomes": {
            "outcomedeclaration_5555fe9cd81b6754896210": {
                "identifier": "SCORE",
                "serial": "outcomedeclaration_5555fe9cd81b6754896210",
                "qtiClass": "outcomeDeclaration",
                "attributes": {
                    "identifier": "SCORE",
                    "cardinality": "single",
                    "baseType": "float"
                },
                "debug": {
                    "relatedItem": "item_5555fe9cd71f7748157417"
                },
                "defaultValue": null
            }
        },
        "responses": {
            "responsedeclaration_5555fe9cd7ec2208991232": {
                "identifier": "RESPONSE",
                "serial": "responsedeclaration_5555fe9cd7ec2208991232",
                "qtiClass": "responseDeclaration",
                "attributes": {
                    "identifier": "RESPONSE",
                    "cardinality": "single",
                    "baseType": "string"
                },
                "debug": {
                    "relatedItem": "item_5555fe9cd71f7748157417"
                },
                "correctResponses": [],
                "mapping": [],
                "areaMapping": [],
                "howMatch": null,
                "mappingAttributes": {
                    "defaultValue": 0
                },
                "feedbackRules": {}
            }
        },
        "feedbacks": {},
        "responseProcessing": {
            "serial": "response_custom_5555fe9cd99d1721106012",
            "qtiClass": "responseProcessing",
            "attributes": [],
            "debug": {
                "relatedItem": ""
            },
            "processingType": "custom",
            "data": "<responseProcessing\/>",
            "responseRules": []
        }
    },
    "assets": {
        "img": {
            "images\/postcard.png": "data:image\/png;base64,iVBORw0KGgoAAAANSUhEUgAAATcAAACNCAYAAADSBD2VAAAABGdBTUEAANkE3LLaAgAAIABJREFUeJztnX9wG9d94D+QiIhQA9qkIsWVLpUcyT7LrZYTqzkp7lkxKJ\/HTiYCL7Hi2AbTKm5Ax\/VYpNOTCs5Z9oBz0YDtxAbn6gHVuuDFIi8pOb1AHYeszyQbKk3JOmRiMDEZm4xJJ+SlpEXE2MSAjI3e\/bELECB3QYIiJYp+nxn\/ILDY\/b7vvv1i3wPeByCRSCQSiUQikUgkEolEIpFIJBKJRCKRSCQSiUQiWSfY8j1ZVlbWJIT4Tzab7dKVCkgikUiWynvvvfdBh8PxP2ZmZr4x\/7m8xW3Dhg1aZ2fnxo0bN65edBKJRLJMZmZmePzxx386PT19y\/znivK9cOPGjdrBgwc3Op3O1YtOIpFIlslLL71EcXFxmdfrPXDXXXf94POf\/\/xv089tuJqBSSQSyeWyYcOGD9hstju6u7v3CCEyo1FZ3CQSyTWNzWbbCNwA3PTQQw9dny5weYelEolEcg1gu3TpklMI8SGbzfa7n\/\/851NCiN\/IOzeJRHJNY7PZADZu2LChaMOGDZuKioqKn376aZssbhKJZF0ii5tEIlmXyOImkUjWJbK4SSSSdYksbhKJZF0ii5tEIlmXyOImkUjWJbK4SSSSdYksbhKJZF0ii5tEIlmXyOImkUjWJbK4SSSSdYksbhKJZF0ii5tEIlmXyOImkUjWJbK4SSSSdYksbhKJZF0ii5tEIlmXyOImkUjWJbK4SSSSdYksbhKJZF0ii5tEIlmXyOL2fkZLEpuJoV3tOCSSVWAZxU1lsLufmewrIjnB+fMjJFcsLHOmzjdT39x\/bVyM2hTN9U2MrWZSYv1UVzYwsYyEaFPdVNodlG0rw26rZWS1T14Wg60NtA7OXLkDmqGpjA1209RQT21tHY3t54kZT6kj52i4VvrZkklyrraK1hH1agdyxSi8uCXf4M8PH+R\/D88lSX3tWxw6dD+vrnLeLrz2DU59e+za6HSJn\/PMqed4O7V6h1B\/0c+ZSCe\/TBT+2oGztURcQaKjA7SE\/ghH0crHZ06M7wVO8tDLP7tSBzRl6Dk3e\/Yf5pHO14Gfc\/zoIcqqmokBb7z0JCeP9bO+ykCK8WfP8ot3romrZ0UovLilL9ZUVpLs1wFbsC9xF+rMDOoycrzv4e8Q\/+aDFBt\/x6bGGBmZuMqdMMnEyAhjE7Hchx2b2cIW7POTosWYmJgq6C5XU2PMxBa+wrnPhavgeAFUftQZxXX\/3ezbfRsPVt\/HTrPillTRAC2ZdexkMufNRUvOP5EaqpqvdQ5KtoCrePOyIl9R\/L2I7hd45pkXiEfDcPYYkSEV+6YtoGzicuq9pk4xMjLC1HI6OmDZr5aNg00K5LtIk2oS0Mg93dduMSy8uBnJ2WR3ZB5y2AFK5hKnjtHeUEtFuY3yylq6J5LMDLZSW99IY10lJdu2UWKvoHNKA5IMnmuiurIcm62Cxs4Ry0OPnP0UJV9oJQlMdNZTtmMPe\/fuosRWzUjec6Ax0tlEVbkNm62CdsuxokpzpY3K2loqy21UVDcwlNW3pgbbqa0sx1ZeSXP\/FKDSXu1g19697NlVhq32HBoQG2yi3K7QQw\/HDtioqG0niT7cqbCXsWvXDhy2Kron0nGYxKeN0VhbT1NzPfaSMraVOahtHwGSDHW30lBXR31dAz2U5Gu4ScxAcpKRHugZ7GNwaJCRKbO3B5XmL5Rgt9mwOxzYqhpob63H5nBgt1Xow0pthGMOO61Z+Zzq\/DNKShoxvSS1MeorHBzrgZ7jCrbyKrqnNNM4k2Ot2GzVjGl6LOca6jPbJkeasJU3EpvopLKiirraSmw2G7byas7PLO1iTAHKpt\/J\/O3cdzc1wHTK7PV5+qg2xbmGWsptNmzpKYJYP\/eV7GDv3r3sKLHTnB4KmlwX5pj3K4CZkW4aaispt9moqm9nBtDy5CE2cp6mhnrq6v4bj0TJ3BgsbOIgXyhxYLPZcThs1Da20lxXgcNhx1bZQGY0u+Q2rHHsdnsyHo+LHBIDwg3CHWgRvV1doqurS0RCNQIQ4eisEPGo8IAAjwhHIiLgQaCExPRom8B4PDIwINoCPhEZnRaRGgQgfKE2EQn7BCC6poUp0ZBLoATFrJgVQQWBt01Mz46L3q4+MZsyf40QQvQF3QIQNcGgcIMIDMxabBkXYTcCFBFoaRE+FwIlIKaFELMDQQEItz8kQn63AEV0vP49oYAI9o2L6dEB0ds3LlJCiNT0sIiE\/UJBEYFwm+joHRWp1KioAYE3JIbHh0VLjVv42kbzxDctwh4jNy29YqAjKPzh86LNqz\/mrvEJn9clwC364uatMY15MiVGW7zGuTD2FYqa5iLkRqB4RVtXRM8Figh19Io2v0uAVwynZkXIhcDXNZc\/F0Lx91rmN9rVJrwgFE9AtEW6xGTCIs7XeoQComVcCDHeImBuv71+ReBuETMDIb0NSo2IdEVEDQglMGDdEbKIBl1CCc61e3YgLAARjMaNfhYSeloTefrouPArCHCLQKBGgEv0xYWIhtwCakR0elYM9\/WK4dmU5XVheurifab9aro3IADhqgmKSEeLcIPwtAyLuEUeJrv8+uMur\/D79HMetOr7xnXtqgmJjragUEDg8ouu3o65vBbShivEP\/3TP4mPfvSjv\/7yl7\/8t16v90+rqqo+9sADD3zoqaeeyn\/jZlXcPFkXRu5FMiDGO2oEeETv6LgY6Ajr27pbRCIRFW4QwYGs\/cUHhAuEPxIVo9EuEfAqegexyP9cp0uJroBLP9Eev4gMjFs2PjXZoXfMjkkhREqElPzFLaQgfOnqOtslABEZn9aLaeYinhQ+EIF\/GRA+o+1ef1hEpxNZB44KFy4xYBTdeDSY6fxLjW845BL4++a2HdffIFqG4znHMC9us+Yx980KIeIiqCBcwXyFIC5CLoTLKHyjLR6BEhIJIURqOJRpy2xfwHhjSwgxGTHiS+TZb0KEs\/ZrHefrIqAgvG3RzLkGrxieHRc+EDWRcRGPhgQomTfDrhqEkrdN6RCMi1RxC5\/fL2o8il48ayIiIURuccvTR\/U3CePNxcjJQFyIeDRsFBu3CLb1itmUsL4uzOJLjZr0K\/184AmL0fGoaAvqNxQ1HVZ5OG+c43T\/WaTvJwb0vpRYeI6GQy6hBPJc24tnfNXIV9yW9VUQFQj0zSKEQAhBfCAEuDj14G3EJ94GznJozy723\/sN9rV0Md3+IMWkiAPM+zigBDjlVtijHGZoy6MMTH6HA6WLRVBExRPfYXK4j\/s\/8jru\/btoGjKfeUv88nXAR+092wGNTVug85VfWO75InDDVifZob73m2Gej0Loi7en98oFgI034o9PE+1tY3PPMZRtPmMYBWj65GQqPdmfAriJG5xLj+\/di6BsmpskSVyYAtzs25OO7109DjPU181jNti0xTIFuVzU2\/GuOplphtE07EDpgSfo8CkcUxxU3OsGd5jP3GI5+AFSXMzar3WcH+JIrYczRxUOn+wh2NWFjzPc\/7kjnMbFZ+\/YaWy\/heuLATTeW2KTKN7LMb8L+DDXb4KyfQ8T6R1l4JkjpsM28z6qcv5vz6AETnHACez6uD7\/aQfnPg\/x6VE6Tt7O80cPcefX+\/NcFyYU7TbpV5oeyNlj7NmlUN8NbX2jPHOPRR5Sb9EdhfvvLjee1\/S8LzaTmNL\/lX2O3tVfWFgb1gDL\/56bfeH\/p4Cb7roXAFewi+nps3zyAz\/gLnsVg7822YfjOm4EUHxEJ6d5+r6dvHDvAZoG831EcBFN7afc7uAv++Czjz2GB3jnXYu5FjtAH98dnGBi6CW+3QM9gz+1\/BBi0xbo7vgHOtsbqdh2GJQAn7x1J58GvnXu+6iaSnfDVzmDm4+\/9zfYS+7np9ffzmMn\/EA3b1t8cun8yM3AGb7W1M1QfzuVtgrOTWh545s\/9+vYsh2I0PHyEBNj\/TR8+SBR4D2zaQ\/nDaYxf\/LWRd85ckgXxNTFucdyPwAu4p6v9RPxueiJQqj+c8yr3\/nJE+eeu48aG\/m4r6KCL4Y9RHuiUFPDJ7KakTLi2HGji\/QnNUPt9VTVtWL+hZMitl4HysOPceLEkzx54nGO3LE7c9lnt9W6j2rcUA7R73+PkZkZ+v+hnR56aP\/n12iusFPyxIvs+i8e6n0Q7fwRN1hdFybnTh1sMOlXpdx6u\/7xUbhvnJeDX+K9yFexVbWSDjcnD7\/9Pe51wSNN\/8DY1BidTcc5HoWLv1r6x2\/z3zgtr+1rcdrNaliqgIiMz01y6UMut4gmhBAiJXqDnpzhqi\/caz4sFULMRlv08b3xj6smJIYtBvHDYbfA0yZSIiUGWmqyjlEjrEdCs5m5K0Cg6EOQLtO78\/Scmz6\/5PGFxagRy3iHP6dNga5JIRLjImQMaQDh8neJTFbSt\/lZbcmJ2RMSk6n88Q0EyBmWCpESvQH33LYuj3ArighHzRNmGrMenGhxLzaE04fo7pZhIYQQo20egRIUcSFEarQlMwTL5M2DwLOUIYp+bFfWPJ91nHoMmW3jfcIFImS0NzEcFuAx+l12vtLzZN7Mc\/NZmNs5xiP6eUofx6qPpia7hDv7cUXviz8bjuQ8HhqYFZbXhWmKLPpVYlj43dl9xSvaBiYt85CeR9T\/cQmvRxGekMU5T\/QJBcXor\/qw1NOizwlHM9MjBbThCpFvWGpbrLhduHBhk9OZ+16cVJMUO7NvRjXUJDiLi7K2iemPbS3N3LaqsRiO0tKFN8aaykwsSbGzNGcfC0miJosy22hqjMnZBGU7tuPMe7et6d\/ELypma6mTpKpS7DS7v1BpLC8hGY5z4raFz8cmhvjxWyl+7w9uZWfpXPvVmSlmUw52bl\/8rkhLqiRSdpzz8mcWn6bGUO1OSuflJBmbQUXfdjGsYiapouLEmWdMoakxNGf6\/Gkkk0UUG9snkxrFRlwz5+vZdugUkfEUR0y\/U7IgCWhFxTn9wDLORXelUZTuD8kYCZyL9CEj\/qkR3kjtYN9OsxxqTAwNs\/mmfWxNh2LVR43Hi4pLKXVqqMliI6dJZib+nVTJh9me1R6z68IK836V7itOtmbt1zIPyRgzKjhLS8mfFg01lsBR6tTPi6ahFRUZ50gjqRVlXl9IG1abl156ia985Su\/OXz48DdtNltfIpEY0DTt5zfffPPssorb+kWlqbyEd8KznLitsOHb+xZtjFr7Hp71dyGerLja0UjeZ+QrbnJt6Tzeic7NdUuWgAZlHj\/RGlnYJGuLK7bo5trAyZcnJynaJu\/alkzxbp584cmrHYVEsgBZ3OZRun371Q5BIpGsAHJYukw0NUYs7xpKiURyNbmmituVUOVMdTdQ1XA+r3lkrL0Oe0kZZSUOymvPrbrq6WqSnOikvil\/PlYXjbH+80ws4etZE4P9jKkasaFO2s9PLeNQy9VUJelubODc2AoqHGKDNNQ3M3Xtrlu\/6lxDxe3KqHJ++eNOzp78obVpRBuj4ehpvOFehvsiPPpHH17XY\/vUhSinHvnXq2heSfDiwUMcCQ9mPRajtboy102mjXB8\/0FaX1N5s+Nejv7zz5dxqOVqqlR+cPwkL\/5ktvBjWpCcHeHkqW8sS2cl0VmTxc1cF2OtyknOTDExVZgaxkq7tLmkJL\/uRnuHN4DbDn6CWw4cofq+A1nbJplZzGy7BI2QyUFZYJ5JqgsfK5ClqKfs9mKgGEf+zQpDM2mPJU7ubvEQPf4CE+mH1Nf52zMRAt94ZW6z6XEiQPlHnFDsylm2tmSsNFULmK8j2soT8Th\/fWRn3lcVQvHuB4nPfof01y2XplBajX6yhD69Rll2cVMnzlNfVYHNZqOq0XrYMtJaja2yltqqCmzlVbT2Zw0XYiM01VVhs5VT3dit3x2Y6WLyqHIGm2txbNvBrh1llFc3zy23MVHRWGqX1AnONTdSX1\/Ho8cikGfdZWz8Z1wABvt6GRocYiaZpLuxjoamJmrLHWzbVoa9So\/DTJG0qEbIhOTI8zjsdVlLiZI0f6qET50dscxjf1MtDd3pcjBDc20t52e0POqphXTWV+JQjgPHOVBuM5RL5u1qqrDRaKzvnepuosHYFm2MWpuN5pHXaayqpLqulnK7HYfdRkPnmHWis7jlzoeAZ+kx7tRir32XHiB6+h8za3knfvB\/gBrKtxcZy9Z+xdhgJ01NzfTPGy6a9V0rTdVCzHREKs+VlPD1QZXkSKuuHcr5p4ohY2dmyiIztLFWSsq+oL\/OSqE0j8X6yYLzpk3QWFVLv6FH0qY6qa1rJ4l1n143mC6\/EkIkhnUFDV6\/oQUKCivPRjSkL9dw+0IiHPAYlo2UEIlh4QWBq0a0hHWzhLdt1FwXY6nK0VUvNS19Yny4Q3hdNcYSFHMVTcJMuzTQa1hOXKLG7xMeFwKXlcbFMDNkLT9pGU2IgbCuk1G8ITEQ7RJ+X0i8+m9muqHYEjRCJoed7spZDiRme4WS\/ts0j6+KoIJQAsbyIsNsEeibNc\/BqHlrJwe6jHPmEeG2iOgdnbXQKMV01VEwKoSYNowWNWJUCJEwjBW9bw1kliT52zpEJOgWYN1v5uc97J4zh+hLq\/TlSbrlZDanvek+BwhF0f\/bNq4vErLqu6aaKtNQzHRE8YxxIxUfFR2RDtE3EBVtPj1Gd6A3r7LI9DBZFhnza8KEPP3EWtmliF7jJMQHAplzYtanx\/Noxa4WK6s8EobDy9siUkKI0bA7r9MpGnQJajoyrw0aawWHWzw5F\/NAQBG4QmLKRBejM1+VY3i9vG0LOqGVikaYrG8dDrsF+DMnbjiUvz3pQpHtxdIvYH\/WhWql8XlrSRqhhaRERw0CfGI8E7NPTAphkcdnxbOuLKVR9jpXizW+VqSGgwJCxvpBa43ScNgtcIXEaNZ6xuDAtBgIKgJ3WCQMX1hNZDxrv8Elu8Cmu\/z6WtHJPj3+6KTo8iHwdoj4dIdRwPQk6MVAES3RuBBiVgSU9DraRfruPE2VeULMdUTBeTqhxGibUEC4Aun1xtbKIjN0jZG1QskiOIt+YnHevtujtzeRPubcOVnYp9cmK6s8Ut\/kWz0QfOwz+lzTB\/IvzUoByo07jL80klG4cDHFu29HUQLV3GJMWP3qV1HYsYVSE11Mek85qhyS\/PvrUZTdH503P2atosFEu\/Ru\/E2UYGWWZjuev\/12Frhv9cium4tjEd3QYhqhhRRxz+koXk6zq7yCvccieNseZjtY5nEzcCG9t8RvuEAPPxpXTXOQj0QK4KJunMjTrj2uL0HPI+zZfwyXP0Ik4Ob4\/vs5djxKzSOuzBrEG28sy9rv0tl6eyVezqDsOEiEGtz7tnP7AyE4c5I\/f+IkuIIcTp\/Ei3GUQJgH9zmBUu562LCFLNZ352uqzDDVEc3bZqqbT+05yhZ\/F90nKjLrM\/Mri+aRpSYxUyhZBGfeT6zO228BeohOGobjmV8CSZKY9OlrkMKLm2MzO4DunleYmRnh5VeiEP0er1nM59s3lRDt7uBcZzt1Vds4CdS7b8W+aQvRky8wFEsy1d\/M4dPgO1bON010MeYzDMV8zO0levIYrf1DdDfXUl7ZjIrDQkUzMd\/VA8DmEoXo8Qa6RyYYOd\/KXzzSA1su5r30Fyl\/eTQ+1wNL0QiZNXcfTbMDeKI9QA0nKncDWOSxgoo\/9RA9fpym9nZq7zxEFPje999YwoGW065SinZ+goDxgw5fPPopjni+BPQQxcOX7twJxTdRoUDSROOdX0+Ubv9e\/muNAoA7VMVOoHjfPfiIcuZsFN8JN+l1JfObmHnDKLDvmmGuI8raIDlC3b2H6QG+eOfv0H++n8HBEWaS1soiU2PVjR9DAVKopgoly0+vzfqJ1Xn7w9\/nHgWOffXrtLc2sO3waeAk\/3dVf7JtjWA15zba5suad9LnFXy95m7w7PkPl7tGRKJpy21fjtFX8UVEXAgRN9XFCGGmyhGpSRHK0gX5WqLGw+YqmmmzIVliWPiULJuw1yMUxSdGrW79E1HhMuba0sSjAQGBnFt4c41PIRohE6Z7hWv+UMYij0LMiojfY8ybBEUkXKPPJRY4LE3Pw6S3ttYTGe1B17ILkRBtHgQZ5XhcBJkbuun7DYjZJeiJMs3v0vtdb1ai9SGoJ2euMhpUcnRG2XqjvH3XRFO1AFMdkd42f9+sMZw0sVSHhy2VRebHmVMQWV8TVola2E+szltqus+Y+0XUhNpE0IPwtgyb9um1yIorj2Ce9iSpkixymipVBhsrOJb8K149cdvCJ9UpBn\/0c+zbP8q+3Vuz926qizFT5eixqOCYd3wLFY25dknXyFBcSml+d5J+vJhKUVoNY8Qbi6UonacgMtP4LFUjZHJUzlU7cPcFmH71BNnZss6jOZbqKVP0X0PKjstaT5SrxgENjaLMcTR9R8bfSWIxKC1AbwQqExNJdu7MaqMWY2wSdu\/MWg+sJVG1XDWWijNzbpfad\/NGMk9HpCVVNGM\/mqZBti4oqVFcnHEnmSqLFqKhqlqWGsvimliAdT8pTCtl3qfXGldVeTTUWIHHqrhJlkxypBnH3mOEBuJUm7jmJBJ4\/\/WTq6o8SiV7iEqH0OVj\/yA1\/g7++H3QYSWXgewnGVb9wxDlK9NMajLRl0vx7vt4RpqFJIsg+8kcq17cipxbkRIhiURypVmTa0slkquBGtM\/aJCsD5Zd3K6UCic2MUR393lGZqx63RpT4lyGqmZ+Tpcd5xKZOt9MfXP\/ip\/DK6GmymHZqqI0MZqrbZSUlVHisGWtyV0bXJl8qowNnqf7\/CCxa3GVvAnLLm6rr8KJ0V5XQdkuhcOHD7F32xfoN\/2y5dpS4lyOqmZ+Tpcd5xK58No3OPXtsRUubldGTZXDslVFOurQ33PsDLQMDNPbEkbZOn8NytVk9fOpzfRTbSthz\/5DHD60n7I\/O3dNWkDms+zittoqnIn2v+Do6R4CHeOI+AAuInz3dbPqtraUOMtT1egsyOly41wi+x7+DvFv5v5ieCH6qELVVCuFpsaYiWXdpi1ZVWSOnYtAiM\/edgt3PPgn3LPP5Dc0tIVaqmRMvcwisBSd0GrnU+X5uw5yBg99s4LZvgCceZaBqyfwWzGWVdysVDgL1TvLV+GUfcxDW9coJ+7ZycS\/vEgPsO0681K6lpQ4y1HVWOU0f5xJBs81UV1Zjs1WQWPniOW+x9rrqKyup7ZCV\/BU1LWjAiNnP0XJF+aW\/1jpo0w1PQWqqeaTV4WFxkhnE1XlNmy2CtrHkqCN0VhbT1NzPfaSMraVOahtHylAVYS5YguNN376JjDCK0NDDA5NmBabwa8fYH9j1uhAPY+jrIR\/VQFUzrfWU1Fuo6KqgaEYK6MTssznwuMlx1qx2aqN\/q5yrqE+k\/vkSBO28kZiE51UVlRRV1upq5jKqzk\/4+CTz7TRN\/kCB0pVur55EnDxkfX+BQer5VdmKhwr9c7lqnD6jOVb3nD+X0dfK0qcZalqLHJqHWd6yRLCF2oTkbC+pKjLfAWcEQfC5QuLro5QRosTDbky7bPSR1lpegpRU5nHZKHCEkL0BfV4a4JB4c4s2ZrWf9UehK+lVwx0BIU\/PLB0VZGFYis1GZm3VMp86d1om1eAN\/PceMSr9+VUSnT5FQGKCITDokYxlFnxvhXQCZnl0+J4ht6oZVwIMa73YcVY+tbrVwTuFjFjnGOUGhHpiogaEEogfV2Ni4BLV39ZKbDWIiusPNLJVeFYqXdC4geXo8Ix3FleC+dVNmtFibM8VY15Ti3jNLRL\/khUjEa7RMCr6AXVYiFgNOTSc220wW0om\/TiprfPXB9lremxbttCNZVpTBYqrNSkfq58HZNCiFTGkyaEEMMhV86a0bnELX5erPpnXOQWHksSUeEB4Qr0CiFmRQCEEuwTqfGI0af1V6fXCPdND6yQTig3n5bHi0+LgILwtkVFV8BlXGteMTw7LnzG9RU3bijSb4JdNel+ny7eLtE1uQalbXlYWeWRQY4KB2v1zn+8HBWO86PU1iic+fu+RT+4WDNKnGWpashq+1xOLeNEt+eccivsUQ4ztOVRBia\/wwGLn1tNXQSlQtFzraVMrCZW+ihrTY912+arqSxiwlyFlfjl64CP2nu2AxqbtkDnK78A4N2LmM9BLuG8WPVPO4Bd74V5v\/RZvI+v9wXpOXmIiqrPcRKFZx44QOLCOODjvtv05CfeeRsAuwYroxPKzafl8djKkVoPZ44qHD7ZQ7CrCx9nuP9zRziNi8\/esdPY3xau1zsC72UdZeftHjz0EH5peElRXQus2PfczNU7t\/PBy1DhwFb2\/9FDBL50kEWnANaIEmfZqhoTrOO8jhsBFB\/RyWmevm8nL9x7gKbBPHtPT0QtqDkX0Sz1UVaanr\/jby6zbVYqLL2RfXx3cIKJoZf4dg\/0DP4UFSvX3VKPZ94\/C1m2v\/XA40x2+Og524PL\/z+p2Ar2zR8CTvOPgzNosSFOHzsOnke59Xc\/sio6IcvjOWHP3UeNrXzcV1HBF8Meoj1RqKnhE1lvfHoXKGLHjXNvlkXbdnPY58d7997Liu+aId+wdL4Kx1q9s1wVjv5cSGFuSLUIa0OJs3xVzfyc5otzNtoilGytU01IDFvEFQ26BOm5FUPZFB5O6KZWjzEUtdBHWWl6ClJTmcVkpcISs5m5Nf14+jnoms1tf27Ol3Be8vTP3D6Xn\/FIzbwpgLho82bP2XlFOhUroxOan0\/r46Wvl8y28T7hYk47nhgOC\/Bk1FLZ+UyN6\/r5wGI6pTXGqiiPzFQ41uqdy1DhJJMki4uX+A67FpQ4y1XV6K\/Nyekicaa1TsXO0sw2VvvVtCKKjE2SsRhFpaUUkURNFuW81lQfZanpKUxNlU1eFVbmeMVsLXWSVFWKnU69\/XYnpYX6idLkUWwtSb+kDlJZsh\/CUb79J\/tyXj82+Cpvcx03K7dQumh4BeqEFuSz0ONl70qjKN2fkjESOOf6V851eG1wVZVHEokZ154KS6PfPB+5AAAMm0lEQVS7fj+HT1UwmnqG3ddSBVjHXFXlkURixrWowrJfV0Got04WtmsEeZokV4VrT4VVxB2PP8MdVzsMyZKRxU1yVZAqLMlqI4elEolkXVJwcVMnBukfWfyLX8mZIQbHYoDGYHsrgzNX0TMQ66e6soGJ9aA6yCFJd2MD58aWt8p5gbYqOUZrczcFfK3v6nAZWql8aOoU\/d3d9A+tnmZKcuUouLiNR45xcO9fkn36J87VUdWY++37V55R2N\/6OpDg5aMP8eLPrp5mQP1FP2cincvSEK1tVH5w\/CQv\/mR2Wa+er1hSX3uRh47V8voaN0JcjlbKionuRuwlOzh4+DAHlR3Ud8sCd61TcHHbd18AOM0\/DqWvgCT\/0naas8f\/LuuXt2P88EVwb9M1LcUKbLIvb3pPnZlhCbagvDj3uXAt43Vacv6BNdQ1pWrdyhPxOH99ZGfuw1nqqHwsUCzZN8FlqIOuFPO1UoWTZGJkhLEJ4x412c+Rw8ehpo24SNFRA+0\/WD2PnuTKUPic2\/YDBBV4ruM1\/e\/kG3ScBTjDy8NGwZv5IcejUPnJmwDYBFycfoP+c800tXYylVUfzHQ6M4Ot1NY30lhXScm2bZTYK+ic0ihE8wNJhrpbaairo76ugR7mBIRTg+3UVpZjK6+kud\/iHVob4ZjDTmvWcpmpzj+jpKRRH7aZ6HOSY+1U153LrHQaa6+n\/txYnhhVzrc2Ul1VTUNrJ92d3UwkC4gRledKSvj6oApMmaqjrLDUVgG\/eK2f9qYm2rtHsvQ\/heTe7Lzq+qu67rTcZ4Jam40m403SrB9opooeLUcrZbWNdX5V2qsd7Nq7lz27yrDVnkMr+iiBlg5mn7kP58wALc\/ClutWz0cnWQNYLb\/Sl6B4xagQYjatxIGM5WG0xSPAJ\/TftDZ0RNlaGUVfimWl00mMthnbekRkYEC0BXwiMjpdgOZnbomKu8YnfF6XALfoiwsxOxDUH\/eHRMivWzc6TE0IhiHE0CgJEdf1Tf5eS31OIhpcsHRsTikzn0RGzeQL+PT8GYqmpccYn7NmxPOro+ZjpljK+bV0Y9mTJxwVhSqWrM5rr18R4BfTYk551TVtvX3cQtGTrZWy2sYyv90vCQVEsG9cTI8OiN6+8YwJJZ7WXbmDFgoiyVpj5ZVHhnInODAuIl4Evl4xPRAU4BbRxHRGX2NsLEJuBK6A7sKa7hKACA9PWep0RCKt5YkvOOZSND\/pdXIt6cWWhhKnL66rdeYK1qTwkXa+LWS2T7\/owtGEEIb3q2U4YanP+UmkRqCk14bqxdAVtChu6TykF\/oZPq7gwM8KiDEugunilk8dZcF8xVK6uHlDxjrbFn1N8GxBiiVrTZKY7jLaOC36AobyKq9WyVzRk6uVstD4WOX33wYMryDC6w+L6HQiN253aIlrPiVrgZVXHjkVTvgUju\/fhfsMhB74OFtv+zReIjx5\/AmORxVOfCbLLvAmBP7qK\/o3u53X4wbi7yYtdTqQ1vLkThwtVfOTuDAFuNm3J+36fpcLAL9+neejEPri7ekt9cctKD3wBB0+hWOKg4p73eAO85lbii31Odv+w+9C9B0jao3pHut9Jy+8BbhQbjLWMzqv100f744WFON8TNVRFixQLAHgovqPDwCw47b\/DHTy+q8LUSxZa5LYWsEzPoXjx+7HezKK7\/G7Kc63PWCq6MnSSlltY5nfjTfij08T7W1jc88xlG0+Y67YySdr\/BB5jvMTa2leVbJclvk9tyIOuB\/S\/1cJ8Jl9xcBuqoNuImfOguckd26f\/wGCUahSGIXregudTitJswuzAM2PY8t2IELHy0NMjPXT8OWDRIH3im7g08C3zn0fVVPpbvgqZ3DzyVstRGgUcc\/X+on4XPREIVT\/OZxY63Ou33ILcIrHG1tprj\/GSaDn+Rcx+y2l4j0H8dCD\/0w3M6rKyMsdRAA2f7jAGNM7zKeOKoxUKve\/FBeiWLLSJOk689sfPglRXXn1wO3b826fLmHzFT1zWqmsmOdtY5XfiyON2Evu56fX385jJ\/xAN28bn7ru+P2P4\/Of5BM7CxEhSa5J8imPdM0MwmsMg4SYs4TmDqF0pZE\/44EZnhtyWuh0TIelohDNT0r0Btxz+3V5hFtRRDgaF+Md\/pz5v0DX5CI3vnFdweNpmdMu5dHnjHcFjfkdjwi3hYXLmOszY34sGIbVpcdo5LZvVuRXR1m8ep5iSVfiuDNKHH0O0S2GE4UplizPq548ESB72G29vaWiJ0srlU\/jY5rf778qQh5lrh3+rsyc23DYnRnuSq4NVkl5BDMTExTv3JklktSYGpukbPfO3F9UUlVwOjOPqbEY9tJS429znY4ai+EoLV24PmzJmh9IxmZQ0bU52cQmhvjxWyl+7w9uZecimpuZ8\/VsO3SKyHiKIzuzjmepzymQ5AwT\/56ibPMY7m2HuGdglhO3lS45Ri2pohlKprzqKPNXL9BWqWoyR9eUo+YpIPfWmiTQYjOojq3kPmy+vbmihxytVD6Nj1V+1ZkpZlMOdm4vzYlhgcZLsqbJZwW5rLO4dee871dRxPbd8x+D4nnF0Vma3aGKKN26sDjkbpO9uZOtW5f2Bafi0q2mHrjSnfu4Y2GYC9HG+NqhU+Dvyi1sAM7t3HbH5ayOTNLd+Je89bGjfO7jO5j853+lBzhxg7OgGIuKnZk3gKLi7NYWY5XCrFdTPC9Bc4UtvY+svwvIvdV5BSgq3crC0My3L8oqNEXFpZk3UqezaJFt8ufXuXW7id15YT4k1y7yLSofGpR5\/ERrKlZl9++908OxQ6c4ZvztCfZy14K5Sslykfl9fyPPdD6Kd\/PkC0+u1s6558luEo9NMTmbwFGyg+1b5W3DyiHz+35HFrerTHHpdnYvOnyULBeZ3\/cvUnkkkUjWJbK4SSSSFSWpxpiamiK2FHvDKiKLm0QiWRm0KZqqy3GUlLFjxw7KHParqo6Sc24SiWRFGHzuUR45E8Xf1suDH7uen7z8fT64uyz\/i5IqWrETksm5rzIlk2gr8BOD8s5NIpGsADG+93wEfF08ed8d7N69jyPV1VRkLWVTJ85TX1WBzWajqvE8GirNXyjBbrNhdziwVTXQ3lqPzeHAbqugdXAmz\/EWRxY3iUSyApTy6Sdr4PRhbOWV1DU0c35krjglR1op2XWIU5td+Fxw9vkfooK+fljx0tYVwTd5kqMPtRPq6KXNDw\/t\/++MXMa0nSxuEolkRdh93zPMjg7QVlvBhe8\/w6G926hqHgJi\/K9HHwJvC6mmJ3n4i25gkz7sjIPr0ce4r+IID\/+pB5RH+eN77qDy6P3AG7xzGSp5WdwkEsmKkFSTlO6+jfv+5HGavv0q4x01nD32d0yob\/KtHgg+9hm9oH1g3sI348e531UnAd3wohnKl8sx3sviJpFIVgCVMyUObNVNDI5NEYtN8EpvNyg3UuLYzA6gu+cVZmZGePmVKES\/x2vGT1ikfYXZmr5snZU21U1tZS3dU4V59mRxk0gkK4CTqmgEz5lH2L9nB2Vluzh6GlrCD1BadAtPt\/mIHD\/Mtm17eeRZgLNEfvw2XIAbP6T\/XsV123dgzMLh2JzlGrrwFs9GnuWNC0swsGZxWcojiUQiyUUjNjXJbALKduzM0Vol1RhqEpxbSylOqiSLnBQlYmjOOf1ZMjlnZkkmtUX1U6umPJJIJJJciijdvtNEaQXFzlKKnZk\/9ILmzHY25iqnLterJ4elEolkXSKLm0QiWZfI4iaRSNYlsrhJJJJ1iSxuEolkXSKLm0QiWZfI4iaRSNYlsrhJJJJ1iSxuEolkXSKLm0QiWZfI4iaRSNYlsrhJJJJ1iSxuEolkXSKLm0QiWZfI4iaRSNYlsrhJJJJ1iSxuEolkXSKLm0QiWZfI4iaRSNYlsrhJJJJ1iSxuEolkXSKLm0QiWZfI4iaRSNYlsrhJJJJ1iSxuEolkXSKLm0QiWZfk\/b36S5cubXzzzTfZuHHjlYpHIpFIlsxvfvMbUqmU6U1a3uL2wQ9+sOfOO+\/8w6KiomKbzbbBZrPZANuqRCmRSCQFomkat956a8zsubzF7Z133rn7qaee+sD09LRbCPEHwLZLly45Ll26JIezEolkzSCEuKjfe82xpLswr9e72W633\/rb3\/52z6VLl0oAOU6VSCRrCk3Tfp1KpX6sadrPb7755tklDzGfeuqpovHx8f+wadOmslQqZV\/NICUSiWQ5CCHevXjx4v8rqLgBHD16dKPdbi\/ZsGGDLG4SiWRNcunSpdRNN930TsEfDjz11FMbkF8hkUgka5inn376t\/8ft4HshQibyhUAAAAASUVORK5CYII="
        },
        "css": {
            "style\/custom\/tao-user-styles.css": "data:text\/css;base64,ICAgICAgICAgICAgICAgICAgICAgICAgICAgICAgICAgIC8qCiAgICAgICAgICAgICAgICAgICAgICAgICAgICAgICAgIC8gIFwKICAgICAgICAgICAgICAgICAgICAgICAgICAgICAgICB8ICAgIHwKICAgICAgICAgICAgICAgICAgICAgICAgICAgICAgLS06JycnJzotLQpUSElTIENPREUgSVMgR0VORVJBVEVEICAgICAgICAgIDoqXyogOgogICAgICAgICAgICAgICAgICAgICAgICAgICAgICAgIF86IiI6XF9fXwpBVVRPTUFHSUNBTExZICAgICogKiAgICAgIF9fX18uJyA6OjogICAgICcuXwogICAgICAgICAgICAgICAgKiAqPT09PT08PD0pICAgICAgICAgICBcICAgIDoKRE8gTk9UIEVESVQhICAgICAqICogICAgICAnLSctJ1xfICAgICAgLycuXy4nCiAgICAgICAgICAgICAgICAgICAgICAgICAgICAgICAgICBcPT09PTpfICIiCiAgICAgICAgICAgICAgICAgICAgICAgICAgICAgICAgIC4nICAgICBcCiAgICAgICAgICAgICAgICAgICAgICAgICAgICAgICAgOiAgICAgICA6CiAgICAgICAgICAgICAgICAgICAgICAgICAgICAgICAvICAgOiAgICBcCiAgICAgICAgICAgICAgICAgICAgICAgICAgICAgIDogICAuICAgICAgJy4KICAgICAgICAgICAgICAgICAgICAgICAgICAgICAgOiAgOiA6ICAgICAgOgogICAgICAgICAgICAgICAgICAgICAgICAgICAgICA6X186LTpfXy47LS0nCiAgICAgICAgICAgICAgICAgICAgICAgICAgICAgPCpfLyAgIDwqLwoK"
        }
    }
}